%!PS-Adobe-3.0 EPSF-3.0
%%Title: bar_words.eps
%%Creator: matplotlib version 3.3.3, http://matplotlib.org/
%%CreationDate: Tue Jun  8 22:31:39 2021
%%Orientation: portrait
%%BoundingBox: 90.0 252.0 522.0 540.0
%%EndComments
%%BeginProlog
/mpldict 8 dict def
mpldict begin
/m { moveto } bind def
/l { lineto } bind def
/r { rlineto } bind def
/c { curveto } bind def
/cl { closepath } bind def
/box {
      m
      1 index 0 r
      0 exch r
      neg 0 r
      cl
    } bind def
/clipbox {
      box
      clip
      newpath
    } bind def
%!PS-Adobe-3.0 Resource-Font
%%Title: DejaVu Sans
%%Copyright: Copyright (c) 2003 by Bitstream, Inc. All Rights Reserved. Copyright (c) 2006 by Tavmjong Bah. All Rights Reserved. DejaVu changes are in public domain 
%%Creator: Converted from TrueType to type 3 by PPR
25 dict begin
/_d{bind def}bind def
/_m{moveto}_d
/_l{lineto}_d
/_cl{closepath eofill}_d
/_c{curveto}_d
/_sc{7 -1 roll{setcachedevice}{pop pop pop pop pop pop}ifelse}_d
/_e{exec}_d
/FontName /DejaVuSans def
/PaintType 0 def
/FontMatrix[.001 0 0 .001 0 0]def
/FontBBox[-1021 -463 1793 1232]def
/FontType 3 def
/Encoding [ /zero /one /two /five /F /W /a /b /c /d /e /f /g /h /i /j /k /l /m /n /o /p /q /r /s /t /u /v /w /y /z ] def
/FontInfo 10 dict dup begin
/FamilyName (DejaVu Sans) def
/FullName (DejaVu Sans) def
/Notice (Copyright (c) 2003 by Bitstream, Inc. All Rights Reserved. Copyright (c) 2006 by Tavmjong Bah. All Rights Reserved. DejaVu changes are in public domain ) def
/Weight (Book) def
/Version (Version 2.35) def
/ItalicAngle 0.0 def
/isFixedPitch false def
/UnderlinePosition -130 def
/UnderlineThickness 90 def
end readonly def
/CharStrings 32 dict dup begin
/.notdef 0 def
/zero{636 0 66 -13 570 742 _sc
318 664 _m
267 664 229 639 203 589 _c
177 539 165 464 165 364 _c
165 264 177 189 203 139 _c
229 89 267 64 318 64 _c
369 64 407 89 433 139 _c
458 189 471 264 471 364 _c
471 464 458 539 433 589 _c
407 639 369 664 318 664 _c
318 742 _m
399 742 461 709 505 645 _c
548 580 570 486 570 364 _c
570 241 548 147 505 83 _c
461 19 399 -13 318 -13 _c
236 -13 173 19 130 83 _c
87 147 66 241 66 364 _c
66 486 87 580 130 645 _c
173 709 236 742 318 742 _c
_cl}_d
/one{636 0 110 0 544 729 _sc
124 83 _m
285 83 _l
285 639 _l
110 604 _l
110 694 _l
284 729 _l
383 729 _l
383 83 _l
544 83 _l
544 0 _l
124 0 _l
124 83 _l
_cl}_d
/two{{636 0 73 0 536 742 _sc
192 83 _m
536 83 _l
536 0 _l
73 0 _l
73 83 _l
110 121 161 173 226 239 _c
290 304 331 346 348 365 _c
380 400 402 430 414 455 _c
426 479 433 504 433 528 _c
433 566 419 598 392 622 _c
365 646 330 659 286 659 _c
255 659 222 653 188 643 _c
154 632 117 616 78 594 _c
78 694 _l
118 710 155 722 189 730 _c
223 738 255 742 284 742 _c
}_e{359 742 419 723 464 685 _c
509 647 532 597 532 534 _c
532 504 526 475 515 449 _c
504 422 484 390 454 354 _c
446 344 420 317 376 272 _c
332 227 271 164 192 83 _c
_cl}_e}_d
/five{{636 0 77 -13 549 729 _sc
108 729 _m
495 729 _l
495 646 _l
198 646 _l
198 467 _l
212 472 227 476 241 478 _c
255 480 270 482 284 482 _c
365 482 429 459 477 415 _c
525 370 549 310 549 234 _c
549 155 524 94 475 51 _c
426 8 357 -13 269 -13 _c
238 -13 207 -10 175 -6 _c
143 -1 111 6 77 17 _c
77 116 _l
106 100 136 88 168 80 _c
199 72 232 69 267 69 _c
}_e{323 69 368 83 401 113 _c
433 143 450 183 450 234 _c
450 284 433 324 401 354 _c
368 384 323 399 267 399 _c
241 399 214 396 188 390 _c
162 384 135 375 108 363 _c
108 729 _l
_cl}_e}_d
/F{575 0 98 0 517 729 _sc
98 729 _m
517 729 _l
517 646 _l
197 646 _l
197 431 _l
486 431 _l
486 348 _l
197 348 _l
197 0 _l
98 0 _l
98 729 _l
_cl}_d
/W{989 0 33 0 956 729 _sc
33 729 _m
133 729 _l
286 113 _l
439 729 _l
550 729 _l
703 113 _l
856 729 _l
956 729 _l
773 0 _l
649 0 _l
495 633 _l
340 0 _l
216 0 _l
33 729 _l
_cl}_d
/a{{613 0 60 -13 522 560 _sc
343 275 _m
270 275 220 266 192 250 _c
164 233 150 205 150 165 _c
150 133 160 107 181 89 _c
202 70 231 61 267 61 _c
317 61 357 78 387 114 _c
417 149 432 196 432 255 _c
432 275 _l
343 275 _l
522 312 _m
522 0 _l
432 0 _l
432 83 _l
411 49 385 25 355 10 _c
325 -5 287 -13 243 -13 _c
187 -13 142 2 109 33 _c
76 64 60 106 60 159 _c
}_e{60 220 80 266 122 298 _c
163 329 224 345 306 345 _c
432 345 _l
432 354 _l
432 395 418 427 391 450 _c
364 472 326 484 277 484 _c
245 484 215 480 185 472 _c
155 464 127 453 100 439 _c
100 522 _l
132 534 164 544 195 550 _c
226 556 256 560 286 560 _c
365 560 424 539 463 498 _c
502 457 522 395 522 312 _c
_cl}_e}_d
/b{{635 0 91 -13 580 760 _sc
487 273 _m
487 339 473 390 446 428 _c
418 466 381 485 334 485 _c
286 485 249 466 222 428 _c
194 390 181 339 181 273 _c
181 207 194 155 222 117 _c
249 79 286 61 334 61 _c
381 61 418 79 446 117 _c
473 155 487 207 487 273 _c
181 464 _m
199 496 223 520 252 536 _c
281 552 316 560 356 560 _c
422 560 476 533 518 481 _c
559 428 580 359 580 273 _c
}_e{580 187 559 117 518 65 _c
476 13 422 -13 356 -13 _c
316 -13 281 -5 252 10 _c
223 25 199 49 181 82 _c
181 0 _l
91 0 _l
91 760 _l
181 760 _l
181 464 _l
_cl}_e}_d
/c{{550 0 55 -13 488 560 _sc
488 526 _m
488 442 _l
462 456 437 466 411 473 _c
385 480 360 484 334 484 _c
276 484 230 465 198 428 _c
166 391 150 339 150 273 _c
150 206 166 154 198 117 _c
230 80 276 62 334 62 _c
360 62 385 65 411 72 _c
437 79 462 90 488 104 _c
488 21 _l
462 9 436 0 410 -5 _c
383 -10 354 -13 324 -13 _c
242 -13 176 12 128 64 _c
}_e{79 115 55 185 55 273 _c
55 362 79 432 128 483 _c
177 534 244 560 330 560 _c
358 560 385 557 411 551 _c
437 545 463 537 488 526 _c
_cl}_e}_d
/d{{635 0 55 -13 544 760 _sc
454 464 _m
454 760 _l
544 760 _l
544 0 _l
454 0 _l
454 82 _l
435 49 411 25 382 10 _c
353 -5 319 -13 279 -13 _c
213 -13 159 13 117 65 _c
75 117 55 187 55 273 _c
55 359 75 428 117 481 _c
159 533 213 560 279 560 _c
319 560 353 552 382 536 _c
411 520 435 496 454 464 _c
148 273 _m
148 207 161 155 188 117 _c
215 79 253 61 301 61 _c
}_e{348 61 385 79 413 117 _c
440 155 454 207 454 273 _c
454 339 440 390 413 428 _c
385 466 348 485 301 485 _c
253 485 215 466 188 428 _c
161 390 148 339 148 273 _c
_cl}_e}_d
/e{{615 0 55 -13 562 560 _sc
562 296 _m
562 252 _l
149 252 _l
153 190 171 142 205 110 _c
238 78 284 62 344 62 _c
378 62 412 66 444 74 _c
476 82 509 95 541 113 _c
541 28 _l
509 14 476 3 442 -3 _c
408 -9 373 -13 339 -13 _c
251 -13 182 12 131 62 _c
80 112 55 181 55 268 _c
55 357 79 428 127 481 _c
175 533 241 560 323 560 _c
397 560 455 536 498 489 _c
}_e{540 441 562 377 562 296 _c
472 322 _m
471 371 457 410 431 440 _c
404 469 368 484 324 484 _c
274 484 234 469 204 441 _c
174 413 156 373 152 322 _c
472 322 _l
_cl}_e}_d
/f{352 0 23 0 371 760 _sc
371 760 _m
371 685 _l
285 685 _l
253 685 230 678 218 665 _c
205 652 199 629 199 595 _c
199 547 _l
347 547 _l
347 477 _l
199 477 _l
199 0 _l
109 0 _l
109 477 _l
23 477 _l
23 547 _l
109 547 _l
109 585 _l
109 645 123 690 151 718 _c
179 746 224 760 286 760 _c
371 760 _l
_cl}_d
/g{{635 0 55 -207 544 560 _sc
454 280 _m
454 344 440 395 414 431 _c
387 467 349 485 301 485 _c
253 485 215 467 188 431 _c
161 395 148 344 148 280 _c
148 215 161 165 188 129 _c
215 93 253 75 301 75 _c
349 75 387 93 414 129 _c
440 165 454 215 454 280 _c
544 68 _m
544 -24 523 -93 482 -139 _c
440 -184 377 -207 292 -207 _c
260 -207 231 -204 203 -200 _c
175 -195 147 -188 121 -178 _c
}_e{121 -91 _l
147 -105 173 -115 199 -122 _c
225 -129 251 -133 278 -133 _c
336 -133 380 -117 410 -87 _c
439 -56 454 -10 454 52 _c
454 96 _l
435 64 411 40 382 24 _c
353 8 319 0 279 0 _c
211 0 157 25 116 76 _c
75 127 55 195 55 280 _c
55 364 75 432 116 483 _c
157 534 211 560 279 560 _c
319 560 353 552 382 536 _c
411 520 435 496 454 464 _c
454 547 _l
544 547 _l
}_e{544 68 _l
_cl}_e}_d
/h{634 0 91 0 549 760 _sc
549 330 _m
549 0 _l
459 0 _l
459 327 _l
459 379 448 417 428 443 _c
408 469 378 482 338 482 _c
289 482 251 466 223 435 _c
195 404 181 362 181 309 _c
181 0 _l
91 0 _l
91 760 _l
181 760 _l
181 462 _l
202 494 227 519 257 535 _c
286 551 320 560 358 560 _c
420 560 468 540 500 501 _c
532 462 549 405 549 330 _c
_cl}_d
/i{278 0 94 0 184 760 _sc
94 547 _m
184 547 _l
184 0 _l
94 0 _l
94 547 _l
94 760 _m
184 760 _l
184 646 _l
94 646 _l
94 760 _l
_cl}_d
/j{278 0 -17 -207 184 760 _sc
94 547 _m
184 547 _l
184 -9 _l
184 -78 170 -128 144 -160 _c
117 -191 74 -207 16 -207 _c
-17 -207 _l
-17 -131 _l
6 -131 _l
40 -131 63 -123 75 -107 _c
87 -91 94 -58 94 -9 _c
94 547 _l
94 760 _m
184 760 _l
184 646 _l
94 646 _l
94 760 _l
_cl}_d
/k{579 0 91 0 576 760 _sc
91 760 _m
181 760 _l
181 311 _l
449 547 _l
564 547 _l
274 291 _l
576 0 _l
459 0 _l
181 267 _l
181 0 _l
91 0 _l
91 760 _l
_cl}_d
/l{278 0 94 0 184 760 _sc
94 760 _m
184 760 _l
184 0 _l
94 0 _l
94 760 _l
_cl}_d
/m{{974 0 91 0 889 560 _sc
520 442 _m
542 482 569 511 600 531 _c
631 550 668 560 711 560 _c
767 560 811 540 842 500 _c
873 460 889 403 889 330 _c
889 0 _l
799 0 _l
799 327 _l
799 379 789 418 771 444 _c
752 469 724 482 686 482 _c
639 482 602 466 575 435 _c
548 404 535 362 535 309 _c
535 0 _l
445 0 _l
445 327 _l
445 379 435 418 417 444 _c
398 469 369 482 331 482 _c
}_e{285 482 248 466 221 435 _c
194 404 181 362 181 309 _c
181 0 _l
91 0 _l
91 547 _l
181 547 _l
181 462 _l
201 495 226 520 255 536 _c
283 552 317 560 357 560 _c
397 560 430 550 458 530 _c
486 510 506 480 520 442 _c
_cl}_e}_d
/n{634 0 91 0 549 560 _sc
549 330 _m
549 0 _l
459 0 _l
459 327 _l
459 379 448 417 428 443 _c
408 469 378 482 338 482 _c
289 482 251 466 223 435 _c
195 404 181 362 181 309 _c
181 0 _l
91 0 _l
91 547 _l
181 547 _l
181 462 _l
202 494 227 519 257 535 _c
286 551 320 560 358 560 _c
420 560 468 540 500 501 _c
532 462 549 405 549 330 _c
_cl}_d
/o{612 0 55 -13 557 560 _sc
306 484 _m
258 484 220 465 192 427 _c
164 389 150 338 150 273 _c
150 207 163 156 191 118 _c
219 80 257 62 306 62 _c
354 62 392 80 420 118 _c
448 156 462 207 462 273 _c
462 337 448 389 420 427 _c
392 465 354 484 306 484 _c
306 560 _m
384 560 445 534 490 484 _c
534 433 557 363 557 273 _c
557 183 534 113 490 63 _c
445 12 384 -13 306 -13 _c
227 -13 165 12 121 63 _c
77 113 55 183 55 273 _c
55 363 77 433 121 484 _c
165 534 227 560 306 560 _c
_cl}_d
/p{{635 0 91 -207 580 560 _sc
181 82 _m
181 -207 _l
91 -207 _l
91 547 _l
181 547 _l
181 464 _l
199 496 223 520 252 536 _c
281 552 316 560 356 560 _c
422 560 476 533 518 481 _c
559 428 580 359 580 273 _c
580 187 559 117 518 65 _c
476 13 422 -13 356 -13 _c
316 -13 281 -5 252 10 _c
223 25 199 49 181 82 _c
487 273 _m
487 339 473 390 446 428 _c
418 466 381 485 334 485 _c
}_e{286 485 249 466 222 428 _c
194 390 181 339 181 273 _c
181 207 194 155 222 117 _c
249 79 286 61 334 61 _c
381 61 418 79 446 117 _c
473 155 487 207 487 273 _c
_cl}_e}_d
/q{{635 0 55 -207 544 560 _sc
148 273 _m
148 207 161 155 188 117 _c
215 79 253 61 301 61 _c
348 61 385 79 413 117 _c
440 155 454 207 454 273 _c
454 339 440 390 413 428 _c
385 466 348 485 301 485 _c
253 485 215 466 188 428 _c
161 390 148 339 148 273 _c
454 82 _m
435 49 411 25 382 10 _c
353 -5 319 -13 279 -13 _c
213 -13 159 13 117 65 _c
75 117 55 187 55 273 _c
}_e{55 359 75 428 117 481 _c
159 533 213 560 279 560 _c
319 560 353 552 382 536 _c
411 520 435 496 454 464 _c
454 547 _l
544 547 _l
544 -207 _l
454 -207 _l
454 82 _l
_cl}_e}_d
/r{411 0 91 0 411 560 _sc
411 463 _m
401 469 390 473 378 476 _c
366 478 353 480 339 480 _c
288 480 249 463 222 430 _c
194 397 181 350 181 288 _c
181 0 _l
91 0 _l
91 547 _l
181 547 _l
181 462 _l
199 495 224 520 254 536 _c
284 552 321 560 365 560 _c
371 560 378 559 386 559 _c
393 558 401 557 411 555 _c
411 463 _l
_cl}_d
/s{{521 0 54 -13 472 560 _sc
443 531 _m
443 446 _l
417 458 391 468 364 475 _c
336 481 308 485 279 485 _c
234 485 200 478 178 464 _c
156 450 145 430 145 403 _c
145 382 153 366 169 354 _c
185 342 217 330 265 320 _c
296 313 _l
360 299 405 279 432 255 _c
458 230 472 195 472 151 _c
472 100 452 60 412 31 _c
372 1 316 -13 246 -13 _c
216 -13 186 -10 154 -5 _c
}_e{122 0 89 8 54 20 _c
54 113 _l
87 95 120 82 152 74 _c
184 65 216 61 248 61 _c
290 61 323 68 346 82 _c
368 96 380 117 380 144 _c
380 168 371 187 355 200 _c
339 213 303 226 247 238 _c
216 245 _l
160 257 119 275 95 299 _c
70 323 58 356 58 399 _c
58 450 76 490 112 518 _c
148 546 200 560 268 560 _c
301 560 332 557 362 552 _c
391 547 418 540 443 531 _c
}_e{_cl}_e}_d
/t{392 0 27 0 368 702 _sc
183 702 _m
183 547 _l
368 547 _l
368 477 _l
183 477 _l
183 180 _l
183 135 189 106 201 94 _c
213 81 238 75 276 75 _c
368 75 _l
368 0 _l
276 0 _l
206 0 158 13 132 39 _c
106 65 93 112 93 180 _c
93 477 _l
27 477 _l
27 547 _l
93 547 _l
93 702 _l
183 702 _l
_cl}_d
/u{634 0 85 -13 543 560 _sc
85 216 _m
85 547 _l
175 547 _l
175 219 _l
175 167 185 129 205 103 _c
225 77 255 64 296 64 _c
344 64 383 79 411 110 _c
439 141 453 183 453 237 _c
453 547 _l
543 547 _l
543 0 _l
453 0 _l
453 84 _l
431 50 405 26 377 10 _c
348 -5 315 -13 277 -13 _c
214 -13 166 6 134 45 _c
101 83 85 140 85 216 _c
311 560 _m
311 560 _l
_cl}_d
/v{592 0 30 0 562 547 _sc
30 547 _m
125 547 _l
296 88 _l
467 547 _l
562 547 _l
357 0 _l
235 0 _l
30 547 _l
_cl}_d
/w{818 0 42 0 776 547 _sc
42 547 _m
132 547 _l
244 120 _l
356 547 _l
462 547 _l
574 120 _l
686 547 _l
776 547 _l
633 0 _l
527 0 _l
409 448 _l
291 0 _l
185 0 _l
42 547 _l
_cl}_d
/y{592 0 30 -207 562 547 _sc
322 -50 _m
296 -114 271 -157 247 -177 _c
223 -197 191 -207 151 -207 _c
79 -207 _l
79 -132 _l
132 -132 _l
156 -132 175 -126 189 -114 _c
203 -102 218 -75 235 -31 _c
251 9 _l
30 547 _l
125 547 _l
296 119 _l
467 547 _l
562 547 _l
322 -50 _l
_cl}_d
/z{525 0 43 0 482 547 _sc
55 547 _m
482 547 _l
482 465 _l
144 72 _l
482 72 _l
482 0 _l
43 0 _l
43 82 _l
381 475 _l
55 475 _l
55 547 _l
_cl}_d
end readonly def

/BuildGlyph
 {exch begin
 CharStrings exch
 2 copy known not{pop /.notdef}if
 true 3 1 roll get exec
 end}_d

/BuildChar {
 1 index /Encoding get exch get
 1 index /BuildGlyph get exec
}_d

FontName currentdict end definefont pop
end
%%EndProlog
mpldict begin
90 252 translate
432 288 0 0 clipbox
gsave
0 0 m
432 0 l
432 288 l
0 288 l
cl
grestore
gsave
69.55 93.425 m
421.2 93.425 l
421.2 277.2 l
69.55 277.2 l
cl
1.000 setgray
fill
grestore
gsave
351.6 183.8 69.55 93.43 clipbox
73.945625 93.425 m
82.736875 93.425 l
82.736875 268.44881 l
73.945625 268.44881 l
cl
0.122 0.467 0.706 setrgbcolor
fill
grestore
gsave
351.6 183.8 69.55 93.43 clipbox
91.528125 93.425 m
100.319375 93.425 l
100.319375 191.546381 l
91.528125 191.546381 l
cl
0.122 0.467 0.706 setrgbcolor
fill
grestore
gsave
351.6 183.8 69.55 93.43 clipbox
109.110625 93.425 m
117.901875 93.425 l
117.901875 171.439846 l
109.110625 171.439846 l
cl
0.122 0.467 0.706 setrgbcolor
fill
grestore
gsave
351.6 183.8 69.55 93.43 clipbox
126.693125 93.425 m
135.484375 93.425 l
135.484375 170.328133 l
126.693125 170.328133 l
cl
0.122 0.467 0.706 setrgbcolor
fill
grestore
gsave
351.6 183.8 69.55 93.43 clipbox
144.275625 93.425 m
153.066875 93.425 l
153.066875 162.538398 l
144.275625 162.538398 l
cl
0.122 0.467 0.706 setrgbcolor
fill
grestore
gsave
351.6 183.8 69.55 93.43 clipbox
161.858125 93.425 m
170.649375 93.425 l
170.649375 161.850262 l
161.858125 161.850262 l
cl
0.122 0.467 0.706 setrgbcolor
fill
grestore
gsave
351.6 183.8 69.55 93.43 clipbox
179.440625 93.425 m
188.231875 93.425 l
188.231875 159.318651 l
179.440625 159.318651 l
cl
0.122 0.467 0.706 setrgbcolor
fill
grestore
gsave
351.6 183.8 69.55 93.43 clipbox
197.023125 93.425 m
205.814375 93.425 l
205.814375 155.546565 l
197.023125 155.546565 l
cl
0.122 0.467 0.706 setrgbcolor
fill
grestore
gsave
351.6 183.8 69.55 93.43 clipbox
214.605625 93.425 m
223.396875 93.425 l
223.396875 154.698004 l
214.605625 154.698004 l
cl
0.122 0.467 0.706 setrgbcolor
fill
grestore
gsave
351.6 183.8 69.55 93.43 clipbox
232.188125 93.425 m
240.979375 93.425 l
240.979375 152.422509 l
232.188125 152.422509 l
cl
0.122 0.467 0.706 setrgbcolor
fill
grestore
gsave
351.6 183.8 69.55 93.43 clipbox
249.770625 93.425 m
258.561875 93.425 l
258.561875 148.503367 l
249.770625 148.503367 l
cl
0.122 0.467 0.706 setrgbcolor
fill
grestore
gsave
351.6 183.8 69.55 93.43 clipbox
267.353125 93.425 m
276.144375 93.425 l
276.144375 147.597813 l
267.353125 147.597813 l
cl
0.122 0.467 0.706 setrgbcolor
fill
grestore
gsave
351.6 183.8 69.55 93.43 clipbox
284.935625 93.425 m
293.726875 93.425 l
293.726875 145.797963 l
284.935625 145.797963 l
cl
0.122 0.467 0.706 setrgbcolor
fill
grestore
gsave
351.6 183.8 69.55 93.43 clipbox
302.518125 93.425 m
311.309375 93.425 l
311.309375 145.177374 l
302.518125 145.177374 l
cl
0.122 0.467 0.706 setrgbcolor
fill
grestore
gsave
351.6 183.8 69.55 93.43 clipbox
320.100625 93.425 m
328.891875 93.425 l
328.891875 144.632071 l
320.100625 144.632071 l
cl
0.122 0.467 0.706 setrgbcolor
fill
grestore
gsave
351.6 183.8 69.55 93.43 clipbox
337.683125 93.425 m
346.474375 93.425 l
346.474375 143.048935 l
337.683125 143.048935 l
cl
0.122 0.467 0.706 setrgbcolor
fill
grestore
gsave
351.6 183.8 69.55 93.43 clipbox
355.265625 93.425 m
364.056875 93.425 l
364.056875 142.825889 l
355.265625 142.825889 l
cl
0.122 0.467 0.706 setrgbcolor
fill
grestore
gsave
351.6 183.8 69.55 93.43 clipbox
372.848125 93.425 m
381.639375 93.425 l
381.639375 138.198205 l
372.848125 138.198205 l
cl
0.122 0.467 0.706 setrgbcolor
fill
grestore
gsave
351.6 183.8 69.55 93.43 clipbox
390.430625 93.425 m
399.221875 93.425 l
399.221875 137.640238 l
390.430625 137.640238 l
cl
0.122 0.467 0.706 setrgbcolor
fill
grestore
gsave
351.6 183.8 69.55 93.43 clipbox
408.013125 93.425 m
416.804375 93.425 l
416.804375 136.320254 l
408.013125 136.320254 l
cl
0.122 0.467 0.706 setrgbcolor
fill
grestore
0.800 setlinewidth
1 setlinejoin
0 setlinecap
[] 0 setdash
0.000 setgray
gsave
/o {
gsave
newpath
translate
0.8 setlinewidth
1 setlinejoin
0 setlinecap
0 0 m
0 -3.5 l

gsave
0.000 setgray
fill
grestore
stroke
grestore
} bind def
78.3413 93.425 o
grestore
/DejaVuSans findfont
10.000 scalefont
setfont
gsave
81.099063 34.612500 translate
90.000000 rotate
0.000000 0 m /m glyphshow
9.741211 0 m /e glyphshow
15.893555 0 m /n glyphshow
22.231445 0 m /s glyphshow
27.441406 0 m /c glyphshow
32.939453 0 m /h glyphshow
39.277344 0 m /e glyphshow
45.429688 0 m /n glyphshow
grestore
gsave
/o {
gsave
newpath
translate
0.8 setlinewidth
1 setlinejoin
0 setlinecap
0 0 m
0 -3.5 l

gsave
0.000 setgray
fill
grestore
stroke
grestore
} bind def
95.9237 93.425 o
grestore
gsave
98.681562 25.003125 translate
90.000000 rotate
0.000000 0 m /d glyphshow
6.347656 0 m /e glyphshow
12.500000 0 m /u glyphshow
18.837891 0 m /t glyphshow
22.758789 0 m /s glyphshow
27.968750 0 m /c glyphshow
33.466797 0 m /h glyphshow
39.804688 0 m /l glyphshow
42.583008 0 m /a glyphshow
48.710938 0 m /n glyphshow
55.048828 0 m /d glyphshow
grestore
gsave
/o {
gsave
newpath
translate
0.8 setlinewidth
1 setlinejoin
0 setlinecap
0 0 m
0 -3.5 l

gsave
0.000 setgray
fill
grestore
stroke
grestore
} bind def
113.506 93.425 o
grestore
gsave
116.264062 55.956250 translate
90.000000 rotate
0.000000 0 m /t glyphshow
3.920898 0 m /r glyphshow
8.032227 0 m /u glyphshow
14.370117 0 m /m glyphshow
24.111328 0 m /p glyphshow
grestore
gsave
/o {
gsave
newpath
translate
0.8 setlinewidth
1 setlinejoin
0 setlinecap
0 0 m
0 -3.5 l

gsave
0.000 setgray
fill
grestore
stroke
grestore
} bind def
131.089 93.425 o
grestore
gsave
133.846563 59.096875 translate
90.000000 rotate
0.000000 0 m /v glyphshow
5.917969 0 m /i glyphshow
8.696289 0 m /d glyphshow
15.043945 0 m /e glyphshow
21.196289 0 m /o glyphshow
grestore
gsave
/o {
gsave
newpath
translate
0.8 setlinewidth
1 setlinejoin
0 setlinecap
0 0 m
0 -3.5 l

gsave
0.000 setgray
fill
grestore
stroke
grestore
} bind def
148.671 93.425 o
grestore
gsave
151.429062 52.346875 translate
90.000000 rotate
0.000000 0 m /c glyphshow
5.498047 0 m /o glyphshow
11.616211 0 m /r glyphshow
15.477539 0 m /o glyphshow
21.595703 0 m /n glyphshow
27.933594 0 m /a glyphshow
grestore
gsave
/o {
gsave
newpath
translate
0.8 setlinewidth
1 setlinejoin
0 setlinecap
0 0 m
0 -3.5 l

gsave
0.000 setgray
fill
grestore
stroke
grestore
} bind def
166.254 93.425 o
grestore
gsave
169.011562 48.893750 translate
90.000000 rotate
0.000000 0 m /m glyphshow
9.741211 0 m /e glyphshow
15.893555 0 m /d glyphshow
22.241211 0 m /i glyphshow
25.019531 0 m /e glyphshow
31.171875 0 m /n glyphshow
grestore
gsave
/o {
gsave
newpath
translate
0.8 setlinewidth
1 setlinejoin
0 setlinecap
0 0 m
0 -3.5 l

gsave
0.000 setgray
fill
grestore
stroke
grestore
} bind def
183.836 93.425 o
grestore
gsave
186.594062 54.893750 translate
90.000000 rotate
0.000000 0 m /k glyphshow
5.791016 0 m /i glyphshow
8.569336 0 m /n glyphshow
14.907227 0 m /d glyphshow
21.254883 0 m /e glyphshow
27.407227 0 m /r glyphshow
grestore
gsave
/o {
gsave
newpath
translate
0.8 setlinewidth
1 setlinejoin
0 setlinecap
0 0 m
0 -3.5 l

gsave
0.000 setgray
fill
grestore
stroke
grestore
} bind def
201.419 93.425 o
grestore
gsave
204.176562 65.378125 translate
90.000000 rotate
0.000000 0 m /w glyphshow
8.178711 0 m /e glyphshow
14.331055 0 m /l glyphshow
17.109375 0 m /t glyphshow
grestore
gsave
/o {
gsave
newpath
translate
0.8 setlinewidth
1 setlinejoin
0 setlinecap
0 0 m
0 -3.5 l

gsave
0.000 setgray
fill
grestore
stroke
grestore
} bind def
219.001 93.425 o
grestore
gsave
221.759062 45.003125 translate
90.000000 rotate
0.000000 0 m /i glyphshow
2.778320 0 m /m glyphshow
12.519531 0 m /p glyphshow
18.867188 0 m /f glyphshow
22.387695 0 m /u glyphshow
28.725586 0 m /n glyphshow
35.063477 0 m /g glyphshow
grestore
gsave
/o {
gsave
newpath
translate
0.8 setlinewidth
1 setlinejoin
0 setlinecap
0 0 m
0 -3.5 l

gsave
0.000 setgray
fill
grestore
stroke
grestore
} bind def
236.584 93.425 o
grestore
gsave
239.341562 59.378125 translate
90.000000 rotate
0.000000 0 m /k glyphshow
5.666016 0 m /a glyphshow
11.793945 0 m /n glyphshow
18.131836 0 m /a glyphshow
24.259766 0 m /l glyphshow
grestore
gsave
/o {
gsave
newpath
translate
0.8 setlinewidth
1 setlinejoin
0 setlinecap
0 0 m
0 -3.5 l

gsave
0.000 setgray
fill
grestore
stroke
grestore
} bind def
254.166 93.425 o
grestore
gsave
256.924062 54.206250 translate
90.000000 rotate
0.000000 0 m /p glyphshow
6.347656 0 m /o glyphshow
12.465820 0 m /l glyphshow
15.244141 0 m /i glyphshow
18.022461 0 m /z glyphshow
23.271484 0 m /e glyphshow
29.423828 0 m /i glyphshow
grestore
gsave
/o {
gsave
newpath
translate
0.8 setlinewidth
1 setlinejoin
0 setlinecap
0 0 m
0 -3.5 l

gsave
0.000 setgray
fill
grestore
stroke
grestore
} bind def
271.749 93.425 o
grestore
gsave
274.506562 68.315625 translate
90.000000 rotate
0.000000 0 m /z glyphshow
5.249023 0 m /e glyphshow
11.401367 0 m /i glyphshow
14.179688 0 m /t glyphshow
grestore
gsave
/o {
gsave
newpath
translate
0.8 setlinewidth
1 setlinejoin
0 setlinecap
0 0 m
0 -3.5 l

gsave
0.000 setgray
fill
grestore
stroke
grestore
} bind def
289.331 93.425 o
grestore
gsave
292.089062 69.628125 translate
90.000000 rotate
0.000000 0 m /u glyphshow
6.337891 0 m /h glyphshow
12.675781 0 m /r glyphshow
grestore
gsave
/o {
gsave
newpath
translate
0.8 setlinewidth
1 setlinejoin
0 setlinecap
0 0 m
0 -3.5 l

gsave
0.000 setgray
fill
grestore
stroke
grestore
} bind def
306.914 93.425 o
grestore
gsave
309.671562 57.909375 translate
90.000000 rotate
0.000000 0 m /b glyphshow
6.347656 0 m /e glyphshow
12.500000 0 m /r glyphshow
16.611328 0 m /l glyphshow
19.389648 0 m /i glyphshow
22.167969 0 m /n glyphshow
grestore
gsave
/o {
gsave
newpath
translate
0.8 setlinewidth
1 setlinejoin
0 setlinecap
0 0 m
0 -3.5 l

gsave
0.000 setgray
fill
grestore
stroke
grestore
} bind def
324.496 93.425 o
grestore
gsave
327.254062 58.643750 translate
90.000000 rotate
0.000000 0 m /l glyphshow
2.778320 0 m /e glyphshow
8.930664 0 m /b glyphshow
15.278320 0 m /e glyphshow
21.430664 0 m /n glyphshow
grestore
gsave
/o {
gsave
newpath
translate
0.8 setlinewidth
1 setlinejoin
0 setlinecap
0 0 m
0 -3.5 l

gsave
0.000 setgray
fill
grestore
stroke
grestore
} bind def
342.079 93.425 o
grestore
gsave
344.836562 37.987500 translate
90.000000 rotate
0.000000 0 m /r glyphshow
3.861328 0 m /e glyphshow
10.013672 0 m /g glyphshow
16.361328 0 m /i glyphshow
19.139648 0 m /e glyphshow
25.291992 0 m /r glyphshow
29.403320 0 m /u glyphshow
35.741211 0 m /n glyphshow
42.079102 0 m /g glyphshow
grestore
gsave
/o {
gsave
newpath
translate
0.8 setlinewidth
1 setlinejoin
0 setlinecap
0 0 m
0 -3.5 l

gsave
0.000 setgray
fill
grestore
stroke
grestore
} bind def
359.661 93.425 o
grestore
gsave
362.419062 67.065625 translate
90.000000 rotate
0.000000 0 m /j glyphshow
2.778320 0 m /a glyphshow
8.906250 0 m /h glyphshow
15.244141 0 m /r glyphshow
grestore
gsave
/o {
gsave
newpath
translate
0.8 setlinewidth
1 setlinejoin
0 setlinecap
0 0 m
0 -3.5 l

gsave
0.000 setgray
fill
grestore
stroke
grestore
} bind def
377.244 93.425 o
grestore
gsave
380.001562 68.737500 translate
90.000000 rotate
0.000000 0 m /u glyphshow
6.337891 0 m /s glyphshow
11.547852 0 m /a glyphshow
grestore
gsave
/o {
gsave
newpath
translate
0.8 setlinewidth
1 setlinejoin
0 setlinecap
0 0 m
0 -3.5 l

gsave
0.000 setgray
fill
grestore
stroke
grestore
} bind def
394.826 93.425 o
grestore
gsave
397.584062 54.815625 translate
90.000000 rotate
0.000000 0 m /j glyphshow
2.778320 0 m /a glyphshow
8.906250 0 m /h glyphshow
15.244141 0 m /r glyphshow
19.105469 0 m /e glyphshow
25.257812 0 m /n glyphshow
grestore
gsave
/o {
gsave
newpath
translate
0.8 setlinewidth
1 setlinejoin
0 setlinecap
0 0 m
0 -3.5 l

gsave
0.000 setgray
fill
grestore
stroke
grestore
} bind def
412.409 93.425 o
grestore
gsave
415.166562 62.050000 translate
90.000000 rotate
0.000000 0 m /v glyphshow
5.917969 0 m /i glyphshow
8.696289 0 m /r glyphshow
12.807617 0 m /u glyphshow
19.145508 0 m /s glyphshow
grestore
gsave
229.906250 13.409375 translate
0.000000 rotate
0.000000 0 m /W glyphshow
9.262695 0 m /o glyphshow
15.380859 0 m /r glyphshow
19.367188 0 m /d glyphshow
25.714844 0 m /s glyphshow
grestore
gsave
/o {
gsave
newpath
translate
0.8 setlinewidth
1 setlinejoin
0 setlinecap
-0 0 m
-3.5 0 l

gsave
0.000 setgray
fill
grestore
stroke
grestore
} bind def
69.55 93.425 o
grestore
gsave
56.190625 89.628125 translate
0.000000 rotate
0.000000 0 m /zero glyphshow
grestore
gsave
/o {
gsave
newpath
translate
0.8 setlinewidth
1 setlinejoin
0 setlinecap
-0 0 m
-3.5 0 l

gsave
0.000 setgray
fill
grestore
stroke
grestore
} bind def
69.55 128.606 o
grestore
gsave
30.753125 124.808932 translate
0.000000 rotate
0.000000 0 m /five glyphshow
6.362305 0 m /zero glyphshow
12.724609 0 m /zero glyphshow
19.086914 0 m /zero glyphshow
25.449219 0 m /zero glyphshow
grestore
gsave
/o {
gsave
newpath
translate
0.8 setlinewidth
1 setlinejoin
0 setlinecap
-0 0 m
-3.5 0 l

gsave
0.000 setgray
fill
grestore
stroke
grestore
} bind def
69.55 163.787 o
grestore
gsave
24.393750 159.989738 translate
0.000000 rotate
0.000000 0 m /one glyphshow
6.362305 0 m /zero glyphshow
12.724609 0 m /zero glyphshow
19.086914 0 m /zero glyphshow
25.449219 0 m /zero glyphshow
31.811523 0 m /zero glyphshow
grestore
gsave
/o {
gsave
newpath
translate
0.8 setlinewidth
1 setlinejoin
0 setlinecap
-0 0 m
-3.5 0 l

gsave
0.000 setgray
fill
grestore
stroke
grestore
} bind def
69.55 198.967 o
grestore
gsave
24.393750 195.170545 translate
0.000000 rotate
0.000000 0 m /one glyphshow
6.362305 0 m /five glyphshow
12.724609 0 m /zero glyphshow
19.086914 0 m /zero glyphshow
25.449219 0 m /zero glyphshow
31.811523 0 m /zero glyphshow
grestore
gsave
/o {
gsave
newpath
translate
0.8 setlinewidth
1 setlinejoin
0 setlinecap
-0 0 m
-3.5 0 l

gsave
0.000 setgray
fill
grestore
stroke
grestore
} bind def
69.55 234.148 o
grestore
gsave
24.393750 230.351352 translate
0.000000 rotate
0.000000 0 m /two glyphshow
6.362305 0 m /zero glyphshow
12.724609 0 m /zero glyphshow
19.086914 0 m /zero glyphshow
25.449219 0 m /zero glyphshow
31.811523 0 m /zero glyphshow
grestore
gsave
/o {
gsave
newpath
translate
0.8 setlinewidth
1 setlinejoin
0 setlinecap
-0 0 m
-3.5 0 l

gsave
0.000 setgray
fill
grestore
stroke
grestore
} bind def
69.55 269.329 o
grestore
gsave
24.393750 265.532158 translate
0.000000 rotate
0.000000 0 m /two glyphshow
6.362305 0 m /five glyphshow
12.724609 0 m /zero glyphshow
19.086914 0 m /zero glyphshow
25.449219 0 m /zero glyphshow
31.811523 0 m /zero glyphshow
grestore
gsave
18.315625 159.500000 translate
90.000000 rotate
0.000000 0 m /F glyphshow
5.001953 0 m /r glyphshow
8.863281 0 m /e glyphshow
15.015625 0 m /q glyphshow
21.363281 0 m /u glyphshow
27.701172 0 m /e glyphshow
33.853516 0 m /n glyphshow
40.191406 0 m /c glyphshow
45.689453 0 m /y glyphshow
grestore
0 setlinejoin
2 setlinecap
gsave
69.55 93.425 m
69.55 277.2 l
stroke
grestore
gsave
421.2 93.425 m
421.2 277.2 l
stroke
grestore
gsave
69.55 93.425 m
421.2 93.425 l
stroke
grestore
gsave
69.55 277.2 m
421.2 277.2 l
stroke
grestore

end
showpage
