%!PS-Adobe-3.0 EPSF-3.0
%%Title: rsr_box_scatter.eps
%%Creator: matplotlib version 3.3.3, http://matplotlib.org/
%%CreationDate: Sun May  2 13:23:31 2021
%%Orientation: portrait
%%BoundingBox: -54.0 108.0 666.0 684.0
%%EndComments
%%BeginProlog
/mpldict 8 dict def
mpldict begin
/m { moveto } bind def
/l { lineto } bind def
/r { rlineto } bind def
/c { curveto } bind def
/cl { closepath } bind def
/box {
      m
      1 index 0 r
      0 exch r
      neg 0 r
      cl
    } bind def
/clipbox {
      box
      clip
      newpath
    } bind def
%!PS-Adobe-3.0 Resource-Font
%%Title: DejaVu Sans
%%Copyright: Copyright (c) 2003 by Bitstream, Inc. All Rights Reserved. Copyright (c) 2006 by Tavmjong Bah. All Rights Reserved. DejaVu changes are in public domain 
%%Creator: Converted from TrueType to type 3 by PPR
25 dict begin
/_d{bind def}bind def
/_m{moveto}_d
/_l{lineto}_d
/_cl{closepath eofill}_d
/_c{curveto}_d
/_sc{7 -1 roll{setcachedevice}{pop pop pop pop pop pop}ifelse}_d
/_e{exec}_d
/FontName /DejaVuSans def
/PaintType 0 def
/FontMatrix[.001 0 0 .001 0 0]def
/FontBBox[-1021 -463 1793 1232]def
/FontType 3 def
/Encoding [ /period /zero /one /two /three /four /five /six /seven /eight /B /M /P /S /V /a /b /c /d /e /g /i /l /m /n /o /p /r /s /t /u /w ] def
/FontInfo 10 dict dup begin
/FamilyName (DejaVu Sans) def
/FullName (DejaVu Sans) def
/Notice (Copyright (c) 2003 by Bitstream, Inc. All Rights Reserved. Copyright (c) 2006 by Tavmjong Bah. All Rights Reserved. DejaVu changes are in public domain ) def
/Weight (Book) def
/Version (Version 2.35) def
/ItalicAngle 0.0 def
/isFixedPitch false def
/UnderlinePosition -130 def
/UnderlineThickness 90 def
end readonly def
/CharStrings 33 dict dup begin
/.notdef 0 def
/period{318 0 107 0 210 124 _sc
107 124 _m
210 124 _l
210 0 _l
107 0 _l
107 124 _l
_cl}_d
/zero{636 0 66 -13 570 742 _sc
318 664 _m
267 664 229 639 203 589 _c
177 539 165 464 165 364 _c
165 264 177 189 203 139 _c
229 89 267 64 318 64 _c
369 64 407 89 433 139 _c
458 189 471 264 471 364 _c
471 464 458 539 433 589 _c
407 639 369 664 318 664 _c
318 742 _m
399 742 461 709 505 645 _c
548 580 570 486 570 364 _c
570 241 548 147 505 83 _c
461 19 399 -13 318 -13 _c
236 -13 173 19 130 83 _c
87 147 66 241 66 364 _c
66 486 87 580 130 645 _c
173 709 236 742 318 742 _c
_cl}_d
/one{636 0 110 0 544 729 _sc
124 83 _m
285 83 _l
285 639 _l
110 604 _l
110 694 _l
284 729 _l
383 729 _l
383 83 _l
544 83 _l
544 0 _l
124 0 _l
124 83 _l
_cl}_d
/two{{636 0 73 0 536 742 _sc
192 83 _m
536 83 _l
536 0 _l
73 0 _l
73 83 _l
110 121 161 173 226 239 _c
290 304 331 346 348 365 _c
380 400 402 430 414 455 _c
426 479 433 504 433 528 _c
433 566 419 598 392 622 _c
365 646 330 659 286 659 _c
255 659 222 653 188 643 _c
154 632 117 616 78 594 _c
78 694 _l
118 710 155 722 189 730 _c
223 738 255 742 284 742 _c
}_e{359 742 419 723 464 685 _c
509 647 532 597 532 534 _c
532 504 526 475 515 449 _c
504 422 484 390 454 354 _c
446 344 420 317 376 272 _c
332 227 271 164 192 83 _c
_cl}_e}_d
/three{{636 0 76 -13 556 742 _sc
406 393 _m
453 383 490 362 516 330 _c
542 298 556 258 556 212 _c
556 140 531 84 482 45 _c
432 6 362 -13 271 -13 _c
240 -13 208 -10 176 -4 _c
144 1 110 10 76 22 _c
76 117 _l
103 101 133 89 166 81 _c
198 73 232 69 268 69 _c
330 69 377 81 409 105 _c
441 129 458 165 458 212 _c
458 254 443 288 413 312 _c
383 336 341 349 287 349 _c
}_e{202 349 _l
202 430 _l
291 430 _l
339 430 376 439 402 459 _c
428 478 441 506 441 543 _c
441 580 427 609 401 629 _c
374 649 336 659 287 659 _c
260 659 231 656 200 650 _c
169 644 135 635 98 623 _c
98 711 _l
135 721 170 729 203 734 _c
235 739 266 742 296 742 _c
370 742 429 725 473 691 _c
517 657 539 611 539 553 _c
539 513 527 479 504 451 _c
481 423 448 403 406 393 _c
_cl}_e}_d
/four{636 0 49 0 580 729 _sc
378 643 _m
129 254 _l
378 254 _l
378 643 _l
352 729 _m
476 729 _l
476 254 _l
580 254 _l
580 172 _l
476 172 _l
476 0 _l
378 0 _l
378 172 _l
49 172 _l
49 267 _l
352 729 _l
_cl}_d
/five{{636 0 77 -13 549 729 _sc
108 729 _m
495 729 _l
495 646 _l
198 646 _l
198 467 _l
212 472 227 476 241 478 _c
255 480 270 482 284 482 _c
365 482 429 459 477 415 _c
525 370 549 310 549 234 _c
549 155 524 94 475 51 _c
426 8 357 -13 269 -13 _c
238 -13 207 -10 175 -6 _c
143 -1 111 6 77 17 _c
77 116 _l
106 100 136 88 168 80 _c
199 72 232 69 267 69 _c
}_e{323 69 368 83 401 113 _c
433 143 450 183 450 234 _c
450 284 433 324 401 354 _c
368 384 323 399 267 399 _c
241 399 214 396 188 390 _c
162 384 135 375 108 363 _c
108 729 _l
_cl}_e}_d
/six{{636 0 70 -13 573 742 _sc
330 404 _m
286 404 251 388 225 358 _c
199 328 186 286 186 234 _c
186 181 199 139 225 109 _c
251 79 286 64 330 64 _c
374 64 409 79 435 109 _c
461 139 474 181 474 234 _c
474 286 461 328 435 358 _c
409 388 374 404 330 404 _c
526 713 _m
526 623 _l
501 635 476 644 451 650 _c
425 656 400 659 376 659 _c
310 659 260 637 226 593 _c
}_e{192 549 172 482 168 394 _c
187 422 211 444 240 459 _c
269 474 301 482 336 482 _c
409 482 467 459 509 415 _c
551 371 573 310 573 234 _c
573 159 550 99 506 54 _c
462 9 403 -13 330 -13 _c
246 -13 181 19 137 83 _c
92 147 70 241 70 364 _c
70 479 97 571 152 639 _c
206 707 280 742 372 742 _c
396 742 421 739 447 735 _c
472 730 498 723 526 713 _c
_cl}_e}_d
/seven{636 0 82 0 551 729 _sc
82 729 _m
551 729 _l
551 687 _l
286 0 _l
183 0 _l
432 646 _l
82 646 _l
82 729 _l
_cl}_d
/eight{{636 0 68 -13 568 742 _sc
318 346 _m
271 346 234 333 207 308 _c
180 283 167 249 167 205 _c
167 161 180 126 207 101 _c
234 76 271 64 318 64 _c
364 64 401 76 428 102 _c
455 127 469 161 469 205 _c
469 249 455 283 429 308 _c
402 333 365 346 318 346 _c
219 388 _m
177 398 144 418 120 447 _c
96 476 85 511 85 553 _c
85 611 105 657 147 691 _c
188 725 245 742 318 742 _c
}_e{390 742 447 725 489 691 _c
530 657 551 611 551 553 _c
551 511 539 476 515 447 _c
491 418 459 398 417 388 _c
464 377 501 355 528 323 _c
554 291 568 251 568 205 _c
568 134 546 80 503 43 _c
459 5 398 -13 318 -13 _c
237 -13 175 5 132 43 _c
89 80 68 134 68 205 _c
68 251 81 291 108 323 _c
134 355 171 377 219 388 _c
183 544 _m
183 506 194 476 218 455 _c
}_e{242 434 275 424 318 424 _c
360 424 393 434 417 455 _c
441 476 453 506 453 544 _c
453 582 441 611 417 632 _c
393 653 360 664 318 664 _c
275 664 242 653 218 632 _c
194 611 183 582 183 544 _c
_cl}_e}_d
/B{{686 0 98 0 615 729 _sc
197 348 _m
197 81 _l
355 81 _l
408 81 447 92 473 114 _c
498 136 511 169 511 215 _c
511 260 498 293 473 315 _c
447 337 408 348 355 348 _c
197 348 _l
197 648 _m
197 428 _l
343 428 _l
391 428 426 437 450 455 _c
474 473 486 500 486 538 _c
486 574 474 602 450 620 _c
426 638 391 648 343 648 _c
197 648 _l
98 729 _m
350 729 _l
}_e{425 729 483 713 524 682 _c
564 650 585 606 585 549 _c
585 504 574 468 553 442 _c
532 416 502 399 462 393 _c
510 382 548 360 575 327 _c
601 294 615 253 615 204 _c
615 138 592 88 548 53 _c
504 17 441 0 360 0 _c
98 0 _l
98 729 _l
_cl}_e}_d
/M{863 0 98 0 765 729 _sc
98 729 _m
245 729 _l
431 233 _l
618 729 _l
765 729 _l
765 0 _l
669 0 _l
669 640 _l
481 140 _l
382 140 _l
194 640 _l
194 0 _l
98 0 _l
98 729 _l
_cl}_d
/P{603 0 98 0 569 729 _sc
197 648 _m
197 374 _l
321 374 _l
367 374 402 385 427 409 _c
452 433 465 467 465 511 _c
465 555 452 588 427 612 _c
402 636 367 648 321 648 _c
197 648 _l
98 729 _m
321 729 _l
402 729 464 710 506 673 _c
548 636 569 582 569 511 _c
569 439 548 384 506 348 _c
464 311 402 293 321 293 _c
197 293 _l
197 0 _l
98 0 _l
98 729 _l
_cl}_d
/S{{635 0 66 -13 579 742 _sc
535 705 _m
535 609 _l
497 627 462 640 429 649 _c
395 657 363 662 333 662 _c
279 662 237 651 208 631 _c
179 610 165 580 165 542 _c
165 510 174 485 194 469 _c
213 452 250 439 304 429 _c
364 417 _l
437 403 491 378 526 343 _c
561 307 579 260 579 201 _c
579 130 555 77 508 41 _c
460 5 391 -13 300 -13 _c
265 -13 228 -9 189 -2 _c
}_e{150 5 110 16 69 32 _c
69 134 _l
109 111 148 94 186 83 _c
224 71 262 66 300 66 _c
356 66 399 77 430 99 _c
460 121 476 152 476 194 _c
476 230 465 258 443 278 _c
421 298 385 313 335 323 _c
275 335 _l
201 349 148 372 115 404 _c
82 435 66 478 66 534 _c
66 598 88 649 134 686 _c
179 723 242 742 322 742 _c
356 742 390 739 426 733 _c
461 727 497 717 535 705 _c
}_e{_cl}_e}_d
/V{684 0 8 0 676 729 _sc
286 0 _m
8 729 _l
111 729 _l
342 115 _l
573 729 _l
676 729 _l
398 0 _l
286 0 _l
_cl}_d
/a{{613 0 60 -13 522 560 _sc
343 275 _m
270 275 220 266 192 250 _c
164 233 150 205 150 165 _c
150 133 160 107 181 89 _c
202 70 231 61 267 61 _c
317 61 357 78 387 114 _c
417 149 432 196 432 255 _c
432 275 _l
343 275 _l
522 312 _m
522 0 _l
432 0 _l
432 83 _l
411 49 385 25 355 10 _c
325 -5 287 -13 243 -13 _c
187 -13 142 2 109 33 _c
76 64 60 106 60 159 _c
}_e{60 220 80 266 122 298 _c
163 329 224 345 306 345 _c
432 345 _l
432 354 _l
432 395 418 427 391 450 _c
364 472 326 484 277 484 _c
245 484 215 480 185 472 _c
155 464 127 453 100 439 _c
100 522 _l
132 534 164 544 195 550 _c
226 556 256 560 286 560 _c
365 560 424 539 463 498 _c
502 457 522 395 522 312 _c
_cl}_e}_d
/b{{635 0 91 -13 580 760 _sc
487 273 _m
487 339 473 390 446 428 _c
418 466 381 485 334 485 _c
286 485 249 466 222 428 _c
194 390 181 339 181 273 _c
181 207 194 155 222 117 _c
249 79 286 61 334 61 _c
381 61 418 79 446 117 _c
473 155 487 207 487 273 _c
181 464 _m
199 496 223 520 252 536 _c
281 552 316 560 356 560 _c
422 560 476 533 518 481 _c
559 428 580 359 580 273 _c
}_e{580 187 559 117 518 65 _c
476 13 422 -13 356 -13 _c
316 -13 281 -5 252 10 _c
223 25 199 49 181 82 _c
181 0 _l
91 0 _l
91 760 _l
181 760 _l
181 464 _l
_cl}_e}_d
/c{{550 0 55 -13 488 560 _sc
488 526 _m
488 442 _l
462 456 437 466 411 473 _c
385 480 360 484 334 484 _c
276 484 230 465 198 428 _c
166 391 150 339 150 273 _c
150 206 166 154 198 117 _c
230 80 276 62 334 62 _c
360 62 385 65 411 72 _c
437 79 462 90 488 104 _c
488 21 _l
462 9 436 0 410 -5 _c
383 -10 354 -13 324 -13 _c
242 -13 176 12 128 64 _c
}_e{79 115 55 185 55 273 _c
55 362 79 432 128 483 _c
177 534 244 560 330 560 _c
358 560 385 557 411 551 _c
437 545 463 537 488 526 _c
_cl}_e}_d
/d{{635 0 55 -13 544 760 _sc
454 464 _m
454 760 _l
544 760 _l
544 0 _l
454 0 _l
454 82 _l
435 49 411 25 382 10 _c
353 -5 319 -13 279 -13 _c
213 -13 159 13 117 65 _c
75 117 55 187 55 273 _c
55 359 75 428 117 481 _c
159 533 213 560 279 560 _c
319 560 353 552 382 536 _c
411 520 435 496 454 464 _c
148 273 _m
148 207 161 155 188 117 _c
215 79 253 61 301 61 _c
}_e{348 61 385 79 413 117 _c
440 155 454 207 454 273 _c
454 339 440 390 413 428 _c
385 466 348 485 301 485 _c
253 485 215 466 188 428 _c
161 390 148 339 148 273 _c
_cl}_e}_d
/e{{615 0 55 -13 562 560 _sc
562 296 _m
562 252 _l
149 252 _l
153 190 171 142 205 110 _c
238 78 284 62 344 62 _c
378 62 412 66 444 74 _c
476 82 509 95 541 113 _c
541 28 _l
509 14 476 3 442 -3 _c
408 -9 373 -13 339 -13 _c
251 -13 182 12 131 62 _c
80 112 55 181 55 268 _c
55 357 79 428 127 481 _c
175 533 241 560 323 560 _c
397 560 455 536 498 489 _c
}_e{540 441 562 377 562 296 _c
472 322 _m
471 371 457 410 431 440 _c
404 469 368 484 324 484 _c
274 484 234 469 204 441 _c
174 413 156 373 152 322 _c
472 322 _l
_cl}_e}_d
/g{{635 0 55 -207 544 560 _sc
454 280 _m
454 344 440 395 414 431 _c
387 467 349 485 301 485 _c
253 485 215 467 188 431 _c
161 395 148 344 148 280 _c
148 215 161 165 188 129 _c
215 93 253 75 301 75 _c
349 75 387 93 414 129 _c
440 165 454 215 454 280 _c
544 68 _m
544 -24 523 -93 482 -139 _c
440 -184 377 -207 292 -207 _c
260 -207 231 -204 203 -200 _c
175 -195 147 -188 121 -178 _c
}_e{121 -91 _l
147 -105 173 -115 199 -122 _c
225 -129 251 -133 278 -133 _c
336 -133 380 -117 410 -87 _c
439 -56 454 -10 454 52 _c
454 96 _l
435 64 411 40 382 24 _c
353 8 319 0 279 0 _c
211 0 157 25 116 76 _c
75 127 55 195 55 280 _c
55 364 75 432 116 483 _c
157 534 211 560 279 560 _c
319 560 353 552 382 536 _c
411 520 435 496 454 464 _c
454 547 _l
544 547 _l
}_e{544 68 _l
_cl}_e}_d
/i{278 0 94 0 184 760 _sc
94 547 _m
184 547 _l
184 0 _l
94 0 _l
94 547 _l
94 760 _m
184 760 _l
184 646 _l
94 646 _l
94 760 _l
_cl}_d
/l{278 0 94 0 184 760 _sc
94 760 _m
184 760 _l
184 0 _l
94 0 _l
94 760 _l
_cl}_d
/m{{974 0 91 0 889 560 _sc
520 442 _m
542 482 569 511 600 531 _c
631 550 668 560 711 560 _c
767 560 811 540 842 500 _c
873 460 889 403 889 330 _c
889 0 _l
799 0 _l
799 327 _l
799 379 789 418 771 444 _c
752 469 724 482 686 482 _c
639 482 602 466 575 435 _c
548 404 535 362 535 309 _c
535 0 _l
445 0 _l
445 327 _l
445 379 435 418 417 444 _c
398 469 369 482 331 482 _c
}_e{285 482 248 466 221 435 _c
194 404 181 362 181 309 _c
181 0 _l
91 0 _l
91 547 _l
181 547 _l
181 462 _l
201 495 226 520 255 536 _c
283 552 317 560 357 560 _c
397 560 430 550 458 530 _c
486 510 506 480 520 442 _c
_cl}_e}_d
/n{634 0 91 0 549 560 _sc
549 330 _m
549 0 _l
459 0 _l
459 327 _l
459 379 448 417 428 443 _c
408 469 378 482 338 482 _c
289 482 251 466 223 435 _c
195 404 181 362 181 309 _c
181 0 _l
91 0 _l
91 547 _l
181 547 _l
181 462 _l
202 494 227 519 257 535 _c
286 551 320 560 358 560 _c
420 560 468 540 500 501 _c
532 462 549 405 549 330 _c
_cl}_d
/o{612 0 55 -13 557 560 _sc
306 484 _m
258 484 220 465 192 427 _c
164 389 150 338 150 273 _c
150 207 163 156 191 118 _c
219 80 257 62 306 62 _c
354 62 392 80 420 118 _c
448 156 462 207 462 273 _c
462 337 448 389 420 427 _c
392 465 354 484 306 484 _c
306 560 _m
384 560 445 534 490 484 _c
534 433 557 363 557 273 _c
557 183 534 113 490 63 _c
445 12 384 -13 306 -13 _c
227 -13 165 12 121 63 _c
77 113 55 183 55 273 _c
55 363 77 433 121 484 _c
165 534 227 560 306 560 _c
_cl}_d
/p{{635 0 91 -207 580 560 _sc
181 82 _m
181 -207 _l
91 -207 _l
91 547 _l
181 547 _l
181 464 _l
199 496 223 520 252 536 _c
281 552 316 560 356 560 _c
422 560 476 533 518 481 _c
559 428 580 359 580 273 _c
580 187 559 117 518 65 _c
476 13 422 -13 356 -13 _c
316 -13 281 -5 252 10 _c
223 25 199 49 181 82 _c
487 273 _m
487 339 473 390 446 428 _c
418 466 381 485 334 485 _c
}_e{286 485 249 466 222 428 _c
194 390 181 339 181 273 _c
181 207 194 155 222 117 _c
249 79 286 61 334 61 _c
381 61 418 79 446 117 _c
473 155 487 207 487 273 _c
_cl}_e}_d
/r{411 0 91 0 411 560 _sc
411 463 _m
401 469 390 473 378 476 _c
366 478 353 480 339 480 _c
288 480 249 463 222 430 _c
194 397 181 350 181 288 _c
181 0 _l
91 0 _l
91 547 _l
181 547 _l
181 462 _l
199 495 224 520 254 536 _c
284 552 321 560 365 560 _c
371 560 378 559 386 559 _c
393 558 401 557 411 555 _c
411 463 _l
_cl}_d
/s{{521 0 54 -13 472 560 _sc
443 531 _m
443 446 _l
417 458 391 468 364 475 _c
336 481 308 485 279 485 _c
234 485 200 478 178 464 _c
156 450 145 430 145 403 _c
145 382 153 366 169 354 _c
185 342 217 330 265 320 _c
296 313 _l
360 299 405 279 432 255 _c
458 230 472 195 472 151 _c
472 100 452 60 412 31 _c
372 1 316 -13 246 -13 _c
216 -13 186 -10 154 -5 _c
}_e{122 0 89 8 54 20 _c
54 113 _l
87 95 120 82 152 74 _c
184 65 216 61 248 61 _c
290 61 323 68 346 82 _c
368 96 380 117 380 144 _c
380 168 371 187 355 200 _c
339 213 303 226 247 238 _c
216 245 _l
160 257 119 275 95 299 _c
70 323 58 356 58 399 _c
58 450 76 490 112 518 _c
148 546 200 560 268 560 _c
301 560 332 557 362 552 _c
391 547 418 540 443 531 _c
}_e{_cl}_e}_d
/t{392 0 27 0 368 702 _sc
183 702 _m
183 547 _l
368 547 _l
368 477 _l
183 477 _l
183 180 _l
183 135 189 106 201 94 _c
213 81 238 75 276 75 _c
368 75 _l
368 0 _l
276 0 _l
206 0 158 13 132 39 _c
106 65 93 112 93 180 _c
93 477 _l
27 477 _l
27 547 _l
93 547 _l
93 702 _l
183 702 _l
_cl}_d
/u{634 0 85 -13 543 560 _sc
85 216 _m
85 547 _l
175 547 _l
175 219 _l
175 167 185 129 205 103 _c
225 77 255 64 296 64 _c
344 64 383 79 411 110 _c
439 141 453 183 453 237 _c
453 547 _l
543 547 _l
543 0 _l
453 0 _l
453 84 _l
431 50 405 26 377 10 _c
348 -5 315 -13 277 -13 _c
214 -13 166 6 134 45 _c
101 83 85 140 85 216 _c
311 560 _m
311 560 _l
_cl}_d
/w{818 0 42 0 776 547 _sc
42 547 _m
132 547 _l
244 120 _l
356 547 _l
462 547 _l
574 120 _l
686 547 _l
776 547 _l
633 0 _l
527 0 _l
409 448 _l
291 0 _l
185 0 _l
42 547 _l
_cl}_d
end readonly def

/BuildGlyph
 {exch begin
 CharStrings exch
 2 copy known not{pop /.notdef}if
 true 3 1 roll get exec
 end}_d

/BuildChar {
 1 index /Encoding get exch get
 1 index /BuildGlyph get exec
}_d

FontName currentdict end definefont pop
end
%%EndProlog
mpldict begin
-54 108 translate
720 576 0 0 clipbox
gsave
0 0 m
720 0 l
720 576 l
0 576 l
cl
grestore
gsave
90 72 m
648 72 l
648 506.88 l
90 506.88 l
cl
1.000 setgray
fill
grestore
1.500 setlinewidth
0 setlinejoin
0 setlinecap
[] 0 setdash
0.212 setgray
gsave
558 434.9 90 72 clipbox
99.672 221.49 m
136.128 221.49 l
136.128 357.39 l
99.672 357.39 l
99.672 221.49 l
cl
gsave
0.091 0.426 0.611 setrgbcolor
fill
grestore
stroke
grestore
gsave
558 434.9 90 72 clipbox
136.872 270.908182 m
173.328 270.908182 l
173.328 357.39 l
136.872 357.39 l
136.872 270.908182 l
cl
gsave
0.764 0.532 0.126 setrgbcolor
fill
grestore
stroke
grestore
gsave
558 434.9 90 72 clipbox
192.672 202.958182 m
229.128 202.958182 l
229.128 314.149091 l
192.672 314.149091 l
192.672 202.958182 l
cl
gsave
0.091 0.426 0.611 setrgbcolor
fill
grestore
stroke
grestore
gsave
558 434.9 90 72 clipbox
229.872 289.44 m
266.328 289.44 l
266.328 382.099091 l
229.872 382.099091 l
229.872 289.44 l
cl
gsave
0.764 0.532 0.126 setrgbcolor
fill
grestore
stroke
grestore
gsave
558 434.9 90 72 clipbox
285.672 246.199091 m
322.128 246.199091 l
322.128 289.44 l
285.672 289.44 l
285.672 246.199091 l
cl
gsave
0.091 0.426 0.611 setrgbcolor
fill
grestore
stroke
grestore
gsave
558 434.9 90 72 clipbox
322.872 301.794545 m
359.328 301.794545 l
359.328 382.099091 l
322.872 382.099091 l
322.872 301.794545 l
cl
gsave
0.764 0.532 0.126 setrgbcolor
fill
grestore
stroke
grestore
gsave
558 434.9 90 72 clipbox
378.672 295.617273 m
415.128 295.617273 l
415.128 375.921818 l
378.672 375.921818 l
378.672 295.617273 l
cl
gsave
0.091 0.426 0.611 setrgbcolor
fill
grestore
stroke
grestore
gsave
558 434.9 90 72 clipbox
415.872 351.212727 m
452.328 351.212727 l
452.328 462.403636 l
415.872 462.403636 l
415.872 351.212727 l
cl
gsave
0.764 0.532 0.126 setrgbcolor
fill
grestore
stroke
grestore
gsave
558 434.9 90 72 clipbox
471.672 246.199091 m
508.128 246.199091 l
508.128 314.149091 l
471.672 314.149091 l
471.672 246.199091 l
cl
gsave
0.091 0.426 0.611 setrgbcolor
fill
grestore
stroke
grestore
gsave
558 434.9 90 72 clipbox
508.872 351.212727 m
545.328 351.212727 l
545.328 412.985455 l
508.872 412.985455 l
508.872 351.212727 l
cl
gsave
0.764 0.532 0.126 setrgbcolor
fill
grestore
stroke
grestore
gsave
558 434.9 90 72 clipbox
564.672 221.49 m
601.128 221.49 l
601.128 338.858182 l
564.672 338.858182 l
564.672 221.49 l
cl
gsave
0.091 0.426 0.611 setrgbcolor
fill
grestore
stroke
grestore
gsave
558 434.9 90 72 clipbox
601.872 301.794545 m
638.328 301.794545 l
638.328 406.808182 l
601.872 406.808182 l
601.872 301.794545 l
cl
gsave
0.764 0.532 0.126 setrgbcolor
fill
grestore
stroke
grestore
1.000 setlinewidth
1 setlinejoin
0.149 setgray
gsave
558 434.9 90 72 clipbox
/o {
gsave
newpath
translate
1.0 setlinewidth
1 setlinejoin
0 setlinecap
0 -3.872983 m
1.027127 -3.872983 2.012324 -3.464901 2.738613 -2.738613 c
3.464901 -2.012324 3.872983 -1.027127 3.872983 0 c
3.872983 1.027127 3.464901 2.012324 2.738613 2.738613 c
2.012324 3.464901 1.027127 3.872983 0 3.872983 c
-1.027127 3.872983 -2.012324 3.464901 -2.738613 2.738613 c
-3.464901 2.012324 -3.872983 1.027127 -3.872983 0 c
-3.872983 -1.027127 -3.464901 -2.012324 -2.738613 -2.738613 c
-2.012324 -3.464901 -1.027127 -3.872983 0 -3.872983 c
cl

gsave
0.149 setgray
fill
grestore
stroke
grestore
} bind def
grestore
0.502 setgray
gsave
558 434.9 90 72 clipbox
/o {
gsave
newpath
translate
1.0 setlinewidth
1 setlinejoin
0 setlinecap
0 -3.872983 m
1.027127 -3.872983 2.012324 -3.464901 2.738613 -2.738613 c
3.464901 -2.012324 3.872983 -1.027127 3.872983 0 c
3.872983 1.027127 3.464901 2.012324 2.738613 2.738613 c
2.012324 3.464901 1.027127 3.872983 0 3.872983 c
-1.027127 3.872983 -2.012324 3.464901 -2.738613 2.738613 c
-3.464901 2.012324 -3.872983 1.027127 -3.872983 0 c
-3.872983 -1.027127 -3.464901 -2.012324 -2.738613 -2.738613 c
-2.012324 -3.464901 -1.027127 -3.872983 0 -3.872983 c
cl

gsave
0.502 setgray
fill
grestore
stroke
grestore
} bind def
grestore
0.750 setlinewidth
0 setlinejoin
0.212 setgray
gsave
558 434.9 90 72 clipbox
136.5 91.767273 m
136.5 91.767273 l
136.5 91.767273 l
136.5 91.767273 l
cl
gsave
0.091 0.426 0.611 setrgbcolor
fill
grestore
stroke
grestore
gsave
558 434.9 90 72 clipbox
136.5 91.767273 m
136.5 91.767273 l
136.5 91.767273 l
136.5 91.767273 l
cl
gsave
0.764 0.532 0.126 setrgbcolor
fill
grestore
stroke
grestore
0.800 setlinewidth
1 setlinejoin
0.000 setgray
gsave
/o {
gsave
newpath
translate
0.8 setlinewidth
1 setlinejoin
0 setlinecap
0 0 m
0 -3.5 l

gsave
0.000 setgray
fill
grestore
stroke
grestore
} bind def
136.5 72 o
grestore
/DejaVuSans findfont
10.000 scalefont
setfont
gsave
122.382812 57.406250 translate
0.000000 rotate
0.000000 0 m /B glyphshow
6.860352 0 m /a glyphshow
12.988281 0 m /l glyphshow
15.766602 0 m /o glyphshow
21.884766 0 m /g glyphshow
grestore
gsave
/o {
gsave
newpath
translate
0.8 setlinewidth
1 setlinejoin
0 setlinecap
0 0 m
0 -3.5 l

gsave
0.000 setgray
fill
grestore
stroke
grestore
} bind def
229.5 72 o
grestore
gsave
203.257812 57.406250 translate
0.000000 rotate
0.000000 0 m /B glyphshow
6.860352 0 m /a glyphshow
12.988281 0 m /l glyphshow
15.766602 0 m /o glyphshow
21.884766 0 m /g glyphshow
28.232422 0 m /S glyphshow
34.580078 0 m /u glyphshow
40.917969 0 m /b glyphshow
47.265625 0 m /s glyphshow
grestore
gsave
/o {
gsave
newpath
translate
0.8 setlinewidth
1 setlinejoin
0 setlinecap
0 0 m
0 -3.5 l

gsave
0.000 setgray
fill
grestore
stroke
grestore
} bind def
322.5 72 o
grestore
gsave
293.914062 57.406250 translate
0.000000 rotate
0.000000 0 m /B glyphshow
6.860352 0 m /a glyphshow
12.988281 0 m /l glyphshow
15.766602 0 m /o glyphshow
21.884766 0 m /g glyphshow
28.232422 0 m /V glyphshow
34.823242 0 m /i glyphshow
37.601562 0 m /e glyphshow
43.753906 0 m /w glyphshow
51.932617 0 m /s glyphshow
grestore
gsave
/o {
gsave
newpath
translate
0.8 setlinewidth
1 setlinejoin
0 setlinecap
0 0 m
0 -3.5 l

gsave
0.000 setgray
fill
grestore
stroke
grestore
} bind def
415.5 72 o
grestore
gsave
398.421875 57.406250 translate
0.000000 rotate
0.000000 0 m /S glyphshow
6.347656 0 m /i glyphshow
9.125977 0 m /m glyphshow
18.867188 0 m /p glyphshow
25.214844 0 m /l glyphshow
27.993164 0 m /e glyphshow
grestore
gsave
/o {
gsave
newpath
translate
0.8 setlinewidth
1 setlinejoin
0 setlinecap
0 0 m
0 -3.5 l

gsave
0.000 setgray
fill
grestore
stroke
grestore
} bind def
508.5 72 o
grestore
gsave
479.296875 57.406250 translate
0.000000 rotate
0.000000 0 m /S glyphshow
6.347656 0 m /i glyphshow
9.125977 0 m /m glyphshow
18.867188 0 m /p glyphshow
25.214844 0 m /l glyphshow
27.993164 0 m /e glyphshow
34.145508 0 m /S glyphshow
40.493164 0 m /u glyphshow
46.831055 0 m /b glyphshow
53.178711 0 m /s glyphshow
grestore
gsave
/o {
gsave
newpath
translate
0.8 setlinewidth
1 setlinejoin
0 setlinecap
0 0 m
0 -3.5 l

gsave
0.000 setgray
fill
grestore
stroke
grestore
} bind def
601.5 72 o
grestore
gsave
569.953125 57.406250 translate
0.000000 rotate
0.000000 0 m /S glyphshow
6.347656 0 m /i glyphshow
9.125977 0 m /m glyphshow
18.867188 0 m /p glyphshow
25.214844 0 m /l glyphshow
27.993164 0 m /e glyphshow
34.145508 0 m /V glyphshow
40.736328 0 m /i glyphshow
43.514648 0 m /e glyphshow
49.666992 0 m /w glyphshow
57.845703 0 m /s glyphshow
grestore
gsave
353.984375 43.734375 translate
0.000000 rotate
0.000000 0 m /M glyphshow
8.627930 0 m /o glyphshow
14.746094 0 m /d glyphshow
21.093750 0 m /e glyphshow
27.246094 0 m /l glyphshow
grestore
gsave
/o {
gsave
newpath
translate
0.8 setlinewidth
1 setlinejoin
0 setlinecap
-0 0 m
-3.5 0 l

gsave
0.000 setgray
fill
grestore
stroke
grestore
} bind def
90 91.7673 o
grestore
gsave
67.093750 87.970398 translate
0.000000 rotate
0.000000 0 m /zero glyphshow
6.362305 0 m /period glyphshow
9.541016 0 m /zero glyphshow
grestore
gsave
/o {
gsave
newpath
translate
0.8 setlinewidth
1 setlinejoin
0 setlinecap
-0 0 m
-3.5 0 l

gsave
0.000 setgray
fill
grestore
stroke
grestore
} bind def
90 141.185 o
grestore
gsave
67.093750 137.388580 translate
0.000000 rotate
0.000000 0 m /zero glyphshow
6.362305 0 m /period glyphshow
9.541016 0 m /one glyphshow
grestore
gsave
/o {
gsave
newpath
translate
0.8 setlinewidth
1 setlinejoin
0 setlinecap
-0 0 m
-3.5 0 l

gsave
0.000 setgray
fill
grestore
stroke
grestore
} bind def
90 190.604 o
grestore
gsave
67.093750 186.806761 translate
0.000000 rotate
0.000000 0 m /zero glyphshow
6.362305 0 m /period glyphshow
9.541016 0 m /two glyphshow
grestore
gsave
/o {
gsave
newpath
translate
0.8 setlinewidth
1 setlinejoin
0 setlinecap
-0 0 m
-3.5 0 l

gsave
0.000 setgray
fill
grestore
stroke
grestore
} bind def
90 240.022 o
grestore
gsave
67.093750 236.224943 translate
0.000000 rotate
0.000000 0 m /zero glyphshow
6.362305 0 m /period glyphshow
9.541016 0 m /three glyphshow
grestore
gsave
/o {
gsave
newpath
translate
0.8 setlinewidth
1 setlinejoin
0 setlinecap
-0 0 m
-3.5 0 l

gsave
0.000 setgray
fill
grestore
stroke
grestore
} bind def
90 289.44 o
grestore
gsave
67.093750 285.643125 translate
0.000000 rotate
0.000000 0 m /zero glyphshow
6.362305 0 m /period glyphshow
9.541016 0 m /four glyphshow
grestore
gsave
/o {
gsave
newpath
translate
0.8 setlinewidth
1 setlinejoin
0 setlinecap
-0 0 m
-3.5 0 l

gsave
0.000 setgray
fill
grestore
stroke
grestore
} bind def
90 338.858 o
grestore
gsave
67.093750 335.061307 translate
0.000000 rotate
0.000000 0 m /zero glyphshow
6.362305 0 m /period glyphshow
9.541016 0 m /five glyphshow
grestore
gsave
/o {
gsave
newpath
translate
0.8 setlinewidth
1 setlinejoin
0 setlinecap
-0 0 m
-3.5 0 l

gsave
0.000 setgray
fill
grestore
stroke
grestore
} bind def
90 388.276 o
grestore
gsave
67.093750 384.479489 translate
0.000000 rotate
0.000000 0 m /zero glyphshow
6.362305 0 m /period glyphshow
9.541016 0 m /six glyphshow
grestore
gsave
/o {
gsave
newpath
translate
0.8 setlinewidth
1 setlinejoin
0 setlinecap
-0 0 m
-3.5 0 l

gsave
0.000 setgray
fill
grestore
stroke
grestore
} bind def
90 437.695 o
grestore
gsave
67.093750 433.897670 translate
0.000000 rotate
0.000000 0 m /zero glyphshow
6.362305 0 m /period glyphshow
9.541016 0 m /seven glyphshow
grestore
gsave
/o {
gsave
newpath
translate
0.8 setlinewidth
1 setlinejoin
0 setlinecap
-0 0 m
-3.5 0 l

gsave
0.000 setgray
fill
grestore
stroke
grestore
} bind def
90 487.113 o
grestore
gsave
67.093750 483.315852 translate
0.000000 rotate
0.000000 0 m /zero glyphshow
6.362305 0 m /period glyphshow
9.541016 0 m /eight glyphshow
grestore
gsave
61.015625 275.447812 translate
90.000000 rotate
0.000000 0 m /S glyphshow
6.347656 0 m /c glyphshow
11.845703 0 m /o glyphshow
17.963867 0 m /r glyphshow
21.825195 0 m /e glyphshow
grestore
1.500 setlinewidth
2 setlinecap
0.212 setgray
gsave
558 434.9 90 72 clipbox
117.9 221.49 m
117.9 190.603636 l
stroke
grestore
gsave
558 434.9 90 72 clipbox
117.9 357.39 m
117.9 363.567273 l
stroke
grestore
gsave
558 434.9 90 72 clipbox
108.786 190.603636 m
127.014 190.603636 l
stroke
grestore
gsave
558 434.9 90 72 clipbox
108.786 363.567273 m
127.014 363.567273 l
stroke
grestore
gsave
558 434.9 90 72 clipbox
155.1 270.908182 m
155.1 141.185455 l
stroke
grestore
gsave
558 434.9 90 72 clipbox
155.1 357.39 m
155.1 388.276364 l
stroke
grestore
gsave
558 434.9 90 72 clipbox
145.986 141.185455 m
164.214 141.185455 l
stroke
grestore
gsave
558 434.9 90 72 clipbox
145.986 388.276364 m
164.214 388.276364 l
stroke
grestore
gsave
558 434.9 90 72 clipbox
210.9 202.958182 m
210.9 165.894545 l
stroke
grestore
gsave
558 434.9 90 72 clipbox
210.9 314.149091 m
210.9 363.567273 l
stroke
grestore
gsave
558 434.9 90 72 clipbox
201.786 165.894545 m
220.014 165.894545 l
stroke
grestore
gsave
558 434.9 90 72 clipbox
201.786 363.567273 m
220.014 363.567273 l
stroke
grestore
gsave
558 434.9 90 72 clipbox
248.1 289.44 m
248.1 215.312727 l
stroke
grestore
gsave
558 434.9 90 72 clipbox
248.1 382.099091 m
248.1 388.276364 l
stroke
grestore
gsave
558 434.9 90 72 clipbox
238.986 215.312727 m
257.214 215.312727 l
stroke
grestore
gsave
558 434.9 90 72 clipbox
238.986 388.276364 m
257.214 388.276364 l
stroke
grestore
gsave
558 434.9 90 72 clipbox
303.9 246.199091 m
303.9 165.894545 l
stroke
grestore
gsave
558 434.9 90 72 clipbox
303.9 289.44 m
303.9 363.567273 l
stroke
grestore
gsave
558 434.9 90 72 clipbox
294.786 165.894545 m
313.014 165.894545 l
stroke
grestore
gsave
558 434.9 90 72 clipbox
294.786 363.567273 m
313.014 363.567273 l
stroke
grestore
gsave
558 434.9 90 72 clipbox
341.1 301.794545 m
341.1 190.603636 l
stroke
grestore
gsave
558 434.9 90 72 clipbox
341.1 382.099091 m
341.1 437.694545 l
stroke
grestore
gsave
558 434.9 90 72 clipbox
331.986 190.603636 m
350.214 190.603636 l
stroke
grestore
gsave
558 434.9 90 72 clipbox
331.986 437.694545 m
350.214 437.694545 l
stroke
grestore
gsave
558 434.9 90 72 clipbox
396.9 295.617273 m
396.9 240.021818 l
stroke
grestore
gsave
558 434.9 90 72 clipbox
396.9 375.921818 m
396.9 412.985455 l
stroke
grestore
gsave
558 434.9 90 72 clipbox
387.786 240.021818 m
406.014 240.021818 l
stroke
grestore
gsave
558 434.9 90 72 clipbox
387.786 412.985455 m
406.014 412.985455 l
stroke
grestore
gsave
558 434.9 90 72 clipbox
434.1 351.212727 m
434.1 264.730909 l
stroke
grestore
gsave
558 434.9 90 72 clipbox
434.1 462.403636 m
434.1 487.112727 l
stroke
grestore
gsave
558 434.9 90 72 clipbox
424.986 264.730909 m
443.214 264.730909 l
stroke
grestore
gsave
558 434.9 90 72 clipbox
424.986 487.112727 m
443.214 487.112727 l
stroke
grestore
gsave
558 434.9 90 72 clipbox
489.9 246.199091 m
489.9 215.312727 l
stroke
grestore
gsave
558 434.9 90 72 clipbox
489.9 314.149091 m
489.9 412.985455 l
stroke
grestore
gsave
558 434.9 90 72 clipbox
480.786 215.312727 m
499.014 215.312727 l
stroke
grestore
gsave
558 434.9 90 72 clipbox
480.786 412.985455 m
499.014 412.985455 l
stroke
grestore
gsave
558 434.9 90 72 clipbox
527.1 351.212727 m
527.1 240.021818 l
stroke
grestore
gsave
558 434.9 90 72 clipbox
527.1 412.985455 m
527.1 462.403636 l
stroke
grestore
gsave
558 434.9 90 72 clipbox
517.986 240.021818 m
536.214 240.021818 l
stroke
grestore
gsave
558 434.9 90 72 clipbox
517.986 462.403636 m
536.214 462.403636 l
stroke
grestore
gsave
558 434.9 90 72 clipbox
582.9 221.49 m
582.9 91.767273 l
stroke
grestore
gsave
558 434.9 90 72 clipbox
582.9 338.858182 m
582.9 437.694545 l
stroke
grestore
gsave
558 434.9 90 72 clipbox
573.786 91.767273 m
592.014 91.767273 l
stroke
grestore
gsave
558 434.9 90 72 clipbox
573.786 437.694545 m
592.014 437.694545 l
stroke
grestore
gsave
558 434.9 90 72 clipbox
620.1 301.794545 m
620.1 190.603636 l
stroke
grestore
gsave
558 434.9 90 72 clipbox
620.1 406.808182 m
620.1 437.694545 l
stroke
grestore
gsave
558 434.9 90 72 clipbox
610.986 190.603636 m
629.214 190.603636 l
stroke
grestore
gsave
558 434.9 90 72 clipbox
610.986 437.694545 m
629.214 437.694545 l
stroke
grestore
gsave
558 434.9 90 72 clipbox
99.672 289.44 m
136.128 289.44 l
stroke
grestore
gsave
558 434.9 90 72 clipbox
136.872 314.149091 m
173.328 314.149091 l
stroke
grestore
gsave
558 434.9 90 72 clipbox
192.672 240.021818 m
229.128 240.021818 l
stroke
grestore
gsave
558 434.9 90 72 clipbox
229.872 338.858182 m
266.328 338.858182 l
stroke
grestore
gsave
558 434.9 90 72 clipbox
285.672 277.085455 m
322.128 277.085455 l
stroke
grestore
gsave
558 434.9 90 72 clipbox
322.872 351.212727 m
359.328 351.212727 l
stroke
grestore
gsave
558 434.9 90 72 clipbox
378.672 338.858182 m
415.128 338.858182 l
stroke
grestore
gsave
558 434.9 90 72 clipbox
415.872 450.049091 m
452.328 450.049091 l
stroke
grestore
gsave
558 434.9 90 72 clipbox
471.672 289.44 m
508.128 289.44 l
stroke
grestore
gsave
558 434.9 90 72 clipbox
508.872 412.985455 m
545.328 412.985455 l
stroke
grestore
gsave
558 434.9 90 72 clipbox
564.672 264.730909 m
601.128 264.730909 l
stroke
grestore
gsave
558 434.9 90 72 clipbox
601.872 351.212727 m
638.328 351.212727 l
stroke
grestore
0.800 setlinewidth
0 setlinejoin
0.000 setgray
gsave
90 72 m
90 506.88 l
stroke
grestore
gsave
648 72 m
648 506.88 l
stroke
grestore
gsave
90 72 m
648 72 l
stroke
grestore
gsave
90 506.88 m
648 506.88 l
stroke
grestore
/p0_0 {
newpath
translate
0 -2.5 m
0.663008 -2.5 1.29895 -2.236584 1.767767 -1.767767 c
2.236584 -1.29895 2.5 -0.663008 2.5 0 c
2.5 0.663008 2.236584 1.29895 1.767767 1.767767 c
1.29895 2.236584 0.663008 2.5 0 2.5 c
-0.663008 2.5 -1.29895 2.236584 -1.767767 1.767767 c
-2.236584 1.29895 -2.5 0.663008 -2.5 0 c
-2.5 -0.663008 -2.236584 -1.29895 -1.767767 -1.767767 c
-1.29895 -2.236584 -0.663008 -2.5 0 -2.5 c
cl

} bind def
gsave
558 434.9 90 72 clipbox
121.031 363.567 p0_0
0.148 0.148 0.148 setrgbcolor
fill
grestore
gsave
558 434.9 90 72 clipbox
115.647 190.604 p0_0
0.148 0.148 0.148 setrgbcolor
fill
grestore
gsave
558 434.9 90 72 clipbox
116.336 264.731 p0_0
0.148 0.148 0.148 setrgbcolor
fill
grestore
gsave
558 434.9 90 72 clipbox
115.453 363.567 p0_0
0.148 0.148 0.148 setrgbcolor
fill
grestore
gsave
558 434.9 90 72 clipbox
121.597 314.149 p0_0
0.148 0.148 0.148 setrgbcolor
fill
grestore
gsave
558 434.9 90 72 clipbox
119.855 240.022 p0_0
0.148 0.148 0.148 setrgbcolor
fill
grestore
gsave
558 434.9 90 72 clipbox
113.795 363.567 p0_0
0.148 0.148 0.148 setrgbcolor
fill
grestore
gsave
558 434.9 90 72 clipbox
119.549 215.313 p0_0
0.148 0.148 0.148 setrgbcolor
fill
grestore
gsave
558 434.9 90 72 clipbox
116.079 338.858 p0_0
0.148 0.148 0.148 setrgbcolor
fill
grestore
gsave
558 434.9 90 72 clipbox
116.833 190.604 p0_0
0.148 0.148 0.148 setrgbcolor
fill
grestore
/p1_0 {
newpath
translate
0 -2.5 m
0.663008 -2.5 1.29895 -2.236584 1.767767 -1.767767 c
2.236584 -1.29895 2.5 -0.663008 2.5 0 c
2.5 0.663008 2.236584 1.29895 1.767767 1.767767 c
1.29895 2.236584 0.663008 2.5 0 2.5 c
-0.663008 2.5 -1.29895 2.236584 -1.767767 1.767767 c
-2.236584 1.29895 -2.5 0.663008 -2.5 0 c
-2.5 -0.663008 -2.236584 -1.29895 -1.767767 -1.767767 c
-1.29895 -2.236584 -0.663008 -2.5 0 -2.5 c
cl

} bind def
gsave
558 434.9 90 72 clipbox
156.358 363.567 p1_0
0.502 setgray
fill
grestore
gsave
558 434.9 90 72 clipbox
152.103 141.185 p1_0
0.502 setgray
fill
grestore
gsave
558 434.9 90 72 clipbox
158.181 314.149 p1_0
0.502 setgray
fill
grestore
gsave
558 434.9 90 72 clipbox
154.753 314.149 p1_0
0.502 setgray
fill
grestore
gsave
558 434.9 90 72 clipbox
155.863 264.731 p1_0
0.502 setgray
fill
grestore
gsave
558 434.9 90 72 clipbox
156.168 388.276 p1_0
0.502 setgray
fill
grestore
gsave
558 434.9 90 72 clipbox
153.754 338.858 p1_0
0.502 setgray
fill
grestore
gsave
558 434.9 90 72 clipbox
158.083 363.567 p1_0
0.502 setgray
fill
grestore
gsave
558 434.9 90 72 clipbox
150.829 289.44 p1_0
0.502 setgray
fill
grestore
gsave
558 434.9 90 72 clipbox
155.065 264.731 p1_0
0.502 setgray
fill
grestore
/p2_0 {
newpath
translate
0 -2.5 m
0.663008 -2.5 1.29895 -2.236584 1.767767 -1.767767 c
2.236584 -1.29895 2.5 -0.663008 2.5 0 c
2.5 0.663008 2.236584 1.29895 1.767767 1.767767 c
1.29895 2.236584 0.663008 2.5 0 2.5 c
-0.663008 2.5 -1.29895 2.236584 -1.767767 1.767767 c
-2.236584 1.29895 -2.5 0.663008 -2.5 0 c
-2.5 -0.663008 -2.236584 -1.29895 -1.767767 -1.767767 c
-1.29895 -2.236584 -0.663008 -2.5 0 -2.5 c
cl

} bind def
gsave
558 434.9 90 72 clipbox
211.072 314.149 p2_0
0.148 0.148 0.148 setrgbcolor
fill
grestore
gsave
558 434.9 90 72 clipbox
208.357 240.022 p2_0
0.148 0.148 0.148 setrgbcolor
fill
grestore
gsave
558 434.9 90 72 clipbox
207.608 363.567 p2_0
0.148 0.148 0.148 setrgbcolor
fill
grestore
gsave
558 434.9 90 72 clipbox
209.338 338.858 p2_0
0.148 0.148 0.148 setrgbcolor
fill
grestore
gsave
558 434.9 90 72 clipbox
208.937 165.895 p2_0
0.148 0.148 0.148 setrgbcolor
fill
grestore
gsave
558 434.9 90 72 clipbox
206.878 314.149 p2_0
0.148 0.148 0.148 setrgbcolor
fill
grestore
gsave
558 434.9 90 72 clipbox
207.125 240.022 p2_0
0.148 0.148 0.148 setrgbcolor
fill
grestore
gsave
558 434.9 90 72 clipbox
210.705 240.022 p2_0
0.148 0.148 0.148 setrgbcolor
fill
grestore
gsave
558 434.9 90 72 clipbox
213.305 190.604 p2_0
0.148 0.148 0.148 setrgbcolor
fill
grestore
gsave
558 434.9 90 72 clipbox
214.954 165.895 p2_0
0.148 0.148 0.148 setrgbcolor
fill
grestore
/p3_0 {
newpath
translate
0 -2.5 m
0.663008 -2.5 1.29895 -2.236584 1.767767 -1.767767 c
2.236584 -1.29895 2.5 -0.663008 2.5 0 c
2.5 0.663008 2.236584 1.29895 1.767767 1.767767 c
1.29895 2.236584 0.663008 2.5 0 2.5 c
-0.663008 2.5 -1.29895 2.236584 -1.767767 1.767767 c
-2.236584 1.29895 -2.5 0.663008 -2.5 0 c
-2.5 -0.663008 -2.236584 -1.29895 -1.767767 -1.767767 c
-1.29895 -2.236584 -0.663008 -2.5 0 -2.5 c
cl

} bind def
gsave
558 434.9 90 72 clipbox
245.418 264.731 p3_0
0.502 setgray
fill
grestore
gsave
558 434.9 90 72 clipbox
250.585 289.44 p3_0
0.502 setgray
fill
grestore
gsave
558 434.9 90 72 clipbox
245.384 363.567 p3_0
0.502 setgray
fill
grestore
gsave
558 434.9 90 72 clipbox
246.386 289.44 p3_0
0.502 setgray
fill
grestore
gsave
558 434.9 90 72 clipbox
248.431 388.276 p3_0
0.502 setgray
fill
grestore
gsave
558 434.9 90 72 clipbox
244.589 215.313 p3_0
0.502 setgray
fill
grestore
gsave
558 434.9 90 72 clipbox
250.182 363.567 p3_0
0.502 setgray
fill
grestore
gsave
558 434.9 90 72 clipbox
249.642 388.276 p3_0
0.502 setgray
fill
grestore
gsave
558 434.9 90 72 clipbox
249.52 388.276 p3_0
0.502 setgray
fill
grestore
gsave
558 434.9 90 72 clipbox
251.009 314.149 p3_0
0.502 setgray
fill
grestore
/p4_0 {
newpath
translate
0 -2.5 m
0.663008 -2.5 1.29895 -2.236584 1.767767 -1.767767 c
2.236584 -1.29895 2.5 -0.663008 2.5 0 c
2.5 0.663008 2.236584 1.29895 1.767767 1.767767 c
1.29895 2.236584 0.663008 2.5 0 2.5 c
-0.663008 2.5 -1.29895 2.236584 -1.767767 1.767767 c
-2.236584 1.29895 -2.5 0.663008 -2.5 0 c
-2.5 -0.663008 -2.236584 -1.29895 -1.767767 -1.767767 c
-1.29895 -2.236584 -0.663008 -2.5 0 -2.5 c
cl

} bind def
gsave
558 434.9 90 72 clipbox
305.105 240.022 p4_0
0.148 0.148 0.148 setrgbcolor
fill
grestore
gsave
558 434.9 90 72 clipbox
304.738 289.44 p4_0
0.148 0.148 0.148 setrgbcolor
fill
grestore
gsave
558 434.9 90 72 clipbox
301.847 363.567 p4_0
0.148 0.148 0.148 setrgbcolor
fill
grestore
gsave
558 434.9 90 72 clipbox
301.487 289.44 p4_0
0.148 0.148 0.148 setrgbcolor
fill
grestore
gsave
558 434.9 90 72 clipbox
308.514 165.895 p4_0
0.148 0.148 0.148 setrgbcolor
fill
grestore
gsave
558 434.9 90 72 clipbox
299.915 264.731 p4_0
0.148 0.148 0.148 setrgbcolor
fill
grestore
gsave
558 434.9 90 72 clipbox
300.068 240.022 p4_0
0.148 0.148 0.148 setrgbcolor
fill
grestore
gsave
558 434.9 90 72 clipbox
303.99 314.149 p4_0
0.148 0.148 0.148 setrgbcolor
fill
grestore
gsave
558 434.9 90 72 clipbox
300.516 289.44 p4_0
0.148 0.148 0.148 setrgbcolor
fill
grestore
gsave
558 434.9 90 72 clipbox
308.398 264.731 p4_0
0.148 0.148 0.148 setrgbcolor
fill
grestore
/p5_0 {
newpath
translate
0 -2.5 m
0.663008 -2.5 1.29895 -2.236584 1.767767 -1.767767 c
2.236584 -1.29895 2.5 -0.663008 2.5 0 c
2.5 0.663008 2.236584 1.29895 1.767767 1.767767 c
1.29895 2.236584 0.663008 2.5 0 2.5 c
-0.663008 2.5 -1.29895 2.236584 -1.767767 1.767767 c
-2.236584 1.29895 -2.5 0.663008 -2.5 0 c
-2.5 -0.663008 -2.236584 -1.29895 -1.767767 -1.767767 c
-1.29895 -2.236584 -0.663008 -2.5 0 -2.5 c
cl

} bind def
gsave
558 434.9 90 72 clipbox
343.515 363.567 p5_0
0.502 setgray
fill
grestore
gsave
558 434.9 90 72 clipbox
341.311 437.695 p5_0
0.502 setgray
fill
grestore
gsave
558 434.9 90 72 clipbox
345.37 190.604 p5_0
0.502 setgray
fill
grestore
gsave
558 434.9 90 72 clipbox
339.793 338.858 p5_0
0.502 setgray
fill
grestore
gsave
558 434.9 90 72 clipbox
339.07 338.858 p5_0
0.502 setgray
fill
grestore
gsave
558 434.9 90 72 clipbox
341.602 289.44 p5_0
0.502 setgray
fill
grestore
gsave
558 434.9 90 72 clipbox
344.337 289.44 p5_0
0.502 setgray
fill
grestore
gsave
558 434.9 90 72 clipbox
339.387 388.276 p5_0
0.502 setgray
fill
grestore
gsave
558 434.9 90 72 clipbox
341.923 412.985 p5_0
0.502 setgray
fill
grestore
gsave
558 434.9 90 72 clipbox
341.799 363.567 p5_0
0.502 setgray
fill
grestore
/p6_0 {
newpath
translate
0 -2.5 m
0.663008 -2.5 1.29895 -2.236584 1.767767 -1.767767 c
2.236584 -1.29895 2.5 -0.663008 2.5 0 c
2.5 0.663008 2.236584 1.29895 1.767767 1.767767 c
1.29895 2.236584 0.663008 2.5 0 2.5 c
-0.663008 2.5 -1.29895 2.236584 -1.767767 1.767767 c
-2.236584 1.29895 -2.5 0.663008 -2.5 0 c
-2.5 -0.663008 -2.236584 -1.29895 -1.767767 -1.767767 c
-1.29895 -2.236584 -0.663008 -2.5 0 -2.5 c
cl

} bind def
gsave
558 434.9 90 72 clipbox
395.739 388.276 p6_0
0.148 0.148 0.148 setrgbcolor
fill
grestore
gsave
558 434.9 90 72 clipbox
400.938 314.149 p6_0
0.148 0.148 0.148 setrgbcolor
fill
grestore
gsave
558 434.9 90 72 clipbox
396.931 388.276 p6_0
0.148 0.148 0.148 setrgbcolor
fill
grestore
gsave
558 434.9 90 72 clipbox
398.773 338.858 p6_0
0.148 0.148 0.148 setrgbcolor
fill
grestore
gsave
558 434.9 90 72 clipbox
393.667 264.731 p6_0
0.148 0.148 0.148 setrgbcolor
fill
grestore
gsave
558 434.9 90 72 clipbox
395.367 240.022 p6_0
0.148 0.148 0.148 setrgbcolor
fill
grestore
gsave
558 434.9 90 72 clipbox
400.483 338.858 p6_0
0.148 0.148 0.148 setrgbcolor
fill
grestore
gsave
558 434.9 90 72 clipbox
394.952 412.985 p6_0
0.148 0.148 0.148 setrgbcolor
fill
grestore
gsave
558 434.9 90 72 clipbox
394.69 338.858 p6_0
0.148 0.148 0.148 setrgbcolor
fill
grestore
gsave
558 434.9 90 72 clipbox
395.268 289.44 p6_0
0.148 0.148 0.148 setrgbcolor
fill
grestore
/p7_0 {
newpath
translate
0 -2.5 m
0.663008 -2.5 1.29895 -2.236584 1.767767 -1.767767 c
2.236584 -1.29895 2.5 -0.663008 2.5 0 c
2.5 0.663008 2.236584 1.29895 1.767767 1.767767 c
1.29895 2.236584 0.663008 2.5 0 2.5 c
-0.663008 2.5 -1.29895 2.236584 -1.767767 1.767767 c
-2.236584 1.29895 -2.5 0.663008 -2.5 0 c
-2.5 -0.663008 -2.236584 -1.29895 -1.767767 -1.767767 c
-1.29895 -2.236584 -0.663008 -2.5 0 -2.5 c
cl

} bind def
gsave
558 434.9 90 72 clipbox
429.724 437.695 p7_0
0.502 setgray
fill
grestore
gsave
558 434.9 90 72 clipbox
433.951 462.404 p7_0
0.502 setgray
fill
grestore
gsave
558 434.9 90 72 clipbox
429.873 462.404 p7_0
0.502 setgray
fill
grestore
gsave
558 434.9 90 72 clipbox
435.488 462.404 p7_0
0.502 setgray
fill
grestore
gsave
558 434.9 90 72 clipbox
431.545 487.113 p7_0
0.502 setgray
fill
grestore
gsave
558 434.9 90 72 clipbox
431.097 338.858 p7_0
0.502 setgray
fill
grestore
gsave
558 434.9 90 72 clipbox
435.103 264.731 p7_0
0.502 setgray
fill
grestore
gsave
558 434.9 90 72 clipbox
434.476 314.149 p7_0
0.502 setgray
fill
grestore
gsave
558 434.9 90 72 clipbox
430.814 388.276 p7_0
0.502 setgray
fill
grestore
gsave
558 434.9 90 72 clipbox
434.827 462.404 p7_0
0.502 setgray
fill
grestore
/p8_0 {
newpath
translate
0 -2.5 m
0.663008 -2.5 1.29895 -2.236584 1.767767 -1.767767 c
2.236584 -1.29895 2.5 -0.663008 2.5 0 c
2.5 0.663008 2.236584 1.29895 1.767767 1.767767 c
1.29895 2.236584 0.663008 2.5 0 2.5 c
-0.663008 2.5 -1.29895 2.236584 -1.767767 1.767767 c
-2.236584 1.29895 -2.5 0.663008 -2.5 0 c
-2.5 -0.663008 -2.236584 -1.29895 -1.767767 -1.767767 c
-1.29895 -2.236584 -0.663008 -2.5 0 -2.5 c
cl

} bind def
gsave
558 434.9 90 72 clipbox
488.639 338.858 p8_0
0.148 0.148 0.148 setrgbcolor
fill
grestore
gsave
558 434.9 90 72 clipbox
493.688 314.149 p8_0
0.148 0.148 0.148 setrgbcolor
fill
grestore
gsave
558 434.9 90 72 clipbox
493.535 264.731 p8_0
0.148 0.148 0.148 setrgbcolor
fill
grestore
gsave
558 434.9 90 72 clipbox
485.528 215.313 p8_0
0.148 0.148 0.148 setrgbcolor
fill
grestore
gsave
558 434.9 90 72 clipbox
493.949 314.149 p8_0
0.148 0.148 0.148 setrgbcolor
fill
grestore
gsave
558 434.9 90 72 clipbox
485.95 264.731 p8_0
0.148 0.148 0.148 setrgbcolor
fill
grestore
gsave
558 434.9 90 72 clipbox
490.968 215.313 p8_0
0.148 0.148 0.148 setrgbcolor
fill
grestore
gsave
558 434.9 90 72 clipbox
489.127 314.149 p8_0
0.148 0.148 0.148 setrgbcolor
fill
grestore
gsave
558 434.9 90 72 clipbox
491.138 240.022 p8_0
0.148 0.148 0.148 setrgbcolor
fill
grestore
gsave
558 434.9 90 72 clipbox
493.336 412.985 p8_0
0.148 0.148 0.148 setrgbcolor
fill
grestore
/p9_0 {
newpath
translate
0 -2.5 m
0.663008 -2.5 1.29895 -2.236584 1.767767 -1.767767 c
2.236584 -1.29895 2.5 -0.663008 2.5 0 c
2.5 0.663008 2.236584 1.29895 1.767767 1.767767 c
1.29895 2.236584 0.663008 2.5 0 2.5 c
-0.663008 2.5 -1.29895 2.236584 -1.767767 1.767767 c
-2.236584 1.29895 -2.5 0.663008 -2.5 0 c
-2.5 -0.663008 -2.236584 -1.29895 -1.767767 -1.767767 c
-1.29895 -2.236584 -0.663008 -2.5 0 -2.5 c
cl

} bind def
gsave
558 434.9 90 72 clipbox
529.597 412.985 p9_0
0.502 setgray
fill
grestore
gsave
558 434.9 90 72 clipbox
527.01 437.695 p9_0
0.502 setgray
fill
grestore
gsave
558 434.9 90 72 clipbox
527.464 412.985 p9_0
0.502 setgray
fill
grestore
gsave
558 434.9 90 72 clipbox
529.604 388.276 p9_0
0.502 setgray
fill
grestore
gsave
558 434.9 90 72 clipbox
529.322 338.858 p9_0
0.502 setgray
fill
grestore
gsave
558 434.9 90 72 clipbox
529.223 412.985 p9_0
0.502 setgray
fill
grestore
gsave
558 434.9 90 72 clipbox
529.259 240.022 p9_0
0.502 setgray
fill
grestore
gsave
558 434.9 90 72 clipbox
523.251 462.404 p9_0
0.502 setgray
fill
grestore
gsave
558 434.9 90 72 clipbox
530.43 264.731 p9_0
0.502 setgray
fill
grestore
gsave
558 434.9 90 72 clipbox
523.377 412.985 p9_0
0.502 setgray
fill
grestore
/pa_0 {
newpath
translate
0 -2.5 m
0.663008 -2.5 1.29895 -2.236584 1.767767 -1.767767 c
2.236584 -1.29895 2.5 -0.663008 2.5 0 c
2.5 0.663008 2.236584 1.29895 1.767767 1.767767 c
1.29895 2.236584 0.663008 2.5 0 2.5 c
-0.663008 2.5 -1.29895 2.236584 -1.767767 1.767767 c
-2.236584 1.29895 -2.5 0.663008 -2.5 0 c
-2.5 -0.663008 -2.236584 -1.29895 -1.767767 -1.767767 c
-1.29895 -2.236584 -0.663008 -2.5 0 -2.5 c
cl

} bind def
gsave
558 434.9 90 72 clipbox
584.108 338.858 pa_0
0.148 0.148 0.148 setrgbcolor
fill
grestore
gsave
558 434.9 90 72 clipbox
582.04 190.604 pa_0
0.148 0.148 0.148 setrgbcolor
fill
grestore
gsave
558 434.9 90 72 clipbox
579.209 91.7673 pa_0
0.148 0.148 0.148 setrgbcolor
fill
grestore
gsave
558 434.9 90 72 clipbox
579.156 215.313 pa_0
0.148 0.148 0.148 setrgbcolor
fill
grestore
gsave
558 434.9 90 72 clipbox
581.182 240.022 pa_0
0.148 0.148 0.148 setrgbcolor
fill
grestore
gsave
558 434.9 90 72 clipbox
584.247 289.44 pa_0
0.148 0.148 0.148 setrgbcolor
fill
grestore
gsave
558 434.9 90 72 clipbox
585.609 240.022 pa_0
0.148 0.148 0.148 setrgbcolor
fill
grestore
gsave
558 434.9 90 72 clipbox
583.438 338.858 pa_0
0.148 0.148 0.148 setrgbcolor
fill
grestore
gsave
558 434.9 90 72 clipbox
580.352 388.276 pa_0
0.148 0.148 0.148 setrgbcolor
fill
grestore
gsave
558 434.9 90 72 clipbox
587.547 437.695 pa_0
0.148 0.148 0.148 setrgbcolor
fill
grestore
/pb_0 {
newpath
translate
0 -2.5 m
0.663008 -2.5 1.29895 -2.236584 1.767767 -1.767767 c
2.236584 -1.29895 2.5 -0.663008 2.5 0 c
2.5 0.663008 2.236584 1.29895 1.767767 1.767767 c
1.29895 2.236584 0.663008 2.5 0 2.5 c
-0.663008 2.5 -1.29895 2.236584 -1.767767 1.767767 c
-2.236584 1.29895 -2.5 0.663008 -2.5 0 c
-2.5 -0.663008 -2.236584 -1.29895 -1.767767 -1.767767 c
-1.29895 -2.236584 -0.663008 -2.5 0 -2.5 c
cl

} bind def
gsave
558 434.9 90 72 clipbox
622.385 388.276 pb_0
0.502 setgray
fill
grestore
gsave
558 434.9 90 72 clipbox
623.421 289.44 pb_0
0.502 setgray
fill
grestore
gsave
558 434.9 90 72 clipbox
623.834 412.985 pb_0
0.502 setgray
fill
grestore
gsave
558 434.9 90 72 clipbox
624.298 437.695 pb_0
0.502 setgray
fill
grestore
gsave
558 434.9 90 72 clipbox
615.472 338.858 pb_0
0.502 setgray
fill
grestore
gsave
558 434.9 90 72 clipbox
622.415 412.985 pb_0
0.502 setgray
fill
grestore
gsave
558 434.9 90 72 clipbox
624.381 190.604 pb_0
0.502 setgray
fill
grestore
gsave
558 434.9 90 72 clipbox
620.66 338.858 pb_0
0.502 setgray
fill
grestore
gsave
558 434.9 90 72 clipbox
623.146 190.604 pb_0
0.502 setgray
fill
grestore
gsave
558 434.9 90 72 clipbox
620.606 363.567 pb_0
0.502 setgray
fill
grestore
1.000 setlinewidth
0 setlinecap
0.800 setgray
gsave
97 425.520625 m
157.21875 425.520625 l
158.552083 425.520625 159.21875 426.187292 159.21875 427.520625 c
159.21875 499.88 l
159.21875 501.213333 158.552083 501.88 157.21875 501.88 c
97 501.88 l
95.666667 501.88 95 501.213333 95 499.88 c
95 427.520625 l
95 426.187292 95.666667 425.520625 97 425.520625 c
cl
gsave
1.000 setgray
fill
grestore
stroke
grestore
0.000 setgray
gsave
99.000000 490.286250 translate
0.000000 rotate
0.000000 0 m /P glyphshow
5.655273 0 m /e glyphshow
11.807617 0 m /r glyphshow
15.668945 0 m /c glyphshow
21.166992 0 m /e glyphshow
27.319336 0 m /n glyphshow
33.657227 0 m /t glyphshow
37.578125 0 m /a glyphshow
43.706055 0 m /g glyphshow
50.053711 0 m /e glyphshow
grestore
0.750 setlinewidth
0.212 setgray
gsave
109.929688 475.614375 m
129.929688 475.614375 l
129.929688 482.614375 l
109.929688 482.614375 l
cl
gsave
0.091 0.426 0.611 setrgbcolor
fill
grestore
stroke
grestore
0.000 setgray
gsave
137.929688 475.614375 translate
0.000000 rotate
0.000000 0 m /one glyphshow
grestore
0.212 setgray
gsave
109.929688 460.9425 m
129.929688 460.9425 l
129.929688 467.9425 l
109.929688 467.9425 l
cl
gsave
0.764 0.532 0.126 setrgbcolor
fill
grestore
stroke
grestore
0.000 setgray
gsave
137.929688 460.942500 translate
0.000000 rotate
0.000000 0 m /two glyphshow
grestore
1.000 setlinewidth
1 setlinejoin
0.149 setgray
gsave
/o {
gsave
newpath
translate
1.0 setlinewidth
1 setlinejoin
0 setlinecap
0 -3.872983 m
1.027127 -3.872983 2.012324 -3.464901 2.738613 -2.738613 c
3.464901 -2.012324 3.872983 -1.027127 3.872983 0 c
3.872983 1.027127 3.464901 2.012324 2.738613 2.738613 c
2.012324 3.464901 1.027127 3.872983 0 3.872983 c
-1.027127 3.872983 -2.012324 3.464901 -2.738613 2.738613 c
-3.464901 2.012324 -3.872983 1.027127 -3.872983 0 c
-3.872983 -1.027127 -3.464901 -2.012324 -2.738613 -2.738613 c
-2.012324 -3.464901 -1.027127 -3.872983 0 -3.872983 c
cl

gsave
0.149 setgray
fill
grestore
stroke
grestore
} bind def
119.93 448.896 o
grestore
0.000 setgray
gsave
137.929688 446.270625 translate
0.000000 rotate
0.000000 0 m /one glyphshow
grestore
0.502 setgray
gsave
/o {
gsave
newpath
translate
1.0 setlinewidth
1 setlinejoin
0 setlinecap
0 -3.872983 m
1.027127 -3.872983 2.012324 -3.464901 2.738613 -2.738613 c
3.464901 -2.012324 3.872983 -1.027127 3.872983 0 c
3.872983 1.027127 3.464901 2.012324 2.738613 2.738613 c
2.012324 3.464901 1.027127 3.872983 0 3.872983 c
-1.027127 3.872983 -2.012324 3.464901 -2.738613 2.738613 c
-3.464901 2.012324 -3.872983 1.027127 -3.872983 0 c
-3.872983 -1.027127 -3.464901 -2.012324 -2.738613 -2.738613 c
-2.012324 -3.464901 -1.027127 -3.872983 0 -3.872983 c
cl

gsave
0.502 setgray
fill
grestore
stroke
grestore
} bind def
119.93 434.224 o
grestore
0.000 setgray
gsave
137.929688 431.598750 translate
0.000000 rotate
0.000000 0 m /two glyphshow
grestore

end
showpage
