%!PS-Adobe-3.0 EPSF-3.0
%%Title: top_youtube1.eps
%%Creator: matplotlib version 3.3.3, http://matplotlib.org/
%%CreationDate: Tue Jun  8 12:55:38 2021
%%Orientation: portrait
%%BoundingBox: -54.0 108.0 666.0 684.0
%%EndComments
%%BeginProlog
/mpldict 8 dict def
mpldict begin
/m { moveto } bind def
/l { lineto } bind def
/r { rlineto } bind def
/c { curveto } bind def
/cl { closepath } bind def
/box {
      m
      1 index 0 r
      0 exch r
      neg 0 r
      cl
    } bind def
/clipbox {
      box
      clip
      newpath
    } bind def
%!PS-Adobe-3.0 Resource-Font
%%Title: DejaVu Sans
%%Copyright: Copyright (c) 2003 by Bitstream, Inc. All Rights Reserved. Copyright (c) 2006 by Tavmjong Bah. All Rights Reserved. DejaVu changes are in public domain 
%%Creator: Converted from TrueType to type 3 by PPR
25 dict begin
/_d{bind def}bind def
/_m{moveto}_d
/_l{lineto}_d
/_cl{closepath eofill}_d
/_c{curveto}_d
/_sc{7 -1 roll{setcachedevice}{pop pop pop pop pop pop}ifelse}_d
/_e{exec}_d
/FontName /DejaVuSans def
/PaintType 0 def
/FontMatrix[.001 0 0 .001 0 0]def
/FontBBox[-1021 -463 1793 1232]def
/FontType 3 def
/Encoding [ /space /hyphen /period /slash /zero /one /two /three /four /five /six /seven /eight /nine /colon /equal /question /A /B /C /D /E /F /G /H /I /J /K /L /M /N /O /P /Q /R /S /T /U /V /W /X /Y /Z /underscore /a /b /c /d /e /f /g /h /i /j /k /l /m /n /o /p /q /r /s /t /u /v /w /x /y /z ] def
/FontInfo 10 dict dup begin
/FamilyName (DejaVu Sans) def
/FullName (DejaVu Sans) def
/Notice (Copyright (c) 2003 by Bitstream, Inc. All Rights Reserved. Copyright (c) 2006 by Tavmjong Bah. All Rights Reserved. DejaVu changes are in public domain ) def
/Weight (Book) def
/Version (Version 2.35) def
/ItalicAngle 0.0 def
/isFixedPitch false def
/UnderlinePosition -130 def
/UnderlineThickness 90 def
end readonly def
/CharStrings 71 dict dup begin
/.notdef 0 def
/space{318 0 0 0 0 0 _sc
}_d
/hyphen{361 0 49 234 312 314 _sc
49 314 _m
312 314 _l
312 234 _l
49 234 _l
49 314 _l
_cl}_d
/period{318 0 107 0 210 124 _sc
107 124 _m
210 124 _l
210 0 _l
107 0 _l
107 124 _l
_cl}_d
/slash{337 0 0 -92 337 729 _sc
254 729 _m
337 729 _l
83 -92 _l
0 -92 _l
254 729 _l
_cl}_d
/zero{636 0 66 -13 570 742 _sc
318 664 _m
267 664 229 639 203 589 _c
177 539 165 464 165 364 _c
165 264 177 189 203 139 _c
229 89 267 64 318 64 _c
369 64 407 89 433 139 _c
458 189 471 264 471 364 _c
471 464 458 539 433 589 _c
407 639 369 664 318 664 _c
318 742 _m
399 742 461 709 505 645 _c
548 580 570 486 570 364 _c
570 241 548 147 505 83 _c
461 19 399 -13 318 -13 _c
236 -13 173 19 130 83 _c
87 147 66 241 66 364 _c
66 486 87 580 130 645 _c
173 709 236 742 318 742 _c
_cl}_d
/one{636 0 110 0 544 729 _sc
124 83 _m
285 83 _l
285 639 _l
110 604 _l
110 694 _l
284 729 _l
383 729 _l
383 83 _l
544 83 _l
544 0 _l
124 0 _l
124 83 _l
_cl}_d
/two{{636 0 73 0 536 742 _sc
192 83 _m
536 83 _l
536 0 _l
73 0 _l
73 83 _l
110 121 161 173 226 239 _c
290 304 331 346 348 365 _c
380 400 402 430 414 455 _c
426 479 433 504 433 528 _c
433 566 419 598 392 622 _c
365 646 330 659 286 659 _c
255 659 222 653 188 643 _c
154 632 117 616 78 594 _c
78 694 _l
118 710 155 722 189 730 _c
223 738 255 742 284 742 _c
}_e{359 742 419 723 464 685 _c
509 647 532 597 532 534 _c
532 504 526 475 515 449 _c
504 422 484 390 454 354 _c
446 344 420 317 376 272 _c
332 227 271 164 192 83 _c
_cl}_e}_d
/three{{636 0 76 -13 556 742 _sc
406 393 _m
453 383 490 362 516 330 _c
542 298 556 258 556 212 _c
556 140 531 84 482 45 _c
432 6 362 -13 271 -13 _c
240 -13 208 -10 176 -4 _c
144 1 110 10 76 22 _c
76 117 _l
103 101 133 89 166 81 _c
198 73 232 69 268 69 _c
330 69 377 81 409 105 _c
441 129 458 165 458 212 _c
458 254 443 288 413 312 _c
383 336 341 349 287 349 _c
}_e{202 349 _l
202 430 _l
291 430 _l
339 430 376 439 402 459 _c
428 478 441 506 441 543 _c
441 580 427 609 401 629 _c
374 649 336 659 287 659 _c
260 659 231 656 200 650 _c
169 644 135 635 98 623 _c
98 711 _l
135 721 170 729 203 734 _c
235 739 266 742 296 742 _c
370 742 429 725 473 691 _c
517 657 539 611 539 553 _c
539 513 527 479 504 451 _c
481 423 448 403 406 393 _c
_cl}_e}_d
/four{636 0 49 0 580 729 _sc
378 643 _m
129 254 _l
378 254 _l
378 643 _l
352 729 _m
476 729 _l
476 254 _l
580 254 _l
580 172 _l
476 172 _l
476 0 _l
378 0 _l
378 172 _l
49 172 _l
49 267 _l
352 729 _l
_cl}_d
/five{{636 0 77 -13 549 729 _sc
108 729 _m
495 729 _l
495 646 _l
198 646 _l
198 467 _l
212 472 227 476 241 478 _c
255 480 270 482 284 482 _c
365 482 429 459 477 415 _c
525 370 549 310 549 234 _c
549 155 524 94 475 51 _c
426 8 357 -13 269 -13 _c
238 -13 207 -10 175 -6 _c
143 -1 111 6 77 17 _c
77 116 _l
106 100 136 88 168 80 _c
199 72 232 69 267 69 _c
}_e{323 69 368 83 401 113 _c
433 143 450 183 450 234 _c
450 284 433 324 401 354 _c
368 384 323 399 267 399 _c
241 399 214 396 188 390 _c
162 384 135 375 108 363 _c
108 729 _l
_cl}_e}_d
/six{{636 0 70 -13 573 742 _sc
330 404 _m
286 404 251 388 225 358 _c
199 328 186 286 186 234 _c
186 181 199 139 225 109 _c
251 79 286 64 330 64 _c
374 64 409 79 435 109 _c
461 139 474 181 474 234 _c
474 286 461 328 435 358 _c
409 388 374 404 330 404 _c
526 713 _m
526 623 _l
501 635 476 644 451 650 _c
425 656 400 659 376 659 _c
310 659 260 637 226 593 _c
}_e{192 549 172 482 168 394 _c
187 422 211 444 240 459 _c
269 474 301 482 336 482 _c
409 482 467 459 509 415 _c
551 371 573 310 573 234 _c
573 159 550 99 506 54 _c
462 9 403 -13 330 -13 _c
246 -13 181 19 137 83 _c
92 147 70 241 70 364 _c
70 479 97 571 152 639 _c
206 707 280 742 372 742 _c
396 742 421 739 447 735 _c
472 730 498 723 526 713 _c
_cl}_e}_d
/seven{636 0 82 0 551 729 _sc
82 729 _m
551 729 _l
551 687 _l
286 0 _l
183 0 _l
432 646 _l
82 646 _l
82 729 _l
_cl}_d
/eight{{636 0 68 -13 568 742 _sc
318 346 _m
271 346 234 333 207 308 _c
180 283 167 249 167 205 _c
167 161 180 126 207 101 _c
234 76 271 64 318 64 _c
364 64 401 76 428 102 _c
455 127 469 161 469 205 _c
469 249 455 283 429 308 _c
402 333 365 346 318 346 _c
219 388 _m
177 398 144 418 120 447 _c
96 476 85 511 85 553 _c
85 611 105 657 147 691 _c
188 725 245 742 318 742 _c
}_e{390 742 447 725 489 691 _c
530 657 551 611 551 553 _c
551 511 539 476 515 447 _c
491 418 459 398 417 388 _c
464 377 501 355 528 323 _c
554 291 568 251 568 205 _c
568 134 546 80 503 43 _c
459 5 398 -13 318 -13 _c
237 -13 175 5 132 43 _c
89 80 68 134 68 205 _c
68 251 81 291 108 323 _c
134 355 171 377 219 388 _c
183 544 _m
183 506 194 476 218 455 _c
}_e{242 434 275 424 318 424 _c
360 424 393 434 417 455 _c
441 476 453 506 453 544 _c
453 582 441 611 417 632 _c
393 653 360 664 318 664 _c
275 664 242 653 218 632 _c
194 611 183 582 183 544 _c
_cl}_e}_d
/nine{{636 0 63 -13 566 742 _sc
110 15 _m
110 105 _l
134 93 159 84 185 78 _c
210 72 235 69 260 69 _c
324 69 374 90 408 134 _c
442 178 462 244 468 334 _c
448 306 424 284 396 269 _c
367 254 335 247 300 247 _c
226 247 168 269 126 313 _c
84 357 63 417 63 494 _c
63 568 85 628 129 674 _c
173 719 232 742 306 742 _c
390 742 455 709 499 645 _c
543 580 566 486 566 364 _c
}_e{566 248 538 157 484 89 _c
429 21 356 -13 264 -13 _c
239 -13 214 -10 189 -6 _c
163 -2 137 5 110 15 _c
306 324 _m
350 324 385 339 411 369 _c
437 399 450 441 450 494 _c
450 546 437 588 411 618 _c
385 648 350 664 306 664 _c
262 664 227 648 201 618 _c
175 588 162 546 162 494 _c
162 441 175 399 201 369 _c
227 339 262 324 306 324 _c
_cl}_e}_d
/colon{337 0 117 0 220 517 _sc
117 124 _m
220 124 _l
220 0 _l
117 0 _l
117 124 _l
117 517 _m
220 517 _l
220 393 _l
117 393 _l
117 517 _l
_cl}_d
/equal{838 0 106 172 732 454 _sc
106 454 _m
732 454 _l
732 372 _l
106 372 _l
106 454 _l
106 255 _m
732 255 _l
732 172 _l
106 172 _l
106 255 _l
_cl}_d
/question{{531 0 72 0 461 742 _sc
191 124 _m
290 124 _l
290 0 _l
191 0 _l
191 124 _l
287 196 _m
194 196 _l
194 271 _l
194 303 198 330 207 352 _c
216 373 235 398 265 426 _c
309 469 _l
327 486 341 502 349 518 _c
357 533 362 549 362 565 _c
362 593 351 617 330 635 _c
308 653 280 662 245 662 _c
219 662 192 656 163 645 _c
133 633 103 617 72 595 _c
72 687 _l
}_e{102 705 133 719 165 728 _c
196 737 228 742 262 742 _c
322 742 370 726 406 694 _c
442 662 461 621 461 570 _c
461 545 455 521 443 499 _c
431 477 411 452 382 424 _c
339 382 _l
323 366 312 354 306 346 _c
300 337 295 329 293 321 _c
291 314 289 306 288 296 _c
287 286 287 272 287 256 _c
287 196 _l
_cl}_e}_d
/A{684 0 8 0 676 729 _sc
342 632 _m
208 269 _l
476 269 _l
342 632 _l
286 729 _m
398 729 _l
676 0 _l
573 0 _l
507 187 _l
178 187 _l
112 0 _l
8 0 _l
286 729 _l
_cl}_d
/B{{686 0 98 0 615 729 _sc
197 348 _m
197 81 _l
355 81 _l
408 81 447 92 473 114 _c
498 136 511 169 511 215 _c
511 260 498 293 473 315 _c
447 337 408 348 355 348 _c
197 348 _l
197 648 _m
197 428 _l
343 428 _l
391 428 426 437 450 455 _c
474 473 486 500 486 538 _c
486 574 474 602 450 620 _c
426 638 391 648 343 648 _c
197 648 _l
98 729 _m
350 729 _l
}_e{425 729 483 713 524 682 _c
564 650 585 606 585 549 _c
585 504 574 468 553 442 _c
532 416 502 399 462 393 _c
510 382 548 360 575 327 _c
601 294 615 253 615 204 _c
615 138 592 88 548 53 _c
504 17 441 0 360 0 _c
98 0 _l
98 729 _l
_cl}_e}_d
/C{{698 0 56 -13 644 742 _sc
644 673 _m
644 569 _l
610 599 575 622 537 638 _c
499 653 460 661 418 661 _c
334 661 270 635 226 584 _c
182 533 160 460 160 364 _c
160 268 182 194 226 143 _c
270 92 334 67 418 67 _c
460 67 499 74 537 90 _c
575 105 610 128 644 159 _c
644 56 _l
609 32 572 15 534 4 _c
496 -7 455 -13 412 -13 _c
302 -13 215 20 151 87 _c
}_e{87 154 56 246 56 364 _c
56 481 87 573 151 641 _c
215 708 302 742 412 742 _c
456 742 497 736 535 725 _c
573 713 610 696 644 673 _c
_cl}_e}_d
/D{770 0 98 0 711 729 _sc
197 648 _m
197 81 _l
316 81 _l
416 81 490 103 537 149 _c
583 195 607 267 607 365 _c
607 463 583 534 537 580 _c
490 625 416 648 316 648 _c
197 648 _l
98 729 _m
301 729 _l
442 729 546 699 612 641 _c
678 582 711 490 711 365 _c
711 239 677 147 611 88 _c
545 29 441 0 301 0 _c
98 0 _l
98 729 _l
_cl}_d
/E{632 0 98 0 568 729 _sc
98 729 _m
559 729 _l
559 646 _l
197 646 _l
197 430 _l
544 430 _l
544 347 _l
197 347 _l
197 83 _l
568 83 _l
568 0 _l
98 0 _l
98 729 _l
_cl}_d
/F{575 0 98 0 517 729 _sc
98 729 _m
517 729 _l
517 646 _l
197 646 _l
197 431 _l
486 431 _l
486 348 _l
197 348 _l
197 0 _l
98 0 _l
98 729 _l
_cl}_d
/G{{775 0 56 -13 693 742 _sc
595 104 _m
595 300 _l
434 300 _l
434 381 _l
693 381 _l
693 68 _l
655 40 613 20 567 7 _c
521 -6 472 -13 420 -13 _c
306 -13 216 20 152 86 _c
88 152 56 245 56 364 _c
56 482 88 575 152 642 _c
216 708 306 742 420 742 _c
467 742 512 736 555 724 _c
598 712 638 695 674 673 _c
674 568 _l
637 598 598 621 557 637 _c
516 653 473 661 428 661 _c
}_e{338 661 271 636 227 586 _c
182 536 160 462 160 364 _c
160 265 182 191 227 141 _c
271 91 338 67 428 67 _c
462 67 493 70 521 76 _c
549 82 573 91 595 104 _c
_cl}_e}_d
/H{752 0 98 0 654 729 _sc
98 729 _m
197 729 _l
197 430 _l
555 430 _l
555 729 _l
654 729 _l
654 0 _l
555 0 _l
555 347 _l
197 347 _l
197 0 _l
98 0 _l
98 729 _l
_cl}_d
/I{295 0 98 0 197 729 _sc
98 729 _m
197 729 _l
197 0 _l
98 0 _l
98 729 _l
_cl}_d
/J{295 0 -51 -199 197 729 _sc
98 729 _m
197 729 _l
197 51 _l
197 -36 180 -99 147 -139 _c
113 -179 60 -199 -13 -199 _c
-51 -199 _l
-51 -116 _l
-20 -116 _l
22 -116 53 -103 71 -79 _c
89 -55 98 -11 98 51 _c
98 729 _l
_cl}_d
/K{656 0 98 0 677 729 _sc
98 729 _m
197 729 _l
197 421 _l
524 729 _l
651 729 _l
289 389 _l
677 0 _l
547 0 _l
197 351 _l
197 0 _l
98 0 _l
98 729 _l
_cl}_d
/L{557 0 98 0 552 729 _sc
98 729 _m
197 729 _l
197 83 _l
552 83 _l
552 0 _l
98 0 _l
98 729 _l
_cl}_d
/M{863 0 98 0 765 729 _sc
98 729 _m
245 729 _l
431 233 _l
618 729 _l
765 729 _l
765 0 _l
669 0 _l
669 640 _l
481 140 _l
382 140 _l
194 640 _l
194 0 _l
98 0 _l
98 729 _l
_cl}_d
/N{748 0 98 0 650 729 _sc
98 729 _m
231 729 _l
554 119 _l
554 729 _l
650 729 _l
650 0 _l
517 0 _l
194 610 _l
194 0 _l
98 0 _l
98 729 _l
_cl}_d
/O{787 0 56 -13 731 742 _sc
394 662 _m
322 662 265 635 223 582 _c
181 528 160 456 160 364 _c
160 272 181 199 223 146 _c
265 92 322 66 394 66 _c
465 66 522 92 564 146 _c
606 199 627 272 627 364 _c
627 456 606 528 564 582 _c
522 635 465 662 394 662 _c
394 742 _m
496 742 577 707 639 639 _c
700 571 731 479 731 364 _c
731 248 700 157 639 89 _c
577 21 496 -13 394 -13 _c
291 -13 209 21 148 89 _c
86 157 56 248 56 364 _c
56 479 86 571 148 639 _c
209 707 291 742 394 742 _c
_cl}_d
/P{603 0 98 0 569 729 _sc
197 648 _m
197 374 _l
321 374 _l
367 374 402 385 427 409 _c
452 433 465 467 465 511 _c
465 555 452 588 427 612 _c
402 636 367 648 321 648 _c
197 648 _l
98 729 _m
321 729 _l
402 729 464 710 506 673 _c
548 636 569 582 569 511 _c
569 439 548 384 506 348 _c
464 311 402 293 321 293 _c
197 293 _l
197 0 _l
98 0 _l
98 729 _l
_cl}_d
/Q{{787 0 56 -128 731 742 _sc
394 662 _m
322 662 265 635 223 582 _c
181 528 160 456 160 364 _c
160 272 181 199 223 146 _c
265 92 322 66 394 66 _c
465 66 522 92 564 146 _c
606 199 627 272 627 364 _c
627 456 606 528 564 582 _c
522 635 465 662 394 662 _c
532 13 _m
662 -128 _l
543 -128 _l
435 -11 _l
424 -11 416 -12 410 -12 _c
404 -12 399 -13 394 -13 _c
291 -13 209 21 148 89 _c
}_e{86 157 56 248 56 364 _c
56 479 86 571 148 639 _c
209 707 291 742 394 742 _c
496 742 577 707 639 639 _c
700 571 731 479 731 364 _c
731 279 714 206 680 146 _c
646 86 596 41 532 13 _c
_cl}_e}_d
/R{{695 0 98 0 666 729 _sc
444 342 _m
465 334 486 319 506 296 _c
526 272 546 240 566 199 _c
666 0 _l
560 0 _l
467 187 _l
443 235 419 268 397 284 _c
374 300 343 308 304 308 _c
197 308 _l
197 0 _l
98 0 _l
98 729 _l
321 729 _l
404 729 466 711 507 677 _c
548 642 569 589 569 519 _c
569 473 558 434 537 404 _c
515 374 484 353 444 342 _c
197 648 _m
197 389 _l
321 389 _l
}_e{368 389 404 400 428 422 _c
452 444 465 476 465 519 _c
465 561 452 593 428 615 _c
404 637 368 648 321 648 _c
197 648 _l
_cl}_e}_d
/S{{635 0 66 -13 579 742 _sc
535 705 _m
535 609 _l
497 627 462 640 429 649 _c
395 657 363 662 333 662 _c
279 662 237 651 208 631 _c
179 610 165 580 165 542 _c
165 510 174 485 194 469 _c
213 452 250 439 304 429 _c
364 417 _l
437 403 491 378 526 343 _c
561 307 579 260 579 201 _c
579 130 555 77 508 41 _c
460 5 391 -13 300 -13 _c
265 -13 228 -9 189 -2 _c
}_e{150 5 110 16 69 32 _c
69 134 _l
109 111 148 94 186 83 _c
224 71 262 66 300 66 _c
356 66 399 77 430 99 _c
460 121 476 152 476 194 _c
476 230 465 258 443 278 _c
421 298 385 313 335 323 _c
275 335 _l
201 349 148 372 115 404 _c
82 435 66 478 66 534 _c
66 598 88 649 134 686 _c
179 723 242 742 322 742 _c
356 742 390 739 426 733 _c
461 727 497 717 535 705 _c
}_e{_cl}_e}_d
/T{611 0 -2 0 614 729 _sc
-2 729 _m
614 729 _l
614 646 _l
355 646 _l
355 0 _l
256 0 _l
256 646 _l
-2 646 _l
-2 729 _l
_cl}_d
/U{732 0 87 -13 645 729 _sc
87 729 _m
186 729 _l
186 286 _l
186 208 200 151 228 117 _c
256 83 302 66 366 66 _c
429 66 475 83 503 117 _c
531 151 546 208 546 286 _c
546 729 _l
645 729 _l
645 274 _l
645 178 621 107 574 59 _c
527 11 458 -13 366 -13 _c
274 -13 204 11 157 59 _c
110 107 87 178 87 274 _c
87 729 _l
_cl}_d
/V{684 0 8 0 676 729 _sc
286 0 _m
8 729 _l
111 729 _l
342 115 _l
573 729 _l
676 729 _l
398 0 _l
286 0 _l
_cl}_d
/W{989 0 33 0 956 729 _sc
33 729 _m
133 729 _l
286 113 _l
439 729 _l
550 729 _l
703 113 _l
856 729 _l
956 729 _l
773 0 _l
649 0 _l
495 633 _l
340 0 _l
216 0 _l
33 729 _l
_cl}_d
/X{685 0 30 0 654 729 _sc
63 729 _m
169 729 _l
350 458 _l
532 729 _l
638 729 _l
404 379 _l
654 0 _l
548 0 _l
343 310 _l
136 0 _l
30 0 _l
290 389 _l
63 729 _l
_cl}_d
/Y{611 0 -1 0 613 729 _sc
-1 729 _m
104 729 _l
306 429 _l
507 729 _l
613 729 _l
355 347 _l
355 0 _l
256 0 _l
256 347 _l
-1 729 _l
_cl}_d
/Z{685 0 45 0 640 729 _sc
56 729 _m
629 729 _l
629 654 _l
168 83 _l
640 83 _l
640 0 _l
45 0 _l
45 75 _l
506 646 _l
56 646 _l
56 729 _l
_cl}_d
/underscore{500 0 -9 -235 510 -165 _sc
510 -165 _m
510 -235 _l
-9 -235 _l
-9 -165 _l
510 -165 _l
_cl}_d
/a{{613 0 60 -13 522 560 _sc
343 275 _m
270 275 220 266 192 250 _c
164 233 150 205 150 165 _c
150 133 160 107 181 89 _c
202 70 231 61 267 61 _c
317 61 357 78 387 114 _c
417 149 432 196 432 255 _c
432 275 _l
343 275 _l
522 312 _m
522 0 _l
432 0 _l
432 83 _l
411 49 385 25 355 10 _c
325 -5 287 -13 243 -13 _c
187 -13 142 2 109 33 _c
76 64 60 106 60 159 _c
}_e{60 220 80 266 122 298 _c
163 329 224 345 306 345 _c
432 345 _l
432 354 _l
432 395 418 427 391 450 _c
364 472 326 484 277 484 _c
245 484 215 480 185 472 _c
155 464 127 453 100 439 _c
100 522 _l
132 534 164 544 195 550 _c
226 556 256 560 286 560 _c
365 560 424 539 463 498 _c
502 457 522 395 522 312 _c
_cl}_e}_d
/b{{635 0 91 -13 580 760 _sc
487 273 _m
487 339 473 390 446 428 _c
418 466 381 485 334 485 _c
286 485 249 466 222 428 _c
194 390 181 339 181 273 _c
181 207 194 155 222 117 _c
249 79 286 61 334 61 _c
381 61 418 79 446 117 _c
473 155 487 207 487 273 _c
181 464 _m
199 496 223 520 252 536 _c
281 552 316 560 356 560 _c
422 560 476 533 518 481 _c
559 428 580 359 580 273 _c
}_e{580 187 559 117 518 65 _c
476 13 422 -13 356 -13 _c
316 -13 281 -5 252 10 _c
223 25 199 49 181 82 _c
181 0 _l
91 0 _l
91 760 _l
181 760 _l
181 464 _l
_cl}_e}_d
/c{{550 0 55 -13 488 560 _sc
488 526 _m
488 442 _l
462 456 437 466 411 473 _c
385 480 360 484 334 484 _c
276 484 230 465 198 428 _c
166 391 150 339 150 273 _c
150 206 166 154 198 117 _c
230 80 276 62 334 62 _c
360 62 385 65 411 72 _c
437 79 462 90 488 104 _c
488 21 _l
462 9 436 0 410 -5 _c
383 -10 354 -13 324 -13 _c
242 -13 176 12 128 64 _c
}_e{79 115 55 185 55 273 _c
55 362 79 432 128 483 _c
177 534 244 560 330 560 _c
358 560 385 557 411 551 _c
437 545 463 537 488 526 _c
_cl}_e}_d
/d{{635 0 55 -13 544 760 _sc
454 464 _m
454 760 _l
544 760 _l
544 0 _l
454 0 _l
454 82 _l
435 49 411 25 382 10 _c
353 -5 319 -13 279 -13 _c
213 -13 159 13 117 65 _c
75 117 55 187 55 273 _c
55 359 75 428 117 481 _c
159 533 213 560 279 560 _c
319 560 353 552 382 536 _c
411 520 435 496 454 464 _c
148 273 _m
148 207 161 155 188 117 _c
215 79 253 61 301 61 _c
}_e{348 61 385 79 413 117 _c
440 155 454 207 454 273 _c
454 339 440 390 413 428 _c
385 466 348 485 301 485 _c
253 485 215 466 188 428 _c
161 390 148 339 148 273 _c
_cl}_e}_d
/e{{615 0 55 -13 562 560 _sc
562 296 _m
562 252 _l
149 252 _l
153 190 171 142 205 110 _c
238 78 284 62 344 62 _c
378 62 412 66 444 74 _c
476 82 509 95 541 113 _c
541 28 _l
509 14 476 3 442 -3 _c
408 -9 373 -13 339 -13 _c
251 -13 182 12 131 62 _c
80 112 55 181 55 268 _c
55 357 79 428 127 481 _c
175 533 241 560 323 560 _c
397 560 455 536 498 489 _c
}_e{540 441 562 377 562 296 _c
472 322 _m
471 371 457 410 431 440 _c
404 469 368 484 324 484 _c
274 484 234 469 204 441 _c
174 413 156 373 152 322 _c
472 322 _l
_cl}_e}_d
/f{352 0 23 0 371 760 _sc
371 760 _m
371 685 _l
285 685 _l
253 685 230 678 218 665 _c
205 652 199 629 199 595 _c
199 547 _l
347 547 _l
347 477 _l
199 477 _l
199 0 _l
109 0 _l
109 477 _l
23 477 _l
23 547 _l
109 547 _l
109 585 _l
109 645 123 690 151 718 _c
179 746 224 760 286 760 _c
371 760 _l
_cl}_d
/g{{635 0 55 -207 544 560 _sc
454 280 _m
454 344 440 395 414 431 _c
387 467 349 485 301 485 _c
253 485 215 467 188 431 _c
161 395 148 344 148 280 _c
148 215 161 165 188 129 _c
215 93 253 75 301 75 _c
349 75 387 93 414 129 _c
440 165 454 215 454 280 _c
544 68 _m
544 -24 523 -93 482 -139 _c
440 -184 377 -207 292 -207 _c
260 -207 231 -204 203 -200 _c
175 -195 147 -188 121 -178 _c
}_e{121 -91 _l
147 -105 173 -115 199 -122 _c
225 -129 251 -133 278 -133 _c
336 -133 380 -117 410 -87 _c
439 -56 454 -10 454 52 _c
454 96 _l
435 64 411 40 382 24 _c
353 8 319 0 279 0 _c
211 0 157 25 116 76 _c
75 127 55 195 55 280 _c
55 364 75 432 116 483 _c
157 534 211 560 279 560 _c
319 560 353 552 382 536 _c
411 520 435 496 454 464 _c
454 547 _l
544 547 _l
}_e{544 68 _l
_cl}_e}_d
/h{634 0 91 0 549 760 _sc
549 330 _m
549 0 _l
459 0 _l
459 327 _l
459 379 448 417 428 443 _c
408 469 378 482 338 482 _c
289 482 251 466 223 435 _c
195 404 181 362 181 309 _c
181 0 _l
91 0 _l
91 760 _l
181 760 _l
181 462 _l
202 494 227 519 257 535 _c
286 551 320 560 358 560 _c
420 560 468 540 500 501 _c
532 462 549 405 549 330 _c
_cl}_d
/i{278 0 94 0 184 760 _sc
94 547 _m
184 547 _l
184 0 _l
94 0 _l
94 547 _l
94 760 _m
184 760 _l
184 646 _l
94 646 _l
94 760 _l
_cl}_d
/j{278 0 -17 -207 184 760 _sc
94 547 _m
184 547 _l
184 -9 _l
184 -78 170 -128 144 -160 _c
117 -191 74 -207 16 -207 _c
-17 -207 _l
-17 -131 _l
6 -131 _l
40 -131 63 -123 75 -107 _c
87 -91 94 -58 94 -9 _c
94 547 _l
94 760 _m
184 760 _l
184 646 _l
94 646 _l
94 760 _l
_cl}_d
/k{579 0 91 0 576 760 _sc
91 760 _m
181 760 _l
181 311 _l
449 547 _l
564 547 _l
274 291 _l
576 0 _l
459 0 _l
181 267 _l
181 0 _l
91 0 _l
91 760 _l
_cl}_d
/l{278 0 94 0 184 760 _sc
94 760 _m
184 760 _l
184 0 _l
94 0 _l
94 760 _l
_cl}_d
/m{{974 0 91 0 889 560 _sc
520 442 _m
542 482 569 511 600 531 _c
631 550 668 560 711 560 _c
767 560 811 540 842 500 _c
873 460 889 403 889 330 _c
889 0 _l
799 0 _l
799 327 _l
799 379 789 418 771 444 _c
752 469 724 482 686 482 _c
639 482 602 466 575 435 _c
548 404 535 362 535 309 _c
535 0 _l
445 0 _l
445 327 _l
445 379 435 418 417 444 _c
398 469 369 482 331 482 _c
}_e{285 482 248 466 221 435 _c
194 404 181 362 181 309 _c
181 0 _l
91 0 _l
91 547 _l
181 547 _l
181 462 _l
201 495 226 520 255 536 _c
283 552 317 560 357 560 _c
397 560 430 550 458 530 _c
486 510 506 480 520 442 _c
_cl}_e}_d
/n{634 0 91 0 549 560 _sc
549 330 _m
549 0 _l
459 0 _l
459 327 _l
459 379 448 417 428 443 _c
408 469 378 482 338 482 _c
289 482 251 466 223 435 _c
195 404 181 362 181 309 _c
181 0 _l
91 0 _l
91 547 _l
181 547 _l
181 462 _l
202 494 227 519 257 535 _c
286 551 320 560 358 560 _c
420 560 468 540 500 501 _c
532 462 549 405 549 330 _c
_cl}_d
/o{612 0 55 -13 557 560 _sc
306 484 _m
258 484 220 465 192 427 _c
164 389 150 338 150 273 _c
150 207 163 156 191 118 _c
219 80 257 62 306 62 _c
354 62 392 80 420 118 _c
448 156 462 207 462 273 _c
462 337 448 389 420 427 _c
392 465 354 484 306 484 _c
306 560 _m
384 560 445 534 490 484 _c
534 433 557 363 557 273 _c
557 183 534 113 490 63 _c
445 12 384 -13 306 -13 _c
227 -13 165 12 121 63 _c
77 113 55 183 55 273 _c
55 363 77 433 121 484 _c
165 534 227 560 306 560 _c
_cl}_d
/p{{635 0 91 -207 580 560 _sc
181 82 _m
181 -207 _l
91 -207 _l
91 547 _l
181 547 _l
181 464 _l
199 496 223 520 252 536 _c
281 552 316 560 356 560 _c
422 560 476 533 518 481 _c
559 428 580 359 580 273 _c
580 187 559 117 518 65 _c
476 13 422 -13 356 -13 _c
316 -13 281 -5 252 10 _c
223 25 199 49 181 82 _c
487 273 _m
487 339 473 390 446 428 _c
418 466 381 485 334 485 _c
}_e{286 485 249 466 222 428 _c
194 390 181 339 181 273 _c
181 207 194 155 222 117 _c
249 79 286 61 334 61 _c
381 61 418 79 446 117 _c
473 155 487 207 487 273 _c
_cl}_e}_d
/q{{635 0 55 -207 544 560 _sc
148 273 _m
148 207 161 155 188 117 _c
215 79 253 61 301 61 _c
348 61 385 79 413 117 _c
440 155 454 207 454 273 _c
454 339 440 390 413 428 _c
385 466 348 485 301 485 _c
253 485 215 466 188 428 _c
161 390 148 339 148 273 _c
454 82 _m
435 49 411 25 382 10 _c
353 -5 319 -13 279 -13 _c
213 -13 159 13 117 65 _c
75 117 55 187 55 273 _c
}_e{55 359 75 428 117 481 _c
159 533 213 560 279 560 _c
319 560 353 552 382 536 _c
411 520 435 496 454 464 _c
454 547 _l
544 547 _l
544 -207 _l
454 -207 _l
454 82 _l
_cl}_e}_d
/r{411 0 91 0 411 560 _sc
411 463 _m
401 469 390 473 378 476 _c
366 478 353 480 339 480 _c
288 480 249 463 222 430 _c
194 397 181 350 181 288 _c
181 0 _l
91 0 _l
91 547 _l
181 547 _l
181 462 _l
199 495 224 520 254 536 _c
284 552 321 560 365 560 _c
371 560 378 559 386 559 _c
393 558 401 557 411 555 _c
411 463 _l
_cl}_d
/s{{521 0 54 -13 472 560 _sc
443 531 _m
443 446 _l
417 458 391 468 364 475 _c
336 481 308 485 279 485 _c
234 485 200 478 178 464 _c
156 450 145 430 145 403 _c
145 382 153 366 169 354 _c
185 342 217 330 265 320 _c
296 313 _l
360 299 405 279 432 255 _c
458 230 472 195 472 151 _c
472 100 452 60 412 31 _c
372 1 316 -13 246 -13 _c
216 -13 186 -10 154 -5 _c
}_e{122 0 89 8 54 20 _c
54 113 _l
87 95 120 82 152 74 _c
184 65 216 61 248 61 _c
290 61 323 68 346 82 _c
368 96 380 117 380 144 _c
380 168 371 187 355 200 _c
339 213 303 226 247 238 _c
216 245 _l
160 257 119 275 95 299 _c
70 323 58 356 58 399 _c
58 450 76 490 112 518 _c
148 546 200 560 268 560 _c
301 560 332 557 362 552 _c
391 547 418 540 443 531 _c
}_e{_cl}_e}_d
/t{392 0 27 0 368 702 _sc
183 702 _m
183 547 _l
368 547 _l
368 477 _l
183 477 _l
183 180 _l
183 135 189 106 201 94 _c
213 81 238 75 276 75 _c
368 75 _l
368 0 _l
276 0 _l
206 0 158 13 132 39 _c
106 65 93 112 93 180 _c
93 477 _l
27 477 _l
27 547 _l
93 547 _l
93 702 _l
183 702 _l
_cl}_d
/u{634 0 85 -13 543 560 _sc
85 216 _m
85 547 _l
175 547 _l
175 219 _l
175 167 185 129 205 103 _c
225 77 255 64 296 64 _c
344 64 383 79 411 110 _c
439 141 453 183 453 237 _c
453 547 _l
543 547 _l
543 0 _l
453 0 _l
453 84 _l
431 50 405 26 377 10 _c
348 -5 315 -13 277 -13 _c
214 -13 166 6 134 45 _c
101 83 85 140 85 216 _c
311 560 _m
311 560 _l
_cl}_d
/v{592 0 30 0 562 547 _sc
30 547 _m
125 547 _l
296 88 _l
467 547 _l
562 547 _l
357 0 _l
235 0 _l
30 547 _l
_cl}_d
/w{818 0 42 0 776 547 _sc
42 547 _m
132 547 _l
244 120 _l
356 547 _l
462 547 _l
574 120 _l
686 547 _l
776 547 _l
633 0 _l
527 0 _l
409 448 _l
291 0 _l
185 0 _l
42 547 _l
_cl}_d
/x{592 0 29 0 559 547 _sc
549 547 _m
351 281 _l
559 0 _l
453 0 _l
294 215 _l
135 0 _l
29 0 _l
241 286 _l
47 547 _l
153 547 _l
298 352 _l
443 547 _l
549 547 _l
_cl}_d
/y{592 0 30 -207 562 547 _sc
322 -50 _m
296 -114 271 -157 247 -177 _c
223 -197 191 -207 151 -207 _c
79 -207 _l
79 -132 _l
132 -132 _l
156 -132 175 -126 189 -114 _c
203 -102 218 -75 235 -31 _c
251 9 _l
30 547 _l
125 547 _l
296 119 _l
467 547 _l
562 547 _l
322 -50 _l
_cl}_d
/z{525 0 43 0 482 547 _sc
55 547 _m
482 547 _l
482 465 _l
144 72 _l
482 72 _l
482 0 _l
43 0 _l
43 82 _l
381 475 _l
55 475 _l
55 547 _l
_cl}_d
end readonly def

/BuildGlyph
 {exch begin
 CharStrings exch
 2 copy known not{pop /.notdef}if
 true 3 1 roll get exec
 end}_d

/BuildChar {
 1 index /Encoding get exch get
 1 index /BuildGlyph get exec
}_d

FontName currentdict end definefont pop
end
%%EndProlog
mpldict begin
-54 108 translate
720 576 0 0 clipbox
gsave
0 0 m
720 0 l
720 576 l
0 576 l
cl
grestore
gsave
49.175 203.9485 m
670.825 203.9485 l
670.825 554.2 l
49.175 554.2 l
cl
1.000 setgray
fill
grestore
gsave
621.6 350.3 49.17 203.9 clipbox
75.077083 203.947845 m
126.88125 203.947845 l
126.88125 203.947845 l
75.077083 203.947845 l
cl
0.192 0.510 0.741 setrgbcolor
fill
grestore
gsave
621.6 350.3 49.17 203.9 clipbox
178.685417 203.947845 m
230.489583 203.947845 l
230.489583 203.947845 l
178.685417 203.947845 l
cl
0.192 0.510 0.741 setrgbcolor
fill
grestore
gsave
621.6 350.3 49.17 203.9 clipbox
282.29375 203.947845 m
334.097917 203.947845 l
334.097917 203.947845 l
282.29375 203.947845 l
cl
0.192 0.510 0.741 setrgbcolor
fill
grestore
gsave
621.6 350.3 49.17 203.9 clipbox
385.902083 203.947845 m
437.70625 203.947845 l
437.70625 209.064302 l
385.902083 209.064302 l
cl
0.192 0.510 0.741 setrgbcolor
fill
grestore
gsave
621.6 350.3 49.17 203.9 clipbox
489.510417 203.947845 m
541.314583 203.947845 l
541.314583 242.126141 l
489.510417 242.126141 l
cl
0.192 0.510 0.741 setrgbcolor
fill
grestore
gsave
621.6 350.3 49.17 203.9 clipbox
593.11875 203.947845 m
644.922917 203.947845 l
644.922917 203.9485 l
593.11875 203.9485 l
cl
0.192 0.510 0.741 setrgbcolor
fill
grestore
gsave
621.6 350.3 49.17 203.9 clipbox
75.077083 203.947845 m
126.88125 203.947845 l
126.88125 203.947845 l
75.077083 203.947845 l
cl
0.420 0.682 0.839 setrgbcolor
fill
grestore
gsave
621.6 350.3 49.17 203.9 clipbox
178.685417 203.947845 m
230.489583 203.947845 l
230.489583 237.276074 l
178.685417 237.276074 l
cl
0.420 0.682 0.839 setrgbcolor
fill
grestore
gsave
621.6 350.3 49.17 203.9 clipbox
282.29375 203.947845 m
334.097917 203.947845 l
334.097917 203.947845 l
282.29375 203.947845 l
cl
0.420 0.682 0.839 setrgbcolor
fill
grestore
gsave
621.6 350.3 49.17 203.9 clipbox
385.902083 203.947845 m
437.70625 203.947845 l
437.70625 203.947845 l
385.902083 203.947845 l
cl
0.420 0.682 0.839 setrgbcolor
fill
grestore
gsave
621.6 350.3 49.17 203.9 clipbox
489.510417 203.947845 m
541.314583 203.947845 l
541.314583 203.947845 l
489.510417 203.947845 l
cl
0.420 0.682 0.839 setrgbcolor
fill
grestore
gsave
621.6 350.3 49.17 203.9 clipbox
593.11875 203.947845 m
644.922917 203.947845 l
644.922917 203.947845 l
593.11875 203.947845 l
cl
0.420 0.682 0.839 setrgbcolor
fill
grestore
gsave
621.6 350.3 49.17 203.9 clipbox
75.077083 203.947845 m
126.88125 203.947845 l
126.88125 203.947845 l
75.077083 203.947845 l
cl
0.620 0.792 0.882 setrgbcolor
fill
grestore
gsave
621.6 350.3 49.17 203.9 clipbox
178.685417 203.947845 m
230.489583 203.947845 l
230.489583 203.947845 l
178.685417 203.947845 l
cl
0.620 0.792 0.882 setrgbcolor
fill
grestore
gsave
621.6 350.3 49.17 203.9 clipbox
282.29375 203.947845 m
334.097917 203.947845 l
334.097917 236.990433 l
282.29375 236.990433 l
cl
0.620 0.792 0.882 setrgbcolor
fill
grestore
gsave
621.6 350.3 49.17 203.9 clipbox
385.902083 203.947845 m
437.70625 203.947845 l
437.70625 203.947845 l
385.902083 203.947845 l
cl
0.620 0.792 0.882 setrgbcolor
fill
grestore
gsave
621.6 350.3 49.17 203.9 clipbox
489.510417 203.947845 m
541.314583 203.947845 l
541.314583 203.947845 l
489.510417 203.947845 l
cl
0.620 0.792 0.882 setrgbcolor
fill
grestore
gsave
621.6 350.3 49.17 203.9 clipbox
593.11875 203.947845 m
644.922917 203.947845 l
644.922917 203.947845 l
593.11875 203.947845 l
cl
0.620 0.792 0.882 setrgbcolor
fill
grestore
gsave
621.6 350.3 49.17 203.9 clipbox
75.077083 203.947845 m
126.88125 203.947845 l
126.88125 203.947845 l
75.077083 203.947845 l
cl
0.776 0.859 0.937 setrgbcolor
fill
grestore
gsave
621.6 350.3 49.17 203.9 clipbox
178.685417 203.947845 m
230.489583 203.947845 l
230.489583 203.947845 l
178.685417 203.947845 l
cl
0.776 0.859 0.937 setrgbcolor
fill
grestore
gsave
621.6 350.3 49.17 203.9 clipbox
282.29375 236.990433 m
334.097917 236.990433 l
334.097917 290.183473 l
282.29375 290.183473 l
cl
0.776 0.859 0.937 setrgbcolor
fill
grestore
gsave
621.6 350.3 49.17 203.9 clipbox
385.902083 203.947845 m
437.70625 203.947845 l
437.70625 203.947845 l
385.902083 203.947845 l
cl
0.776 0.859 0.937 setrgbcolor
fill
grestore
gsave
621.6 350.3 49.17 203.9 clipbox
489.510417 203.947845 m
541.314583 203.947845 l
541.314583 203.947845 l
489.510417 203.947845 l
cl
0.776 0.859 0.937 setrgbcolor
fill
grestore
gsave
621.6 350.3 49.17 203.9 clipbox
593.11875 203.947845 m
644.922917 203.947845 l
644.922917 203.947845 l
593.11875 203.947845 l
cl
0.776 0.859 0.937 setrgbcolor
fill
grestore
gsave
621.6 350.3 49.17 203.9 clipbox
75.077083 203.947845 m
126.88125 203.947845 l
126.88125 203.947845 l
75.077083 203.947845 l
cl
0.902 0.333 0.051 setrgbcolor
fill
grestore
gsave
621.6 350.3 49.17 203.9 clipbox
178.685417 203.947845 m
230.489583 203.947845 l
230.489583 203.947845 l
178.685417 203.947845 l
cl
0.902 0.333 0.051 setrgbcolor
fill
grestore
gsave
621.6 350.3 49.17 203.9 clipbox
282.29375 203.947845 m
334.097917 203.947845 l
334.097917 203.947845 l
282.29375 203.947845 l
cl
0.902 0.333 0.051 setrgbcolor
fill
grestore
gsave
621.6 350.3 49.17 203.9 clipbox
385.902083 209.064302 m
437.70625 209.064302 l
437.70625 276.026763 l
385.902083 276.026763 l
cl
0.902 0.333 0.051 setrgbcolor
fill
grestore
gsave
621.6 350.3 49.17 203.9 clipbox
489.510417 242.126141 m
541.314583 242.126141 l
541.314583 242.127602 l
489.510417 242.127602 l
cl
0.902 0.333 0.051 setrgbcolor
fill
grestore
gsave
621.6 350.3 49.17 203.9 clipbox
593.11875 203.947845 m
644.922917 203.947845 l
644.922917 203.947845 l
593.11875 203.947845 l
cl
0.902 0.333 0.051 setrgbcolor
fill
grestore
gsave
621.6 350.3 49.17 203.9 clipbox
75.077083 203.947845 m
126.88125 203.947845 l
126.88125 203.947845 l
75.077083 203.947845 l
cl
0.992 0.553 0.235 setrgbcolor
fill
grestore
gsave
621.6 350.3 49.17 203.9 clipbox
178.685417 203.947845 m
230.489583 203.947845 l
230.489583 203.947845 l
178.685417 203.947845 l
cl
0.992 0.553 0.235 setrgbcolor
fill
grestore
gsave
621.6 350.3 49.17 203.9 clipbox
282.29375 203.947845 m
334.097917 203.947845 l
334.097917 203.947845 l
282.29375 203.947845 l
cl
0.992 0.553 0.235 setrgbcolor
fill
grestore
gsave
621.6 350.3 49.17 203.9 clipbox
385.902083 276.026763 m
437.70625 276.026763 l
437.70625 308.379133 l
385.902083 308.379133 l
cl
0.992 0.553 0.235 setrgbcolor
fill
grestore
gsave
621.6 350.3 49.17 203.9 clipbox
489.510417 203.947845 m
541.314583 203.947845 l
541.314583 203.947845 l
489.510417 203.947845 l
cl
0.992 0.553 0.235 setrgbcolor
fill
grestore
gsave
621.6 350.3 49.17 203.9 clipbox
593.11875 203.9485 m
644.922917 203.9485 l
644.922917 203.97521 l
593.11875 203.97521 l
cl
0.992 0.553 0.235 setrgbcolor
fill
grestore
gsave
621.6 350.3 49.17 203.9 clipbox
75.077083 203.947845 m
126.88125 203.947845 l
126.88125 203.947845 l
75.077083 203.947845 l
cl
0.992 0.682 0.420 setrgbcolor
fill
grestore
gsave
621.6 350.3 49.17 203.9 clipbox
178.685417 203.947845 m
230.489583 203.947845 l
230.489583 203.947845 l
178.685417 203.947845 l
cl
0.992 0.682 0.420 setrgbcolor
fill
grestore
gsave
621.6 350.3 49.17 203.9 clipbox
282.29375 203.947845 m
334.097917 203.947845 l
334.097917 203.947845 l
282.29375 203.947845 l
cl
0.992 0.682 0.420 setrgbcolor
fill
grestore
gsave
621.6 350.3 49.17 203.9 clipbox
385.902083 308.379133 m
437.70625 308.379133 l
437.70625 347.755179 l
385.902083 347.755179 l
cl
0.992 0.682 0.420 setrgbcolor
fill
grestore
gsave
621.6 350.3 49.17 203.9 clipbox
489.510417 203.947845 m
541.314583 203.947845 l
541.314583 203.947845 l
489.510417 203.947845 l
cl
0.992 0.682 0.420 setrgbcolor
fill
grestore
gsave
621.6 350.3 49.17 203.9 clipbox
593.11875 203.947845 m
644.922917 203.947845 l
644.922917 203.947845 l
593.11875 203.947845 l
cl
0.992 0.682 0.420 setrgbcolor
fill
grestore
gsave
621.6 350.3 49.17 203.9 clipbox
75.077083 203.947845 m
126.88125 203.947845 l
126.88125 203.947845 l
75.077083 203.947845 l
cl
0.992 0.816 0.635 setrgbcolor
fill
grestore
gsave
621.6 350.3 49.17 203.9 clipbox
178.685417 203.947845 m
230.489583 203.947845 l
230.489583 203.947845 l
178.685417 203.947845 l
cl
0.992 0.816 0.635 setrgbcolor
fill
grestore
gsave
621.6 350.3 49.17 203.9 clipbox
282.29375 203.947845 m
334.097917 203.947845 l
334.097917 203.947845 l
282.29375 203.947845 l
cl
0.992 0.816 0.635 setrgbcolor
fill
grestore
gsave
621.6 350.3 49.17 203.9 clipbox
385.902083 203.947845 m
437.70625 203.947845 l
437.70625 203.947845 l
385.902083 203.947845 l
cl
0.992 0.816 0.635 setrgbcolor
fill
grestore
gsave
621.6 350.3 49.17 203.9 clipbox
489.510417 242.127602 m
541.314583 242.127602 l
541.314583 279.904145 l
489.510417 279.904145 l
cl
0.992 0.816 0.635 setrgbcolor
fill
grestore
gsave
621.6 350.3 49.17 203.9 clipbox
593.11875 203.947845 m
644.922917 203.947845 l
644.922917 203.947845 l
593.11875 203.947845 l
cl
0.992 0.816 0.635 setrgbcolor
fill
grestore
gsave
621.6 350.3 49.17 203.9 clipbox
75.077083 203.947845 m
126.88125 203.947845 l
126.88125 203.947845 l
75.077083 203.947845 l
cl
0.192 0.639 0.329 setrgbcolor
fill
grestore
gsave
621.6 350.3 49.17 203.9 clipbox
178.685417 203.947845 m
230.489583 203.947845 l
230.489583 203.947845 l
178.685417 203.947845 l
cl
0.192 0.639 0.329 setrgbcolor
fill
grestore
gsave
621.6 350.3 49.17 203.9 clipbox
282.29375 203.947845 m
334.097917 203.947845 l
334.097917 203.947845 l
282.29375 203.947845 l
cl
0.192 0.639 0.329 setrgbcolor
fill
grestore
gsave
621.6 350.3 49.17 203.9 clipbox
385.902083 203.947845 m
437.70625 203.947845 l
437.70625 203.947845 l
385.902083 203.947845 l
cl
0.192 0.639 0.329 setrgbcolor
fill
grestore
gsave
621.6 350.3 49.17 203.9 clipbox
489.510417 279.904145 m
541.314583 279.904145 l
541.314583 335.710244 l
489.510417 335.710244 l
cl
0.192 0.639 0.329 setrgbcolor
fill
grestore
gsave
621.6 350.3 49.17 203.9 clipbox
593.11875 203.97521 m
644.922917 203.97521 l
644.922917 203.994108 l
593.11875 203.994108 l
cl
0.192 0.639 0.329 setrgbcolor
fill
grestore
gsave
621.6 350.3 49.17 203.9 clipbox
75.077083 203.947845 m
126.88125 203.947845 l
126.88125 203.947845 l
75.077083 203.947845 l
cl
0.455 0.769 0.463 setrgbcolor
fill
grestore
gsave
621.6 350.3 49.17 203.9 clipbox
178.685417 203.947845 m
230.489583 203.947845 l
230.489583 203.947845 l
178.685417 203.947845 l
cl
0.455 0.769 0.463 setrgbcolor
fill
grestore
gsave
621.6 350.3 49.17 203.9 clipbox
282.29375 203.947845 m
334.097917 203.947845 l
334.097917 203.947845 l
282.29375 203.947845 l
cl
0.455 0.769 0.463 setrgbcolor
fill
grestore
gsave
621.6 350.3 49.17 203.9 clipbox
385.902083 347.755179 m
437.70625 347.755179 l
437.70625 379.346628 l
385.902083 379.346628 l
cl
0.455 0.769 0.463 setrgbcolor
fill
grestore
gsave
621.6 350.3 49.17 203.9 clipbox
489.510417 203.947845 m
541.314583 203.947845 l
541.314583 203.947845 l
489.510417 203.947845 l
cl
0.455 0.769 0.463 setrgbcolor
fill
grestore
gsave
621.6 350.3 49.17 203.9 clipbox
593.11875 203.947845 m
644.922917 203.947845 l
644.922917 203.947845 l
593.11875 203.947845 l
cl
0.455 0.769 0.463 setrgbcolor
fill
grestore
gsave
621.6 350.3 49.17 203.9 clipbox
75.077083 203.947845 m
126.88125 203.947845 l
126.88125 203.947845 l
75.077083 203.947845 l
cl
0.631 0.851 0.608 setrgbcolor
fill
grestore
gsave
621.6 350.3 49.17 203.9 clipbox
178.685417 203.947845 m
230.489583 203.947845 l
230.489583 203.947845 l
178.685417 203.947845 l
cl
0.631 0.851 0.608 setrgbcolor
fill
grestore
gsave
621.6 350.3 49.17 203.9 clipbox
282.29375 203.947845 m
334.097917 203.947845 l
334.097917 203.947845 l
282.29375 203.947845 l
cl
0.631 0.851 0.608 setrgbcolor
fill
grestore
gsave
621.6 350.3 49.17 203.9 clipbox
385.902083 203.947845 m
437.70625 203.947845 l
437.70625 203.947845 l
385.902083 203.947845 l
cl
0.631 0.851 0.608 setrgbcolor
fill
grestore
gsave
621.6 350.3 49.17 203.9 clipbox
489.510417 335.710244 m
541.314583 335.710244 l
541.314583 375.755039 l
489.510417 375.755039 l
cl
0.631 0.851 0.608 setrgbcolor
fill
grestore
gsave
621.6 350.3 49.17 203.9 clipbox
593.11875 203.947845 m
644.922917 203.947845 l
644.922917 203.947845 l
593.11875 203.947845 l
cl
0.631 0.851 0.608 setrgbcolor
fill
grestore
gsave
621.6 350.3 49.17 203.9 clipbox
75.077083 203.947845 m
126.88125 203.947845 l
126.88125 203.947845 l
75.077083 203.947845 l
cl
0.780 0.914 0.753 setrgbcolor
fill
grestore
gsave
621.6 350.3 49.17 203.9 clipbox
178.685417 237.276074 m
230.489583 237.276074 l
230.489583 325.363285 l
178.685417 325.363285 l
cl
0.780 0.914 0.753 setrgbcolor
fill
grestore
gsave
621.6 350.3 49.17 203.9 clipbox
282.29375 290.183473 m
334.097917 290.183473 l
334.097917 302.881585 l
282.29375 302.881585 l
cl
0.780 0.914 0.753 setrgbcolor
fill
grestore
gsave
621.6 350.3 49.17 203.9 clipbox
385.902083 379.346628 m
437.70625 379.346628 l
437.70625 379.400299 l
385.902083 379.400299 l
cl
0.780 0.914 0.753 setrgbcolor
fill
grestore
gsave
621.6 350.3 49.17 203.9 clipbox
489.510417 203.947845 m
541.314583 203.947845 l
541.314583 203.947845 l
489.510417 203.947845 l
cl
0.780 0.914 0.753 setrgbcolor
fill
grestore
gsave
621.6 350.3 49.17 203.9 clipbox
593.11875 203.947845 m
644.922917 203.947845 l
644.922917 203.947845 l
593.11875 203.947845 l
cl
0.780 0.914 0.753 setrgbcolor
fill
grestore
gsave
621.6 350.3 49.17 203.9 clipbox
75.077083 203.947845 m
126.88125 203.947845 l
126.88125 203.947845 l
75.077083 203.947845 l
cl
0.459 0.420 0.694 setrgbcolor
fill
grestore
gsave
621.6 350.3 49.17 203.9 clipbox
178.685417 203.947845 m
230.489583 203.947845 l
230.489583 203.947845 l
178.685417 203.947845 l
cl
0.459 0.420 0.694 setrgbcolor
fill
grestore
gsave
621.6 350.3 49.17 203.9 clipbox
282.29375 203.947845 m
334.097917 203.947845 l
334.097917 203.947845 l
282.29375 203.947845 l
cl
0.459 0.420 0.694 setrgbcolor
fill
grestore
gsave
621.6 350.3 49.17 203.9 clipbox
385.902083 203.947845 m
437.70625 203.947845 l
437.70625 203.947845 l
385.902083 203.947845 l
cl
0.459 0.420 0.694 setrgbcolor
fill
grestore
gsave
621.6 350.3 49.17 203.9 clipbox
489.510417 203.947845 m
541.314583 203.947845 l
541.314583 203.947845 l
489.510417 203.947845 l
cl
0.459 0.420 0.694 setrgbcolor
fill
grestore
gsave
621.6 350.3 49.17 203.9 clipbox
593.11875 203.994108 m
644.922917 203.994108 l
644.922917 244.068888 l
593.11875 244.068888 l
cl
0.459 0.420 0.694 setrgbcolor
fill
grestore
gsave
621.6 350.3 49.17 203.9 clipbox
75.077083 203.947845 m
126.88125 203.947845 l
126.88125 203.947845 l
75.077083 203.947845 l
cl
0.620 0.604 0.784 setrgbcolor
fill
grestore
gsave
621.6 350.3 49.17 203.9 clipbox
178.685417 203.947845 m
230.489583 203.947845 l
230.489583 203.947845 l
178.685417 203.947845 l
cl
0.620 0.604 0.784 setrgbcolor
fill
grestore
gsave
621.6 350.3 49.17 203.9 clipbox
282.29375 203.947845 m
334.097917 203.947845 l
334.097917 203.947845 l
282.29375 203.947845 l
cl
0.620 0.604 0.784 setrgbcolor
fill
grestore
gsave
621.6 350.3 49.17 203.9 clipbox
385.902083 379.400299 m
437.70625 379.400299 l
437.70625 411.860365 l
385.902083 411.860365 l
cl
0.620 0.604 0.784 setrgbcolor
fill
grestore
gsave
621.6 350.3 49.17 203.9 clipbox
489.510417 375.755039 m
541.314583 375.755039 l
541.314583 375.755492 l
489.510417 375.755492 l
cl
0.620 0.604 0.784 setrgbcolor
fill
grestore
gsave
621.6 350.3 49.17 203.9 clipbox
593.11875 203.947845 m
644.922917 203.947845 l
644.922917 203.947845 l
593.11875 203.947845 l
cl
0.620 0.604 0.784 setrgbcolor
fill
grestore
gsave
621.6 350.3 49.17 203.9 clipbox
75.077083 203.947845 m
126.88125 203.947845 l
126.88125 241.236609 l
75.077083 241.236609 l
cl
0.737 0.741 0.863 setrgbcolor
fill
grestore
gsave
621.6 350.3 49.17 203.9 clipbox
178.685417 203.947845 m
230.489583 203.947845 l
230.489583 203.947845 l
178.685417 203.947845 l
cl
0.737 0.741 0.863 setrgbcolor
fill
grestore
gsave
621.6 350.3 49.17 203.9 clipbox
282.29375 203.947845 m
334.097917 203.947845 l
334.097917 203.947845 l
282.29375 203.947845 l
cl
0.737 0.741 0.863 setrgbcolor
fill
grestore
gsave
621.6 350.3 49.17 203.9 clipbox
385.902083 203.947845 m
437.70625 203.947845 l
437.70625 203.947845 l
385.902083 203.947845 l
cl
0.737 0.741 0.863 setrgbcolor
fill
grestore
gsave
621.6 350.3 49.17 203.9 clipbox
489.510417 203.947845 m
541.314583 203.947845 l
541.314583 203.947845 l
489.510417 203.947845 l
cl
0.737 0.741 0.863 setrgbcolor
fill
grestore
gsave
621.6 350.3 49.17 203.9 clipbox
593.11875 203.947845 m
644.922917 203.947845 l
644.922917 203.947845 l
593.11875 203.947845 l
cl
0.737 0.741 0.863 setrgbcolor
fill
grestore
gsave
621.6 350.3 49.17 203.9 clipbox
75.077083 203.947845 m
126.88125 203.947845 l
126.88125 203.947845 l
75.077083 203.947845 l
cl
0.855 0.855 0.922 setrgbcolor
fill
grestore
gsave
621.6 350.3 49.17 203.9 clipbox
178.685417 203.947845 m
230.489583 203.947845 l
230.489583 203.947845 l
178.685417 203.947845 l
cl
0.855 0.855 0.922 setrgbcolor
fill
grestore
gsave
621.6 350.3 49.17 203.9 clipbox
282.29375 203.947845 m
334.097917 203.947845 l
334.097917 203.947845 l
282.29375 203.947845 l
cl
0.855 0.855 0.922 setrgbcolor
fill
grestore
gsave
621.6 350.3 49.17 203.9 clipbox
385.902083 203.947845 m
437.70625 203.947845 l
437.70625 203.947845 l
385.902083 203.947845 l
cl
0.855 0.855 0.922 setrgbcolor
fill
grestore
gsave
621.6 350.3 49.17 203.9 clipbox
489.510417 375.755492 m
541.314583 375.755492 l
541.314583 431.389793 l
489.510417 431.389793 l
cl
0.855 0.855 0.922 setrgbcolor
fill
grestore
gsave
621.6 350.3 49.17 203.9 clipbox
593.11875 244.068888 m
644.922917 244.068888 l
644.922917 244.688552 l
593.11875 244.688552 l
cl
0.855 0.855 0.922 setrgbcolor
fill
grestore
gsave
621.6 350.3 49.17 203.9 clipbox
75.077083 203.947845 m
126.88125 203.947845 l
126.88125 203.947845 l
75.077083 203.947845 l
cl
0.388 setgray
fill
grestore
gsave
621.6 350.3 49.17 203.9 clipbox
178.685417 203.947845 m
230.489583 203.947845 l
230.489583 203.947845 l
178.685417 203.947845 l
cl
0.388 setgray
fill
grestore
gsave
621.6 350.3 49.17 203.9 clipbox
282.29375 203.947845 m
334.097917 203.947845 l
334.097917 203.947845 l
282.29375 203.947845 l
cl
0.388 setgray
fill
grestore
gsave
621.6 350.3 49.17 203.9 clipbox
385.902083 203.947845 m
437.70625 203.947845 l
437.70625 203.947845 l
385.902083 203.947845 l
cl
0.388 setgray
fill
grestore
gsave
621.6 350.3 49.17 203.9 clipbox
489.510417 431.389793 m
541.314583 431.389793 l
541.314583 500.479449 l
489.510417 500.479449 l
cl
0.388 setgray
fill
grestore
gsave
621.6 350.3 49.17 203.9 clipbox
593.11875 203.947845 m
644.922917 203.947845 l
644.922917 203.947845 l
593.11875 203.947845 l
cl
0.388 setgray
fill
grestore
gsave
621.6 350.3 49.17 203.9 clipbox
75.077083 203.947845 m
126.88125 203.947845 l
126.88125 203.947845 l
75.077083 203.947845 l
cl
0.588 setgray
fill
grestore
gsave
621.6 350.3 49.17 203.9 clipbox
178.685417 325.363285 m
230.489583 325.363285 l
230.489583 358.44125 l
178.685417 358.44125 l
cl
0.588 setgray
fill
grestore
gsave
621.6 350.3 49.17 203.9 clipbox
282.29375 302.881585 m
334.097917 302.881585 l
334.097917 302.895998 l
282.29375 302.895998 l
cl
0.588 setgray
fill
grestore
gsave
621.6 350.3 49.17 203.9 clipbox
385.902083 203.947845 m
437.70625 203.947845 l
437.70625 203.947845 l
385.902083 203.947845 l
cl
0.588 setgray
fill
grestore
gsave
621.6 350.3 49.17 203.9 clipbox
489.510417 203.947845 m
541.314583 203.947845 l
541.314583 203.947845 l
489.510417 203.947845 l
cl
0.588 setgray
fill
grestore
gsave
621.6 350.3 49.17 203.9 clipbox
593.11875 203.947845 m
644.922917 203.947845 l
644.922917 203.947845 l
593.11875 203.947845 l
cl
0.588 setgray
fill
grestore
gsave
621.6 350.3 49.17 203.9 clipbox
75.077083 203.947845 m
126.88125 203.947845 l
126.88125 203.947845 l
75.077083 203.947845 l
cl
0.741 setgray
fill
grestore
gsave
621.6 350.3 49.17 203.9 clipbox
178.685417 358.44125 m
230.489583 358.44125 l
230.489583 431.286331 l
178.685417 431.286331 l
cl
0.741 setgray
fill
grestore
gsave
621.6 350.3 49.17 203.9 clipbox
282.29375 203.947845 m
334.097917 203.947845 l
334.097917 203.947845 l
282.29375 203.947845 l
cl
0.741 setgray
fill
grestore
gsave
621.6 350.3 49.17 203.9 clipbox
385.902083 203.947845 m
437.70625 203.947845 l
437.70625 203.947845 l
385.902083 203.947845 l
cl
0.741 setgray
fill
grestore
gsave
621.6 350.3 49.17 203.9 clipbox
489.510417 203.947845 m
541.314583 203.947845 l
541.314583 203.947845 l
489.510417 203.947845 l
cl
0.741 setgray
fill
grestore
gsave
621.6 350.3 49.17 203.9 clipbox
593.11875 203.947845 m
644.922917 203.947845 l
644.922917 203.947845 l
593.11875 203.947845 l
cl
0.741 setgray
fill
grestore
gsave
621.6 350.3 49.17 203.9 clipbox
75.077083 203.947845 m
126.88125 203.947845 l
126.88125 203.947845 l
75.077083 203.947845 l
cl
0.851 setgray
fill
grestore
gsave
621.6 350.3 49.17 203.9 clipbox
178.685417 203.947845 m
230.489583 203.947845 l
230.489583 203.947845 l
178.685417 203.947845 l
cl
0.851 setgray
fill
grestore
gsave
621.6 350.3 49.17 203.9 clipbox
282.29375 203.947845 m
334.097917 203.947845 l
334.097917 203.947845 l
282.29375 203.947845 l
cl
0.851 setgray
fill
grestore
gsave
621.6 350.3 49.17 203.9 clipbox
385.902083 203.947845 m
437.70625 203.947845 l
437.70625 203.947845 l
385.902083 203.947845 l
cl
0.851 setgray
fill
grestore
gsave
621.6 350.3 49.17 203.9 clipbox
489.510417 500.479449 m
541.314583 500.479449 l
541.314583 537.521326 l
489.510417 537.521326 l
cl
0.851 setgray
fill
grestore
gsave
621.6 350.3 49.17 203.9 clipbox
593.11875 203.947845 m
644.922917 203.947845 l
644.922917 203.947845 l
593.11875 203.947845 l
cl
0.851 setgray
fill
grestore
0.800 setlinewidth
1 setlinejoin
0 setlinecap
[] 0 setdash
0.000 setgray
gsave
/o {
gsave
newpath
translate
0.8 setlinewidth
1 setlinejoin
0 setlinecap
0 0 m
0 -3.5 l

gsave
0.000 setgray
fill
grestore
stroke
grestore
} bind def
100.979 203.949 o
grestore
/DejaVuSans findfont
10.000 scalefont
setfont
gsave
63.803865 172.739307 translate
30.000000 rotate
0.000000 0 m /D glyphshow
7.700195 0 m /e glyphshow
13.852539 0 m /c glyphshow
19.350586 0 m /space glyphshow
22.529297 0 m /three glyphshow
28.891602 0 m /one glyphshow
grestore
gsave
77.910583 167.962004 translate
30.000000 rotate
0.000000 0 m /two glyphshow
6.362305 0 m /zero glyphshow
12.724609 0 m /two glyphshow
19.086914 0 m /zero glyphshow
grestore
gsave
/o {
gsave
newpath
translate
0.8 setlinewidth
1 setlinejoin
0 setlinecap
0 0 m
0 -3.5 l

gsave
0.000 setgray
fill
grestore
stroke
grestore
} bind def
204.587 203.949 o
grestore
gsave
176.417485 174.708057 translate
30.000000 rotate
0.000000 0 m /J glyphshow
2.949219 0 m /a glyphshow
9.077148 0 m /n glyphshow
15.415039 0 m /space glyphshow
18.593750 0 m /three glyphshow
24.956055 0 m /one glyphshow
grestore
gsave
/o {
gsave
newpath
translate
0.8 setlinewidth
1 setlinejoin
0 setlinecap
0 0 m
0 -3.5 l

gsave
0.000 setgray
fill
grestore
stroke
grestore
} bind def
308.196 203.949 o
grestore
gsave
278.009603 173.543995 translate
30.000000 rotate
0.000000 0 m /F glyphshow
5.251953 0 m /e glyphshow
11.404297 0 m /b glyphshow
17.751953 0 m /space glyphshow
20.930664 0 m /two glyphshow
27.292969 0 m /eight glyphshow
grestore
gsave
/o {
gsave
newpath
translate
0.8 setlinewidth
1 setlinejoin
0 setlinecap
0 0 m
0 -3.5 l

gsave
0.000 setgray
fill
grestore
stroke
grestore
} bind def
411.804 203.949 o
grestore
gsave
380.657190 172.989307 translate
30.000000 rotate
0.000000 0 m /M glyphshow
8.627930 0 m /a glyphshow
14.755859 0 m /r glyphshow
18.867188 0 m /space glyphshow
22.045898 0 m /three glyphshow
28.408203 0 m /one glyphshow
grestore
gsave
/o {
gsave
newpath
translate
0.8 setlinewidth
1 setlinejoin
0 setlinecap
0 0 m
0 -3.5 l

gsave
0.000 setgray
fill
grestore
stroke
grestore
} bind def
515.412 203.949 o
grestore
gsave
485.618688 173.770557 translate
30.000000 rotate
0.000000 0 m /A glyphshow
6.840820 0 m /p glyphshow
13.188477 0 m /r glyphshow
17.299805 0 m /space glyphshow
20.478516 0 m /three glyphshow
26.840820 0 m /zero glyphshow
grestore
gsave
/o {
gsave
newpath
translate
0.8 setlinewidth
1 setlinejoin
0 setlinecap
0 0 m
0 -3.5 l

gsave
0.000 setgray
fill
grestore
stroke
grestore
} bind def
619.021 203.949 o
grestore
gsave
580.708873 172.083057 translate
30.000000 rotate
0.000000 0 m /M glyphshow
8.627930 0 m /a glyphshow
14.755859 0 m /y glyphshow
20.673828 0 m /space glyphshow
23.852539 0 m /three glyphshow
30.214844 0 m /one glyphshow
grestore
gsave
595.952250 167.962004 translate
30.000000 rotate
0.000000 0 m /two glyphshow
6.362305 0 m /zero glyphshow
12.724609 0 m /two glyphshow
19.086914 0 m /one glyphshow
grestore
gsave
333.015625 148.998233 translate
0.000000 rotate
0.000000 0 m /t glyphshow
3.920898 0 m /i glyphshow
6.699219 0 m /m glyphshow
16.440430 0 m /e glyphshow
22.592773 0 m /s glyphshow
27.802734 0 m /t glyphshow
31.723633 0 m /a glyphshow
37.851562 0 m /m glyphshow
47.592773 0 m /p glyphshow
grestore
gsave
/o {
gsave
newpath
translate
0.8 setlinewidth
1 setlinejoin
0 setlinecap
-0 0 m
-3.5 0 l

gsave
0.000 setgray
fill
grestore
stroke
grestore
} bind def
49.175 254.343 o
grestore
gsave
35.815625 250.546504 translate
0.000000 rotate
0.000000 0 m /one glyphshow
grestore
gsave
/o {
gsave
newpath
translate
0.8 setlinewidth
1 setlinejoin
0 setlinecap
-0 0 m
-3.5 0 l

gsave
0.000 setgray
fill
grestore
stroke
grestore
} bind def
49.175 304.739 o
grestore
gsave
35.815625 300.942038 translate
0.000000 rotate
0.000000 0 m /two glyphshow
grestore
gsave
/o {
gsave
newpath
translate
0.8 setlinewidth
1 setlinejoin
0 setlinecap
-0 0 m
-3.5 0 l

gsave
0.000 setgray
fill
grestore
stroke
grestore
} bind def
49.175 355.134 o
grestore
gsave
35.815625 351.337571 translate
0.000000 rotate
0.000000 0 m /three glyphshow
grestore
gsave
/o {
gsave
newpath
translate
0.8 setlinewidth
1 setlinejoin
0 setlinecap
-0 0 m
-3.5 0 l

gsave
0.000 setgray
fill
grestore
stroke
grestore
} bind def
49.175 405.53 o
grestore
gsave
35.815625 401.733105 translate
0.000000 rotate
0.000000 0 m /four glyphshow
grestore
gsave
/o {
gsave
newpath
translate
0.8 setlinewidth
1 setlinejoin
0 setlinecap
-0 0 m
-3.5 0 l

gsave
0.000 setgray
fill
grestore
stroke
grestore
} bind def
49.175 455.926 o
grestore
gsave
35.815625 452.128639 translate
0.000000 rotate
0.000000 0 m /five glyphshow
grestore
gsave
/o {
gsave
newpath
translate
0.8 setlinewidth
1 setlinejoin
0 setlinecap
-0 0 m
-3.5 0 l

gsave
0.000 setgray
fill
grestore
stroke
grestore
} bind def
49.175 506.321 o
grestore
gsave
35.815625 502.524173 translate
0.000000 rotate
0.000000 0 m /six glyphshow
grestore
gsave
29.737500 364.605500 translate
90.000000 rotate
0.000000 0 m /V glyphshow
6.590820 0 m /i glyphshow
9.369141 0 m /e glyphshow
15.521484 0 m /w glyphshow
23.700195 0 m /s glyphshow
grestore
gsave
49.175000 557.200000 translate
0.000000 rotate
0.000000 0 m /one glyphshow
6.362305 0 m /e glyphshow
12.514648 0 m /six glyphshow
grestore
0 setlinejoin
2 setlinecap
gsave
49.175 203.9485 m
49.175 554.2 l
stroke
grestore
gsave
670.825 203.9485 m
670.825 554.2 l
stroke
grestore
gsave
49.175 203.9485 m
670.825 203.9485 l
stroke
grestore
gsave
49.175 554.2 m
670.825 554.2 l
stroke
grestore
1.000 setlinewidth
0 setlinecap
0.300 setgray
gsave
45.367188 20.632575 m
678.632812 20.632575 l
679.966146 20.632575 680.632812 21.299242 680.632812 22.632575 c
680.632812 124.8982 l
680.632812 126.231533 679.966146 126.8982 678.632812 126.8982 c
45.367188 126.8982 l
44.033854 126.8982 43.367188 126.231533 43.367188 124.8982 c
43.367188 22.632575 l
43.367188 21.299242 44.033854 20.632575 45.367188 20.632575 c
cl
gsave
fill
grestore
stroke
grestore
0.800 setgray
gsave
43.367188 22.632575 m
676.632812 22.632575 l
677.966146 22.632575 678.632812 23.299242 678.632812 24.632575 c
678.632812 126.8982 l
678.632812 128.231533 677.966146 128.8982 676.632812 128.8982 c
43.367188 128.8982 l
42.033854 128.8982 41.367188 128.231533 41.367188 126.8982 c
41.367188 24.632575 l
41.367188 23.299242 42.033854 22.632575 43.367188 22.632575 c
cl
gsave
1.000 setgray
fill
grestore
stroke
grestore
gsave
45.367188 117.30445 m
65.367188 117.30445 l
65.367188 124.30445 l
45.367188 124.30445 l
cl
0.192 0.510 0.741 setrgbcolor
fill
grestore
0.000 setgray
gsave
73.367188 117.304450 translate
0.000000 rotate
0.000000 0 m /h glyphshow
6.337891 0 m /t glyphshow
10.258789 0 m /t glyphshow
14.179688 0 m /p glyphshow
20.527344 0 m /s glyphshow
25.737305 0 m /colon glyphshow
29.106445 0 m /slash glyphshow
32.475586 0 m /slash glyphshow
35.844727 0 m /y glyphshow
41.762695 0 m /o glyphshow
47.880859 0 m /u glyphshow
54.218750 0 m /t glyphshow
58.139648 0 m /u glyphshow
64.477539 0 m /period glyphshow
67.656250 0 m /b glyphshow
74.003906 0 m /e glyphshow
80.156250 0 m /slash glyphshow
83.525391 0 m /hyphen glyphshow
87.133789 0 m /nine glyphshow
93.496094 0 m /L glyphshow
98.942383 0 m /e glyphshow
105.094727 0 m /two glyphshow
111.457031 0 m /A glyphshow
117.672852 0 m /v glyphshow
123.590820 0 m /Y glyphshow
129.699219 0 m /M glyphshow
138.327148 0 m /x glyphshow
144.245117 0 m /four glyphshow
grestore
gsave
45.367188 102.632575 m
65.367188 102.632575 l
65.367188 109.632575 l
45.367188 109.632575 l
cl
0.420 0.682 0.839 setrgbcolor
fill
grestore
gsave
73.367188 102.632575 translate
0.000000 rotate
0.000000 0 m /h glyphshow
6.337891 0 m /t glyphshow
10.258789 0 m /t glyphshow
14.179688 0 m /p glyphshow
20.527344 0 m /s glyphshow
25.737305 0 m /colon glyphshow
29.106445 0 m /slash glyphshow
32.475586 0 m /slash glyphshow
35.844727 0 m /y glyphshow
41.762695 0 m /o glyphshow
47.880859 0 m /u glyphshow
54.218750 0 m /t glyphshow
58.139648 0 m /u glyphshow
64.477539 0 m /period glyphshow
67.656250 0 m /b glyphshow
74.003906 0 m /e glyphshow
80.156250 0 m /slash glyphshow
83.525391 0 m /hyphen glyphshow
87.133789 0 m /h glyphshow
93.471680 0 m /F glyphshow
99.223633 0 m /d glyphshow
105.571289 0 m /R glyphshow
112.519531 0 m /S glyphshow
118.867188 0 m /a glyphshow
124.995117 0 m /g glyphshow
131.342773 0 m /a glyphshow
137.470703 0 m /E glyphshow
143.789062 0 m /s glyphshow
grestore
gsave
45.367188 87.9607 m
65.367188 87.9607 l
65.367188 94.9607 l
45.367188 94.9607 l
cl
0.620 0.792 0.882 setrgbcolor
fill
grestore
gsave
73.367188 87.960700 translate
0.000000 rotate
0.000000 0 m /h glyphshow
6.337891 0 m /t glyphshow
10.258789 0 m /t glyphshow
14.179688 0 m /p glyphshow
20.527344 0 m /s glyphshow
25.737305 0 m /colon glyphshow
29.106445 0 m /slash glyphshow
32.475586 0 m /slash glyphshow
35.844727 0 m /y glyphshow
41.762695 0 m /o glyphshow
47.880859 0 m /u glyphshow
54.218750 0 m /t glyphshow
58.139648 0 m /u glyphshow
64.477539 0 m /period glyphshow
67.656250 0 m /b glyphshow
74.003906 0 m /e glyphshow
80.156250 0 m /slash glyphshow
83.525391 0 m /hyphen glyphshow
86.883789 0 m /v glyphshow
92.801758 0 m /seven glyphshow
99.164062 0 m /O glyphshow
107.035156 0 m /D glyphshow
114.735352 0 m /y glyphshow
120.653320 0 m /T glyphshow
126.761719 0 m /k glyphshow
132.552734 0 m /underscore glyphshow
137.552734 0 m /w glyphshow
145.731445 0 m /M glyphshow
grestore
gsave
45.367188 73.007575 m
65.367188 73.007575 l
65.367188 80.007575 l
45.367188 80.007575 l
cl
0.776 0.859 0.937 setrgbcolor
fill
grestore
gsave
73.367188 73.007575 translate
0.000000 rotate
0.000000 0 m /h glyphshow
6.337891 0 m /t glyphshow
10.258789 0 m /t glyphshow
14.179688 0 m /p glyphshow
20.527344 0 m /s glyphshow
25.737305 0 m /colon glyphshow
29.106445 0 m /slash glyphshow
32.475586 0 m /slash glyphshow
35.844727 0 m /y glyphshow
41.762695 0 m /o glyphshow
47.880859 0 m /u glyphshow
54.218750 0 m /t glyphshow
58.139648 0 m /u glyphshow
64.477539 0 m /period glyphshow
67.656250 0 m /b glyphshow
74.003906 0 m /e glyphshow
80.156250 0 m /slash glyphshow
83.525391 0 m /six glyphshow
89.887695 0 m /two glyphshow
96.250000 0 m /z glyphshow
101.499023 0 m /b glyphshow
107.846680 0 m /h glyphshow
114.184570 0 m /n glyphshow
120.522461 0 m /s glyphshow
125.732422 0 m /C glyphshow
132.714844 0 m /six glyphshow
139.077148 0 m /S glyphshow
145.424805 0 m /I glyphshow
grestore
gsave
45.367188 58.3357 m
65.367188 58.3357 l
65.367188 65.3357 l
45.367188 65.3357 l
cl
0.902 0.333 0.051 setrgbcolor
fill
grestore
gsave
73.367188 58.335700 translate
0.000000 rotate
0.000000 0 m /h glyphshow
6.337891 0 m /t glyphshow
10.258789 0 m /t glyphshow
14.179688 0 m /p glyphshow
20.527344 0 m /s glyphshow
25.737305 0 m /colon glyphshow
29.106445 0 m /slash glyphshow
32.475586 0 m /slash glyphshow
35.844727 0 m /y glyphshow
41.762695 0 m /o glyphshow
47.880859 0 m /u glyphshow
54.218750 0 m /t glyphshow
58.139648 0 m /u glyphshow
64.477539 0 m /period glyphshow
67.656250 0 m /b glyphshow
74.003906 0 m /e glyphshow
80.156250 0 m /slash glyphshow
83.525391 0 m /eight glyphshow
89.887695 0 m /j glyphshow
92.666016 0 m /C glyphshow
99.648438 0 m /w glyphshow
107.827148 0 m /L glyphshow
113.398438 0 m /F glyphshow
119.150391 0 m /three glyphshow
125.512695 0 m /R glyphshow
132.460938 0 m /Q glyphshow
140.332031 0 m /H glyphshow
147.851562 0 m /four glyphshow
grestore
gsave
45.367188 43.663825 m
65.367188 43.663825 l
65.367188 50.663825 l
45.367188 50.663825 l
cl
0.992 0.553 0.235 setrgbcolor
fill
grestore
gsave
73.367188 43.663825 translate
0.000000 rotate
0.000000 0 m /h glyphshow
6.337891 0 m /t glyphshow
10.258789 0 m /t glyphshow
14.179688 0 m /p glyphshow
20.527344 0 m /s glyphshow
25.737305 0 m /colon glyphshow
29.106445 0 m /slash glyphshow
32.475586 0 m /slash glyphshow
35.844727 0 m /y glyphshow
41.762695 0 m /o glyphshow
47.880859 0 m /u glyphshow
54.218750 0 m /t glyphshow
58.139648 0 m /u glyphshow
64.477539 0 m /period glyphshow
67.656250 0 m /b glyphshow
74.003906 0 m /e glyphshow
80.156250 0 m /slash glyphshow
83.525391 0 m /F glyphshow
89.277344 0 m /U glyphshow
96.596680 0 m /hyphen glyphshow
100.205078 0 m /c glyphshow
105.703125 0 m /q glyphshow
112.050781 0 m /T glyphshow
118.159180 0 m /N glyphshow
125.639648 0 m /Q glyphshow
133.510742 0 m /h glyphshow
139.848633 0 m /M glyphshow
148.476562 0 m /M glyphshow
grestore
gsave
45.367188 28.99195 m
65.367188 28.99195 l
65.367188 35.99195 l
45.367188 35.99195 l
cl
0.992 0.682 0.420 setrgbcolor
fill
grestore
gsave
73.367188 28.991950 translate
0.000000 rotate
0.000000 0 m /h glyphshow
6.337891 0 m /t glyphshow
10.258789 0 m /t glyphshow
14.179688 0 m /p glyphshow
20.527344 0 m /s glyphshow
25.737305 0 m /colon glyphshow
29.106445 0 m /slash glyphshow
32.475586 0 m /slash glyphshow
35.844727 0 m /y glyphshow
41.762695 0 m /o glyphshow
47.880859 0 m /u glyphshow
54.218750 0 m /t glyphshow
58.139648 0 m /u glyphshow
64.477539 0 m /period glyphshow
67.656250 0 m /b glyphshow
74.003906 0 m /e glyphshow
80.156250 0 m /slash glyphshow
83.525391 0 m /G glyphshow
91.274414 0 m /q glyphshow
97.622070 0 m /underscore glyphshow
102.622070 0 m /hyphen glyphshow
106.230469 0 m /e glyphshow
112.382812 0 m /C glyphshow
119.365234 0 m /d glyphshow
125.712891 0 m /G glyphshow
133.461914 0 m /t glyphshow
137.382812 0 m /a glyphshow
143.510742 0 m /Y glyphshow
grestore
gsave
250.554688 117.30445 m
270.554688 117.30445 l
270.554688 124.30445 l
250.554688 124.30445 l
cl
0.992 0.816 0.635 setrgbcolor
fill
grestore
gsave
278.554688 117.304450 translate
0.000000 rotate
0.000000 0 m /h glyphshow
6.337891 0 m /t glyphshow
10.258789 0 m /t glyphshow
14.179688 0 m /p glyphshow
20.527344 0 m /s glyphshow
25.737305 0 m /colon glyphshow
29.106445 0 m /slash glyphshow
32.475586 0 m /slash glyphshow
35.844727 0 m /y glyphshow
41.762695 0 m /o glyphshow
47.880859 0 m /u glyphshow
54.218750 0 m /t glyphshow
58.139648 0 m /u glyphshow
64.477539 0 m /period glyphshow
67.656250 0 m /b glyphshow
74.003906 0 m /e glyphshow
80.156250 0 m /slash glyphshow
83.525391 0 m /L glyphshow
89.096680 0 m /B glyphshow
95.957031 0 m /five glyphshow
102.319336 0 m /four glyphshow
108.681641 0 m /five glyphshow
115.043945 0 m /x glyphshow
120.961914 0 m /G glyphshow
128.710938 0 m /O glyphshow
136.582031 0 m /S glyphshow
142.929688 0 m /m glyphshow
152.670898 0 m /E glyphshow
grestore
gsave
250.554688 102.632575 m
270.554688 102.632575 l
270.554688 109.632575 l
250.554688 109.632575 l
cl
0.192 0.639 0.329 setrgbcolor
fill
grestore
gsave
278.554688 102.632575 translate
0.000000 rotate
0.000000 0 m /h glyphshow
6.337891 0 m /t glyphshow
10.258789 0 m /t glyphshow
14.179688 0 m /p glyphshow
20.527344 0 m /s glyphshow
25.737305 0 m /colon glyphshow
29.106445 0 m /slash glyphshow
32.475586 0 m /slash glyphshow
35.844727 0 m /y glyphshow
41.762695 0 m /o glyphshow
47.880859 0 m /u glyphshow
54.218750 0 m /t glyphshow
58.139648 0 m /u glyphshow
64.477539 0 m /period glyphshow
67.656250 0 m /b glyphshow
74.003906 0 m /e glyphshow
80.156250 0 m /slash glyphshow
83.525391 0 m /M glyphshow
92.153320 0 m /N glyphshow
99.633789 0 m /F glyphshow
105.385742 0 m /B glyphshow
112.246094 0 m /g glyphshow
118.593750 0 m /P glyphshow
124.624023 0 m /h glyphshow
130.961914 0 m /i glyphshow
133.740234 0 m /J glyphshow
136.689453 0 m /x glyphshow
142.607422 0 m /Q glyphshow
grestore
gsave
250.554688 87.9607 m
270.554688 87.9607 l
270.554688 94.9607 l
250.554688 94.9607 l
cl
0.455 0.769 0.463 setrgbcolor
fill
grestore
gsave
278.554688 87.960700 translate
0.000000 rotate
0.000000 0 m /h glyphshow
6.337891 0 m /t glyphshow
10.258789 0 m /t glyphshow
14.179688 0 m /p glyphshow
20.527344 0 m /s glyphshow
25.737305 0 m /colon glyphshow
29.106445 0 m /slash glyphshow
32.475586 0 m /slash glyphshow
35.844727 0 m /y glyphshow
41.762695 0 m /o glyphshow
47.880859 0 m /u glyphshow
54.218750 0 m /t glyphshow
58.139648 0 m /u glyphshow
64.477539 0 m /period glyphshow
67.656250 0 m /b glyphshow
74.003906 0 m /e glyphshow
80.156250 0 m /slash glyphshow
83.525391 0 m /R glyphshow
90.473633 0 m /s glyphshow
95.683594 0 m /underscore glyphshow
100.683594 0 m /E glyphshow
107.001953 0 m /D glyphshow
114.702148 0 m /R glyphshow
121.650391 0 m /x glyphshow
127.568359 0 m /underscore glyphshow
132.568359 0 m /b glyphshow
138.916016 0 m /one glyphshow
145.278320 0 m /I glyphshow
grestore
gsave
250.554688 73.007575 m
270.554688 73.007575 l
270.554688 80.007575 l
250.554688 80.007575 l
cl
0.631 0.851 0.608 setrgbcolor
fill
grestore
gsave
278.554688 73.007575 translate
0.000000 rotate
0.000000 0 m /h glyphshow
6.337891 0 m /t glyphshow
10.258789 0 m /t glyphshow
14.179688 0 m /p glyphshow
20.527344 0 m /s glyphshow
25.737305 0 m /colon glyphshow
29.106445 0 m /slash glyphshow
32.475586 0 m /slash glyphshow
35.844727 0 m /y glyphshow
41.762695 0 m /o glyphshow
47.880859 0 m /u glyphshow
54.218750 0 m /t glyphshow
58.139648 0 m /u glyphshow
64.477539 0 m /period glyphshow
67.656250 0 m /b glyphshow
74.003906 0 m /e glyphshow
80.156250 0 m /slash glyphshow
83.525391 0 m /T glyphshow
89.633789 0 m /M glyphshow
98.261719 0 m /u glyphshow
104.599609 0 m /h glyphshow
110.937500 0 m /u glyphshow
117.275391 0 m /O glyphshow
125.146484 0 m /five glyphshow
131.508789 0 m /p glyphshow
137.856445 0 m /n glyphshow
144.194336 0 m /F glyphshow
149.946289 0 m /Y glyphshow
grestore
gsave
250.554688 58.3357 m
270.554688 58.3357 l
270.554688 65.3357 l
250.554688 65.3357 l
cl
0.780 0.914 0.753 setrgbcolor
fill
grestore
gsave
278.554688 58.335700 translate
0.000000 rotate
0.000000 0 m /h glyphshow
6.337891 0 m /t glyphshow
10.258789 0 m /t glyphshow
14.179688 0 m /p glyphshow
20.527344 0 m /s glyphshow
25.737305 0 m /colon glyphshow
29.106445 0 m /slash glyphshow
32.475586 0 m /slash glyphshow
35.844727 0 m /y glyphshow
41.762695 0 m /o glyphshow
47.880859 0 m /u glyphshow
54.218750 0 m /t glyphshow
58.139648 0 m /u glyphshow
64.477539 0 m /period glyphshow
67.656250 0 m /b glyphshow
74.003906 0 m /e glyphshow
80.156250 0 m /slash glyphshow
83.525391 0 m /W glyphshow
93.413086 0 m /n glyphshow
99.750977 0 m /e glyphshow
105.903320 0 m /T glyphshow
112.011719 0 m /l glyphshow
114.790039 0 m /zero glyphshow
121.152344 0 m /H glyphshow
128.671875 0 m /j glyphshow
131.450195 0 m /m glyphshow
141.191406 0 m /X glyphshow
148.041992 0 m /M glyphshow
grestore
gsave
250.554688 43.663825 m
270.554688 43.663825 l
270.554688 50.663825 l
250.554688 50.663825 l
cl
0.459 0.420 0.694 setrgbcolor
fill
grestore
gsave
278.554688 43.663825 translate
0.000000 rotate
0.000000 0 m /h glyphshow
6.337891 0 m /t glyphshow
10.258789 0 m /t glyphshow
14.179688 0 m /p glyphshow
20.527344 0 m /s glyphshow
25.737305 0 m /colon glyphshow
29.106445 0 m /slash glyphshow
32.475586 0 m /slash glyphshow
35.844727 0 m /y glyphshow
41.762695 0 m /o glyphshow
47.880859 0 m /u glyphshow
54.218750 0 m /t glyphshow
58.139648 0 m /u glyphshow
64.477539 0 m /period glyphshow
67.656250 0 m /b glyphshow
74.003906 0 m /e glyphshow
80.156250 0 m /slash glyphshow
83.525391 0 m /underscore glyphshow
88.525391 0 m /four glyphshow
94.887695 0 m /J glyphshow
97.836914 0 m /d glyphshow
104.184570 0 m /three glyphshow
110.546875 0 m /f glyphshow
114.067383 0 m /W glyphshow
123.955078 0 m /z glyphshow
129.204102 0 m /n glyphshow
135.541992 0 m /V glyphshow
142.382812 0 m /Q glyphshow
grestore
gsave
250.554688 28.7107 m
270.554688 28.7107 l
270.554688 35.7107 l
250.554688 35.7107 l
cl
0.620 0.604 0.784 setrgbcolor
fill
grestore
gsave
278.554688 28.710700 translate
0.000000 rotate
0.000000 0 m /h glyphshow
6.337891 0 m /t glyphshow
10.258789 0 m /t glyphshow
14.179688 0 m /p glyphshow
20.527344 0 m /s glyphshow
25.737305 0 m /colon glyphshow
29.106445 0 m /slash glyphshow
32.475586 0 m /slash glyphshow
35.844727 0 m /y glyphshow
41.762695 0 m /o glyphshow
47.880859 0 m /u glyphshow
54.218750 0 m /t glyphshow
58.139648 0 m /u glyphshow
64.477539 0 m /period glyphshow
67.656250 0 m /b glyphshow
74.003906 0 m /e glyphshow
80.156250 0 m /slash glyphshow
83.525391 0 m /a glyphshow
89.653320 0 m /one glyphshow
96.015625 0 m /d glyphshow
102.363281 0 m /c glyphshow
107.861328 0 m /S glyphshow
114.208984 0 m /e glyphshow
120.361328 0 m /c glyphshow
125.859375 0 m /G glyphshow
133.608398 0 m /U glyphshow
140.927734 0 m /N glyphshow
148.408203 0 m /M glyphshow
grestore
gsave
457.617188 117.30445 m
477.617188 117.30445 l
477.617188 124.30445 l
457.617188 124.30445 l
cl
0.737 0.741 0.863 setrgbcolor
fill
grestore
gsave
485.617188 117.304450 translate
0.000000 rotate
0.000000 0 m /h glyphshow
6.337891 0 m /t glyphshow
10.258789 0 m /t glyphshow
14.179688 0 m /p glyphshow
20.527344 0 m /s glyphshow
25.737305 0 m /colon glyphshow
29.106445 0 m /slash glyphshow
32.475586 0 m /slash glyphshow
35.844727 0 m /y glyphshow
41.762695 0 m /o glyphshow
47.880859 0 m /u glyphshow
54.218750 0 m /t glyphshow
58.139648 0 m /u glyphshow
64.477539 0 m /period glyphshow
67.656250 0 m /b glyphshow
74.003906 0 m /e glyphshow
80.156250 0 m /slash glyphshow
83.525391 0 m /h glyphshow
89.863281 0 m /U glyphshow
97.182617 0 m /U glyphshow
104.501953 0 m /c glyphshow
110.000000 0 m /z glyphshow
115.249023 0 m /m glyphshow
124.990234 0 m /i glyphshow
127.768555 0 m /r glyphshow
131.754883 0 m /d glyphshow
138.102539 0 m /c glyphshow
143.600586 0 m /M glyphshow
152.228516 0 m /question glyphshow
157.536133 0 m /t glyphshow
161.457031 0 m /equal glyphshow
169.835938 0 m /three glyphshow
176.198242 0 m /three glyphshow
182.560547 0 m /eight glyphshow
grestore
gsave
457.617188 102.632575 m
477.617188 102.632575 l
477.617188 109.632575 l
457.617188 109.632575 l
cl
0.855 0.855 0.922 setrgbcolor
fill
grestore
gsave
485.617188 102.632575 translate
0.000000 rotate
0.000000 0 m /h glyphshow
6.337891 0 m /t glyphshow
10.258789 0 m /t glyphshow
14.179688 0 m /p glyphshow
20.527344 0 m /s glyphshow
25.737305 0 m /colon glyphshow
29.106445 0 m /slash glyphshow
32.475586 0 m /slash glyphshow
35.844727 0 m /y glyphshow
41.762695 0 m /o glyphshow
47.880859 0 m /u glyphshow
54.218750 0 m /t glyphshow
58.139648 0 m /u glyphshow
64.477539 0 m /period glyphshow
67.656250 0 m /b glyphshow
74.003906 0 m /e glyphshow
80.156250 0 m /slash glyphshow
83.525391 0 m /i glyphshow
86.303711 0 m /underscore glyphshow
91.303711 0 m /five glyphshow
97.666016 0 m /Y glyphshow
103.774414 0 m /three glyphshow
110.136719 0 m /Q glyphshow
118.007812 0 m /M glyphshow
126.635742 0 m /y glyphshow
132.553711 0 m /E glyphshow
138.872070 0 m /I glyphshow
141.821289 0 m /eight glyphshow
grestore
gsave
457.617188 87.67945 m
477.617188 87.67945 l
477.617188 94.67945 l
457.617188 94.67945 l
cl
0.388 setgray
fill
grestore
gsave
485.617188 87.679450 translate
0.000000 rotate
0.000000 0 m /h glyphshow
6.337891 0 m /t glyphshow
10.258789 0 m /t glyphshow
14.179688 0 m /p glyphshow
20.527344 0 m /s glyphshow
25.737305 0 m /colon glyphshow
29.106445 0 m /slash glyphshow
32.475586 0 m /slash glyphshow
35.844727 0 m /y glyphshow
41.762695 0 m /o glyphshow
47.880859 0 m /u glyphshow
54.218750 0 m /t glyphshow
58.139648 0 m /u glyphshow
64.477539 0 m /period glyphshow
67.656250 0 m /b glyphshow
74.003906 0 m /e glyphshow
80.156250 0 m /slash glyphshow
83.525391 0 m /n glyphshow
89.863281 0 m /hyphen glyphshow
93.471680 0 m /F glyphshow
99.223633 0 m /v glyphshow
105.141602 0 m /M glyphshow
113.769531 0 m /o glyphshow
119.887695 0 m /K glyphshow
126.445312 0 m /Z glyphshow
133.295898 0 m /f glyphshow
136.816406 0 m /O glyphshow
144.687500 0 m /c glyphshow
grestore
gsave
457.617188 73.007575 m
477.617188 73.007575 l
477.617188 80.007575 l
457.617188 80.007575 l
cl
0.588 setgray
fill
grestore
gsave
485.617188 73.007575 translate
0.000000 rotate
0.000000 0 m /h glyphshow
6.337891 0 m /t glyphshow
10.258789 0 m /t glyphshow
14.179688 0 m /p glyphshow
20.527344 0 m /s glyphshow
25.737305 0 m /colon glyphshow
29.106445 0 m /slash glyphshow
32.475586 0 m /slash glyphshow
35.844727 0 m /y glyphshow
41.762695 0 m /o glyphshow
47.880859 0 m /u glyphshow
54.218750 0 m /t glyphshow
58.139648 0 m /u glyphshow
64.477539 0 m /period glyphshow
67.656250 0 m /b glyphshow
74.003906 0 m /e glyphshow
80.156250 0 m /slash glyphshow
83.525391 0 m /n glyphshow
89.863281 0 m /zero glyphshow
96.225586 0 m /c glyphshow
101.723633 0 m /K glyphshow
108.281250 0 m /five glyphshow
114.643555 0 m /C glyphshow
121.625977 0 m /C glyphshow
128.608398 0 m /A glyphshow
135.449219 0 m /seven glyphshow
141.811523 0 m /g glyphshow
148.159180 0 m /zero glyphshow
grestore
gsave
457.617188 58.3357 m
477.617188 58.3357 l
477.617188 65.3357 l
457.617188 65.3357 l
cl
0.741 setgray
fill
grestore
gsave
485.617188 58.335700 translate
0.000000 rotate
0.000000 0 m /h glyphshow
6.337891 0 m /t glyphshow
10.258789 0 m /t glyphshow
14.179688 0 m /p glyphshow
20.527344 0 m /s glyphshow
25.737305 0 m /colon glyphshow
29.106445 0 m /slash glyphshow
32.475586 0 m /slash glyphshow
35.844727 0 m /y glyphshow
41.762695 0 m /o glyphshow
47.880859 0 m /u glyphshow
54.218750 0 m /t glyphshow
58.139648 0 m /u glyphshow
64.477539 0 m /period glyphshow
67.656250 0 m /b glyphshow
74.003906 0 m /e glyphshow
80.156250 0 m /slash glyphshow
83.525391 0 m /q glyphshow
89.873047 0 m /h glyphshow
96.210938 0 m /P glyphshow
102.116211 0 m /r glyphshow
106.102539 0 m /h glyphshow
112.440430 0 m /H glyphshow
119.959961 0 m /hyphen glyphshow
123.568359 0 m /eight glyphshow
129.930664 0 m /five glyphshow
136.292969 0 m /m glyphshow
146.034180 0 m /I glyphshow
grestore
gsave
457.617188 43.663825 m
477.617188 43.663825 l
477.617188 50.663825 l
457.617188 50.663825 l
cl
0.851 setgray
fill
grestore
gsave
485.617188 43.663825 translate
0.000000 rotate
0.000000 0 m /h glyphshow
6.337891 0 m /t glyphshow
10.258789 0 m /t glyphshow
14.179688 0 m /p glyphshow
20.527344 0 m /s glyphshow
25.737305 0 m /colon glyphshow
29.106445 0 m /slash glyphshow
32.475586 0 m /slash glyphshow
35.844727 0 m /y glyphshow
41.762695 0 m /o glyphshow
47.880859 0 m /u glyphshow
54.218750 0 m /t glyphshow
58.139648 0 m /u glyphshow
64.477539 0 m /period glyphshow
67.656250 0 m /b glyphshow
74.003906 0 m /e glyphshow
80.156250 0 m /slash glyphshow
83.525391 0 m /x glyphshow
89.443359 0 m /p glyphshow
95.791016 0 m /F glyphshow
101.542969 0 m /Z glyphshow
108.393555 0 m /w glyphshow
116.572266 0 m /c glyphshow
122.070312 0 m /w glyphshow
130.249023 0 m /A glyphshow
137.089844 0 m /N glyphshow
144.570312 0 m /n glyphshow
150.908203 0 m /U glyphshow
grestore

end
showpage
