%!PS-Adobe-3.0 EPSF-3.0
%%Title: top_links1.eps
%%Creator: matplotlib version 3.3.3, http://matplotlib.org/
%%CreationDate: Tue Jun  8 10:57:57 2021
%%Orientation: portrait
%%BoundingBox: -54.0 108.0 666.0 684.0
%%EndComments
%%BeginProlog
/mpldict 8 dict def
mpldict begin
/m { moveto } bind def
/l { lineto } bind def
/r { rlineto } bind def
/c { curveto } bind def
/cl { closepath } bind def
/box {
      m
      1 index 0 r
      0 exch r
      neg 0 r
      cl
    } bind def
/clipbox {
      box
      clip
      newpath
    } bind def
%!PS-Adobe-3.0 Resource-Font
%%Title: DejaVu Sans
%%Copyright: Copyright (c) 2003 by Bitstream, Inc. All Rights Reserved. Copyright (c) 2006 by Tavmjong Bah. All Rights Reserved. DejaVu changes are in public domain 
%%Creator: Converted from TrueType to type 3 by PPR
25 dict begin
/_d{bind def}bind def
/_m{moveto}_d
/_l{lineto}_d
/_cl{closepath eofill}_d
/_c{curveto}_d
/_sc{7 -1 roll{setcachedevice}{pop pop pop pop pop pop}ifelse}_d
/_e{exec}_d
/FontName /DejaVuSans def
/PaintType 0 def
/FontMatrix[.001 0 0 .001 0 0]def
/FontBBox[-1021 -463 1793 1232]def
/FontType 3 def
/Encoding [ /space /hyphen /period /slash /zero /one /two /three /four /five /six /seven /eight /colon /A /B /D /F /G /H /J /L /M /N /O /R /S /V /W /underscore /a /b /c /d /e /f /g /h /i /k /l /m /n /o /p /r /s /t /u /v /w /y /z ] def
/FontInfo 10 dict dup begin
/FamilyName (DejaVu Sans) def
/FullName (DejaVu Sans) def
/Notice (Copyright (c) 2003 by Bitstream, Inc. All Rights Reserved. Copyright (c) 2006 by Tavmjong Bah. All Rights Reserved. DejaVu changes are in public domain ) def
/Weight (Book) def
/Version (Version 2.35) def
/ItalicAngle 0.0 def
/isFixedPitch false def
/UnderlinePosition -130 def
/UnderlineThickness 90 def
end readonly def
/CharStrings 54 dict dup begin
/.notdef 0 def
/space{318 0 0 0 0 0 _sc
}_d
/hyphen{361 0 49 234 312 314 _sc
49 314 _m
312 314 _l
312 234 _l
49 234 _l
49 314 _l
_cl}_d
/period{318 0 107 0 210 124 _sc
107 124 _m
210 124 _l
210 0 _l
107 0 _l
107 124 _l
_cl}_d
/slash{337 0 0 -92 337 729 _sc
254 729 _m
337 729 _l
83 -92 _l
0 -92 _l
254 729 _l
_cl}_d
/zero{636 0 66 -13 570 742 _sc
318 664 _m
267 664 229 639 203 589 _c
177 539 165 464 165 364 _c
165 264 177 189 203 139 _c
229 89 267 64 318 64 _c
369 64 407 89 433 139 _c
458 189 471 264 471 364 _c
471 464 458 539 433 589 _c
407 639 369 664 318 664 _c
318 742 _m
399 742 461 709 505 645 _c
548 580 570 486 570 364 _c
570 241 548 147 505 83 _c
461 19 399 -13 318 -13 _c
236 -13 173 19 130 83 _c
87 147 66 241 66 364 _c
66 486 87 580 130 645 _c
173 709 236 742 318 742 _c
_cl}_d
/one{636 0 110 0 544 729 _sc
124 83 _m
285 83 _l
285 639 _l
110 604 _l
110 694 _l
284 729 _l
383 729 _l
383 83 _l
544 83 _l
544 0 _l
124 0 _l
124 83 _l
_cl}_d
/two{{636 0 73 0 536 742 _sc
192 83 _m
536 83 _l
536 0 _l
73 0 _l
73 83 _l
110 121 161 173 226 239 _c
290 304 331 346 348 365 _c
380 400 402 430 414 455 _c
426 479 433 504 433 528 _c
433 566 419 598 392 622 _c
365 646 330 659 286 659 _c
255 659 222 653 188 643 _c
154 632 117 616 78 594 _c
78 694 _l
118 710 155 722 189 730 _c
223 738 255 742 284 742 _c
}_e{359 742 419 723 464 685 _c
509 647 532 597 532 534 _c
532 504 526 475 515 449 _c
504 422 484 390 454 354 _c
446 344 420 317 376 272 _c
332 227 271 164 192 83 _c
_cl}_e}_d
/three{{636 0 76 -13 556 742 _sc
406 393 _m
453 383 490 362 516 330 _c
542 298 556 258 556 212 _c
556 140 531 84 482 45 _c
432 6 362 -13 271 -13 _c
240 -13 208 -10 176 -4 _c
144 1 110 10 76 22 _c
76 117 _l
103 101 133 89 166 81 _c
198 73 232 69 268 69 _c
330 69 377 81 409 105 _c
441 129 458 165 458 212 _c
458 254 443 288 413 312 _c
383 336 341 349 287 349 _c
}_e{202 349 _l
202 430 _l
291 430 _l
339 430 376 439 402 459 _c
428 478 441 506 441 543 _c
441 580 427 609 401 629 _c
374 649 336 659 287 659 _c
260 659 231 656 200 650 _c
169 644 135 635 98 623 _c
98 711 _l
135 721 170 729 203 734 _c
235 739 266 742 296 742 _c
370 742 429 725 473 691 _c
517 657 539 611 539 553 _c
539 513 527 479 504 451 _c
481 423 448 403 406 393 _c
_cl}_e}_d
/four{636 0 49 0 580 729 _sc
378 643 _m
129 254 _l
378 254 _l
378 643 _l
352 729 _m
476 729 _l
476 254 _l
580 254 _l
580 172 _l
476 172 _l
476 0 _l
378 0 _l
378 172 _l
49 172 _l
49 267 _l
352 729 _l
_cl}_d
/five{{636 0 77 -13 549 729 _sc
108 729 _m
495 729 _l
495 646 _l
198 646 _l
198 467 _l
212 472 227 476 241 478 _c
255 480 270 482 284 482 _c
365 482 429 459 477 415 _c
525 370 549 310 549 234 _c
549 155 524 94 475 51 _c
426 8 357 -13 269 -13 _c
238 -13 207 -10 175 -6 _c
143 -1 111 6 77 17 _c
77 116 _l
106 100 136 88 168 80 _c
199 72 232 69 267 69 _c
}_e{323 69 368 83 401 113 _c
433 143 450 183 450 234 _c
450 284 433 324 401 354 _c
368 384 323 399 267 399 _c
241 399 214 396 188 390 _c
162 384 135 375 108 363 _c
108 729 _l
_cl}_e}_d
/six{{636 0 70 -13 573 742 _sc
330 404 _m
286 404 251 388 225 358 _c
199 328 186 286 186 234 _c
186 181 199 139 225 109 _c
251 79 286 64 330 64 _c
374 64 409 79 435 109 _c
461 139 474 181 474 234 _c
474 286 461 328 435 358 _c
409 388 374 404 330 404 _c
526 713 _m
526 623 _l
501 635 476 644 451 650 _c
425 656 400 659 376 659 _c
310 659 260 637 226 593 _c
}_e{192 549 172 482 168 394 _c
187 422 211 444 240 459 _c
269 474 301 482 336 482 _c
409 482 467 459 509 415 _c
551 371 573 310 573 234 _c
573 159 550 99 506 54 _c
462 9 403 -13 330 -13 _c
246 -13 181 19 137 83 _c
92 147 70 241 70 364 _c
70 479 97 571 152 639 _c
206 707 280 742 372 742 _c
396 742 421 739 447 735 _c
472 730 498 723 526 713 _c
_cl}_e}_d
/seven{636 0 82 0 551 729 _sc
82 729 _m
551 729 _l
551 687 _l
286 0 _l
183 0 _l
432 646 _l
82 646 _l
82 729 _l
_cl}_d
/eight{{636 0 68 -13 568 742 _sc
318 346 _m
271 346 234 333 207 308 _c
180 283 167 249 167 205 _c
167 161 180 126 207 101 _c
234 76 271 64 318 64 _c
364 64 401 76 428 102 _c
455 127 469 161 469 205 _c
469 249 455 283 429 308 _c
402 333 365 346 318 346 _c
219 388 _m
177 398 144 418 120 447 _c
96 476 85 511 85 553 _c
85 611 105 657 147 691 _c
188 725 245 742 318 742 _c
}_e{390 742 447 725 489 691 _c
530 657 551 611 551 553 _c
551 511 539 476 515 447 _c
491 418 459 398 417 388 _c
464 377 501 355 528 323 _c
554 291 568 251 568 205 _c
568 134 546 80 503 43 _c
459 5 398 -13 318 -13 _c
237 -13 175 5 132 43 _c
89 80 68 134 68 205 _c
68 251 81 291 108 323 _c
134 355 171 377 219 388 _c
183 544 _m
183 506 194 476 218 455 _c
}_e{242 434 275 424 318 424 _c
360 424 393 434 417 455 _c
441 476 453 506 453 544 _c
453 582 441 611 417 632 _c
393 653 360 664 318 664 _c
275 664 242 653 218 632 _c
194 611 183 582 183 544 _c
_cl}_e}_d
/colon{337 0 117 0 220 517 _sc
117 124 _m
220 124 _l
220 0 _l
117 0 _l
117 124 _l
117 517 _m
220 517 _l
220 393 _l
117 393 _l
117 517 _l
_cl}_d
/A{684 0 8 0 676 729 _sc
342 632 _m
208 269 _l
476 269 _l
342 632 _l
286 729 _m
398 729 _l
676 0 _l
573 0 _l
507 187 _l
178 187 _l
112 0 _l
8 0 _l
286 729 _l
_cl}_d
/B{{686 0 98 0 615 729 _sc
197 348 _m
197 81 _l
355 81 _l
408 81 447 92 473 114 _c
498 136 511 169 511 215 _c
511 260 498 293 473 315 _c
447 337 408 348 355 348 _c
197 348 _l
197 648 _m
197 428 _l
343 428 _l
391 428 426 437 450 455 _c
474 473 486 500 486 538 _c
486 574 474 602 450 620 _c
426 638 391 648 343 648 _c
197 648 _l
98 729 _m
350 729 _l
}_e{425 729 483 713 524 682 _c
564 650 585 606 585 549 _c
585 504 574 468 553 442 _c
532 416 502 399 462 393 _c
510 382 548 360 575 327 _c
601 294 615 253 615 204 _c
615 138 592 88 548 53 _c
504 17 441 0 360 0 _c
98 0 _l
98 729 _l
_cl}_e}_d
/D{770 0 98 0 711 729 _sc
197 648 _m
197 81 _l
316 81 _l
416 81 490 103 537 149 _c
583 195 607 267 607 365 _c
607 463 583 534 537 580 _c
490 625 416 648 316 648 _c
197 648 _l
98 729 _m
301 729 _l
442 729 546 699 612 641 _c
678 582 711 490 711 365 _c
711 239 677 147 611 88 _c
545 29 441 0 301 0 _c
98 0 _l
98 729 _l
_cl}_d
/F{575 0 98 0 517 729 _sc
98 729 _m
517 729 _l
517 646 _l
197 646 _l
197 431 _l
486 431 _l
486 348 _l
197 348 _l
197 0 _l
98 0 _l
98 729 _l
_cl}_d
/G{{775 0 56 -13 693 742 _sc
595 104 _m
595 300 _l
434 300 _l
434 381 _l
693 381 _l
693 68 _l
655 40 613 20 567 7 _c
521 -6 472 -13 420 -13 _c
306 -13 216 20 152 86 _c
88 152 56 245 56 364 _c
56 482 88 575 152 642 _c
216 708 306 742 420 742 _c
467 742 512 736 555 724 _c
598 712 638 695 674 673 _c
674 568 _l
637 598 598 621 557 637 _c
516 653 473 661 428 661 _c
}_e{338 661 271 636 227 586 _c
182 536 160 462 160 364 _c
160 265 182 191 227 141 _c
271 91 338 67 428 67 _c
462 67 493 70 521 76 _c
549 82 573 91 595 104 _c
_cl}_e}_d
/H{752 0 98 0 654 729 _sc
98 729 _m
197 729 _l
197 430 _l
555 430 _l
555 729 _l
654 729 _l
654 0 _l
555 0 _l
555 347 _l
197 347 _l
197 0 _l
98 0 _l
98 729 _l
_cl}_d
/J{295 0 -51 -199 197 729 _sc
98 729 _m
197 729 _l
197 51 _l
197 -36 180 -99 147 -139 _c
113 -179 60 -199 -13 -199 _c
-51 -199 _l
-51 -116 _l
-20 -116 _l
22 -116 53 -103 71 -79 _c
89 -55 98 -11 98 51 _c
98 729 _l
_cl}_d
/L{557 0 98 0 552 729 _sc
98 729 _m
197 729 _l
197 83 _l
552 83 _l
552 0 _l
98 0 _l
98 729 _l
_cl}_d
/M{863 0 98 0 765 729 _sc
98 729 _m
245 729 _l
431 233 _l
618 729 _l
765 729 _l
765 0 _l
669 0 _l
669 640 _l
481 140 _l
382 140 _l
194 640 _l
194 0 _l
98 0 _l
98 729 _l
_cl}_d
/N{748 0 98 0 650 729 _sc
98 729 _m
231 729 _l
554 119 _l
554 729 _l
650 729 _l
650 0 _l
517 0 _l
194 610 _l
194 0 _l
98 0 _l
98 729 _l
_cl}_d
/O{787 0 56 -13 731 742 _sc
394 662 _m
322 662 265 635 223 582 _c
181 528 160 456 160 364 _c
160 272 181 199 223 146 _c
265 92 322 66 394 66 _c
465 66 522 92 564 146 _c
606 199 627 272 627 364 _c
627 456 606 528 564 582 _c
522 635 465 662 394 662 _c
394 742 _m
496 742 577 707 639 639 _c
700 571 731 479 731 364 _c
731 248 700 157 639 89 _c
577 21 496 -13 394 -13 _c
291 -13 209 21 148 89 _c
86 157 56 248 56 364 _c
56 479 86 571 148 639 _c
209 707 291 742 394 742 _c
_cl}_d
/R{{695 0 98 0 666 729 _sc
444 342 _m
465 334 486 319 506 296 _c
526 272 546 240 566 199 _c
666 0 _l
560 0 _l
467 187 _l
443 235 419 268 397 284 _c
374 300 343 308 304 308 _c
197 308 _l
197 0 _l
98 0 _l
98 729 _l
321 729 _l
404 729 466 711 507 677 _c
548 642 569 589 569 519 _c
569 473 558 434 537 404 _c
515 374 484 353 444 342 _c
197 648 _m
197 389 _l
321 389 _l
}_e{368 389 404 400 428 422 _c
452 444 465 476 465 519 _c
465 561 452 593 428 615 _c
404 637 368 648 321 648 _c
197 648 _l
_cl}_e}_d
/S{{635 0 66 -13 579 742 _sc
535 705 _m
535 609 _l
497 627 462 640 429 649 _c
395 657 363 662 333 662 _c
279 662 237 651 208 631 _c
179 610 165 580 165 542 _c
165 510 174 485 194 469 _c
213 452 250 439 304 429 _c
364 417 _l
437 403 491 378 526 343 _c
561 307 579 260 579 201 _c
579 130 555 77 508 41 _c
460 5 391 -13 300 -13 _c
265 -13 228 -9 189 -2 _c
}_e{150 5 110 16 69 32 _c
69 134 _l
109 111 148 94 186 83 _c
224 71 262 66 300 66 _c
356 66 399 77 430 99 _c
460 121 476 152 476 194 _c
476 230 465 258 443 278 _c
421 298 385 313 335 323 _c
275 335 _l
201 349 148 372 115 404 _c
82 435 66 478 66 534 _c
66 598 88 649 134 686 _c
179 723 242 742 322 742 _c
356 742 390 739 426 733 _c
461 727 497 717 535 705 _c
}_e{_cl}_e}_d
/V{684 0 8 0 676 729 _sc
286 0 _m
8 729 _l
111 729 _l
342 115 _l
573 729 _l
676 729 _l
398 0 _l
286 0 _l
_cl}_d
/W{989 0 33 0 956 729 _sc
33 729 _m
133 729 _l
286 113 _l
439 729 _l
550 729 _l
703 113 _l
856 729 _l
956 729 _l
773 0 _l
649 0 _l
495 633 _l
340 0 _l
216 0 _l
33 729 _l
_cl}_d
/underscore{500 0 -9 -235 510 -165 _sc
510 -165 _m
510 -235 _l
-9 -235 _l
-9 -165 _l
510 -165 _l
_cl}_d
/a{{613 0 60 -13 522 560 _sc
343 275 _m
270 275 220 266 192 250 _c
164 233 150 205 150 165 _c
150 133 160 107 181 89 _c
202 70 231 61 267 61 _c
317 61 357 78 387 114 _c
417 149 432 196 432 255 _c
432 275 _l
343 275 _l
522 312 _m
522 0 _l
432 0 _l
432 83 _l
411 49 385 25 355 10 _c
325 -5 287 -13 243 -13 _c
187 -13 142 2 109 33 _c
76 64 60 106 60 159 _c
}_e{60 220 80 266 122 298 _c
163 329 224 345 306 345 _c
432 345 _l
432 354 _l
432 395 418 427 391 450 _c
364 472 326 484 277 484 _c
245 484 215 480 185 472 _c
155 464 127 453 100 439 _c
100 522 _l
132 534 164 544 195 550 _c
226 556 256 560 286 560 _c
365 560 424 539 463 498 _c
502 457 522 395 522 312 _c
_cl}_e}_d
/b{{635 0 91 -13 580 760 _sc
487 273 _m
487 339 473 390 446 428 _c
418 466 381 485 334 485 _c
286 485 249 466 222 428 _c
194 390 181 339 181 273 _c
181 207 194 155 222 117 _c
249 79 286 61 334 61 _c
381 61 418 79 446 117 _c
473 155 487 207 487 273 _c
181 464 _m
199 496 223 520 252 536 _c
281 552 316 560 356 560 _c
422 560 476 533 518 481 _c
559 428 580 359 580 273 _c
}_e{580 187 559 117 518 65 _c
476 13 422 -13 356 -13 _c
316 -13 281 -5 252 10 _c
223 25 199 49 181 82 _c
181 0 _l
91 0 _l
91 760 _l
181 760 _l
181 464 _l
_cl}_e}_d
/c{{550 0 55 -13 488 560 _sc
488 526 _m
488 442 _l
462 456 437 466 411 473 _c
385 480 360 484 334 484 _c
276 484 230 465 198 428 _c
166 391 150 339 150 273 _c
150 206 166 154 198 117 _c
230 80 276 62 334 62 _c
360 62 385 65 411 72 _c
437 79 462 90 488 104 _c
488 21 _l
462 9 436 0 410 -5 _c
383 -10 354 -13 324 -13 _c
242 -13 176 12 128 64 _c
}_e{79 115 55 185 55 273 _c
55 362 79 432 128 483 _c
177 534 244 560 330 560 _c
358 560 385 557 411 551 _c
437 545 463 537 488 526 _c
_cl}_e}_d
/d{{635 0 55 -13 544 760 _sc
454 464 _m
454 760 _l
544 760 _l
544 0 _l
454 0 _l
454 82 _l
435 49 411 25 382 10 _c
353 -5 319 -13 279 -13 _c
213 -13 159 13 117 65 _c
75 117 55 187 55 273 _c
55 359 75 428 117 481 _c
159 533 213 560 279 560 _c
319 560 353 552 382 536 _c
411 520 435 496 454 464 _c
148 273 _m
148 207 161 155 188 117 _c
215 79 253 61 301 61 _c
}_e{348 61 385 79 413 117 _c
440 155 454 207 454 273 _c
454 339 440 390 413 428 _c
385 466 348 485 301 485 _c
253 485 215 466 188 428 _c
161 390 148 339 148 273 _c
_cl}_e}_d
/e{{615 0 55 -13 562 560 _sc
562 296 _m
562 252 _l
149 252 _l
153 190 171 142 205 110 _c
238 78 284 62 344 62 _c
378 62 412 66 444 74 _c
476 82 509 95 541 113 _c
541 28 _l
509 14 476 3 442 -3 _c
408 -9 373 -13 339 -13 _c
251 -13 182 12 131 62 _c
80 112 55 181 55 268 _c
55 357 79 428 127 481 _c
175 533 241 560 323 560 _c
397 560 455 536 498 489 _c
}_e{540 441 562 377 562 296 _c
472 322 _m
471 371 457 410 431 440 _c
404 469 368 484 324 484 _c
274 484 234 469 204 441 _c
174 413 156 373 152 322 _c
472 322 _l
_cl}_e}_d
/f{352 0 23 0 371 760 _sc
371 760 _m
371 685 _l
285 685 _l
253 685 230 678 218 665 _c
205 652 199 629 199 595 _c
199 547 _l
347 547 _l
347 477 _l
199 477 _l
199 0 _l
109 0 _l
109 477 _l
23 477 _l
23 547 _l
109 547 _l
109 585 _l
109 645 123 690 151 718 _c
179 746 224 760 286 760 _c
371 760 _l
_cl}_d
/g{{635 0 55 -207 544 560 _sc
454 280 _m
454 344 440 395 414 431 _c
387 467 349 485 301 485 _c
253 485 215 467 188 431 _c
161 395 148 344 148 280 _c
148 215 161 165 188 129 _c
215 93 253 75 301 75 _c
349 75 387 93 414 129 _c
440 165 454 215 454 280 _c
544 68 _m
544 -24 523 -93 482 -139 _c
440 -184 377 -207 292 -207 _c
260 -207 231 -204 203 -200 _c
175 -195 147 -188 121 -178 _c
}_e{121 -91 _l
147 -105 173 -115 199 -122 _c
225 -129 251 -133 278 -133 _c
336 -133 380 -117 410 -87 _c
439 -56 454 -10 454 52 _c
454 96 _l
435 64 411 40 382 24 _c
353 8 319 0 279 0 _c
211 0 157 25 116 76 _c
75 127 55 195 55 280 _c
55 364 75 432 116 483 _c
157 534 211 560 279 560 _c
319 560 353 552 382 536 _c
411 520 435 496 454 464 _c
454 547 _l
544 547 _l
}_e{544 68 _l
_cl}_e}_d
/h{634 0 91 0 549 760 _sc
549 330 _m
549 0 _l
459 0 _l
459 327 _l
459 379 448 417 428 443 _c
408 469 378 482 338 482 _c
289 482 251 466 223 435 _c
195 404 181 362 181 309 _c
181 0 _l
91 0 _l
91 760 _l
181 760 _l
181 462 _l
202 494 227 519 257 535 _c
286 551 320 560 358 560 _c
420 560 468 540 500 501 _c
532 462 549 405 549 330 _c
_cl}_d
/i{278 0 94 0 184 760 _sc
94 547 _m
184 547 _l
184 0 _l
94 0 _l
94 547 _l
94 760 _m
184 760 _l
184 646 _l
94 646 _l
94 760 _l
_cl}_d
/k{579 0 91 0 576 760 _sc
91 760 _m
181 760 _l
181 311 _l
449 547 _l
564 547 _l
274 291 _l
576 0 _l
459 0 _l
181 267 _l
181 0 _l
91 0 _l
91 760 _l
_cl}_d
/l{278 0 94 0 184 760 _sc
94 760 _m
184 760 _l
184 0 _l
94 0 _l
94 760 _l
_cl}_d
/m{{974 0 91 0 889 560 _sc
520 442 _m
542 482 569 511 600 531 _c
631 550 668 560 711 560 _c
767 560 811 540 842 500 _c
873 460 889 403 889 330 _c
889 0 _l
799 0 _l
799 327 _l
799 379 789 418 771 444 _c
752 469 724 482 686 482 _c
639 482 602 466 575 435 _c
548 404 535 362 535 309 _c
535 0 _l
445 0 _l
445 327 _l
445 379 435 418 417 444 _c
398 469 369 482 331 482 _c
}_e{285 482 248 466 221 435 _c
194 404 181 362 181 309 _c
181 0 _l
91 0 _l
91 547 _l
181 547 _l
181 462 _l
201 495 226 520 255 536 _c
283 552 317 560 357 560 _c
397 560 430 550 458 530 _c
486 510 506 480 520 442 _c
_cl}_e}_d
/n{634 0 91 0 549 560 _sc
549 330 _m
549 0 _l
459 0 _l
459 327 _l
459 379 448 417 428 443 _c
408 469 378 482 338 482 _c
289 482 251 466 223 435 _c
195 404 181 362 181 309 _c
181 0 _l
91 0 _l
91 547 _l
181 547 _l
181 462 _l
202 494 227 519 257 535 _c
286 551 320 560 358 560 _c
420 560 468 540 500 501 _c
532 462 549 405 549 330 _c
_cl}_d
/o{612 0 55 -13 557 560 _sc
306 484 _m
258 484 220 465 192 427 _c
164 389 150 338 150 273 _c
150 207 163 156 191 118 _c
219 80 257 62 306 62 _c
354 62 392 80 420 118 _c
448 156 462 207 462 273 _c
462 337 448 389 420 427 _c
392 465 354 484 306 484 _c
306 560 _m
384 560 445 534 490 484 _c
534 433 557 363 557 273 _c
557 183 534 113 490 63 _c
445 12 384 -13 306 -13 _c
227 -13 165 12 121 63 _c
77 113 55 183 55 273 _c
55 363 77 433 121 484 _c
165 534 227 560 306 560 _c
_cl}_d
/p{{635 0 91 -207 580 560 _sc
181 82 _m
181 -207 _l
91 -207 _l
91 547 _l
181 547 _l
181 464 _l
199 496 223 520 252 536 _c
281 552 316 560 356 560 _c
422 560 476 533 518 481 _c
559 428 580 359 580 273 _c
580 187 559 117 518 65 _c
476 13 422 -13 356 -13 _c
316 -13 281 -5 252 10 _c
223 25 199 49 181 82 _c
487 273 _m
487 339 473 390 446 428 _c
418 466 381 485 334 485 _c
}_e{286 485 249 466 222 428 _c
194 390 181 339 181 273 _c
181 207 194 155 222 117 _c
249 79 286 61 334 61 _c
381 61 418 79 446 117 _c
473 155 487 207 487 273 _c
_cl}_e}_d
/r{411 0 91 0 411 560 _sc
411 463 _m
401 469 390 473 378 476 _c
366 478 353 480 339 480 _c
288 480 249 463 222 430 _c
194 397 181 350 181 288 _c
181 0 _l
91 0 _l
91 547 _l
181 547 _l
181 462 _l
199 495 224 520 254 536 _c
284 552 321 560 365 560 _c
371 560 378 559 386 559 _c
393 558 401 557 411 555 _c
411 463 _l
_cl}_d
/s{{521 0 54 -13 472 560 _sc
443 531 _m
443 446 _l
417 458 391 468 364 475 _c
336 481 308 485 279 485 _c
234 485 200 478 178 464 _c
156 450 145 430 145 403 _c
145 382 153 366 169 354 _c
185 342 217 330 265 320 _c
296 313 _l
360 299 405 279 432 255 _c
458 230 472 195 472 151 _c
472 100 452 60 412 31 _c
372 1 316 -13 246 -13 _c
216 -13 186 -10 154 -5 _c
}_e{122 0 89 8 54 20 _c
54 113 _l
87 95 120 82 152 74 _c
184 65 216 61 248 61 _c
290 61 323 68 346 82 _c
368 96 380 117 380 144 _c
380 168 371 187 355 200 _c
339 213 303 226 247 238 _c
216 245 _l
160 257 119 275 95 299 _c
70 323 58 356 58 399 _c
58 450 76 490 112 518 _c
148 546 200 560 268 560 _c
301 560 332 557 362 552 _c
391 547 418 540 443 531 _c
}_e{_cl}_e}_d
/t{392 0 27 0 368 702 _sc
183 702 _m
183 547 _l
368 547 _l
368 477 _l
183 477 _l
183 180 _l
183 135 189 106 201 94 _c
213 81 238 75 276 75 _c
368 75 _l
368 0 _l
276 0 _l
206 0 158 13 132 39 _c
106 65 93 112 93 180 _c
93 477 _l
27 477 _l
27 547 _l
93 547 _l
93 702 _l
183 702 _l
_cl}_d
/u{634 0 85 -13 543 560 _sc
85 216 _m
85 547 _l
175 547 _l
175 219 _l
175 167 185 129 205 103 _c
225 77 255 64 296 64 _c
344 64 383 79 411 110 _c
439 141 453 183 453 237 _c
453 547 _l
543 547 _l
543 0 _l
453 0 _l
453 84 _l
431 50 405 26 377 10 _c
348 -5 315 -13 277 -13 _c
214 -13 166 6 134 45 _c
101 83 85 140 85 216 _c
311 560 _m
311 560 _l
_cl}_d
/v{592 0 30 0 562 547 _sc
30 547 _m
125 547 _l
296 88 _l
467 547 _l
562 547 _l
357 0 _l
235 0 _l
30 547 _l
_cl}_d
/w{818 0 42 0 776 547 _sc
42 547 _m
132 547 _l
244 120 _l
356 547 _l
462 547 _l
574 120 _l
686 547 _l
776 547 _l
633 0 _l
527 0 _l
409 448 _l
291 0 _l
185 0 _l
42 547 _l
_cl}_d
/y{592 0 30 -207 562 547 _sc
322 -50 _m
296 -114 271 -157 247 -177 _c
223 -197 191 -207 151 -207 _c
79 -207 _l
79 -132 _l
132 -132 _l
156 -132 175 -126 189 -114 _c
203 -102 218 -75 235 -31 _c
251 9 _l
30 547 _l
125 547 _l
296 119 _l
467 547 _l
562 547 _l
322 -50 _l
_cl}_d
/z{525 0 43 0 482 547 _sc
55 547 _m
482 547 _l
482 465 _l
144 72 _l
482 72 _l
482 0 _l
43 0 _l
43 82 _l
381 475 _l
55 475 _l
55 547 _l
_cl}_d
end readonly def

/BuildGlyph
 {exch begin
 CharStrings exch
 2 copy known not{pop /.notdef}if
 true 3 1 roll get exec
 end}_d

/BuildChar {
 1 index /Encoding get exch get
 1 index /BuildGlyph get exec
}_d

FontName currentdict end definefont pop
end
%%EndProlog
mpldict begin
-54 108 translate
720 576 0 0 clipbox
gsave
0 0 m
720 0 l
720 576 l
0 576 l
cl
grestore
gsave
47.8 289.929 m
679.2625 289.929 l
679.2625 554.2 l
47.8 554.2 l
cl
1.000 setgray
fill
grestore
gsave
631.5 264.3 47.8 289.9 clipbox
63.586562 289.929 m
95.159688 289.929 l
95.159688 289.929 l
63.586562 289.929 l
cl
0.122 0.467 0.706 setrgbcolor
fill
grestore
gsave
631.5 264.3 47.8 289.9 clipbox
126.732812 289.929 m
158.305937 289.929 l
158.305937 289.929 l
126.732812 289.929 l
cl
0.122 0.467 0.706 setrgbcolor
fill
grestore
gsave
631.5 264.3 47.8 289.9 clipbox
189.879063 289.929 m
221.452188 289.929 l
221.452188 289.929 l
189.879063 289.929 l
cl
0.122 0.467 0.706 setrgbcolor
fill
grestore
gsave
631.5 264.3 47.8 289.9 clipbox
253.025312 289.929 m
284.598437 289.929 l
284.598437 316.536453 l
253.025312 316.536453 l
cl
0.122 0.467 0.706 setrgbcolor
fill
grestore
gsave
631.5 264.3 47.8 289.9 clipbox
316.171562 289.929 m
347.744687 289.929 l
347.744687 315.144545 l
316.171562 315.144545 l
cl
0.122 0.467 0.706 setrgbcolor
fill
grestore
gsave
631.5 264.3 47.8 289.9 clipbox
379.317813 289.929 m
410.890938 289.929 l
410.890938 337.002566 l
379.317813 337.002566 l
cl
0.122 0.467 0.706 setrgbcolor
fill
grestore
gsave
631.5 264.3 47.8 289.9 clipbox
442.464063 289.929 m
474.037188 289.929 l
474.037188 299.012756 l
442.464063 299.012756 l
cl
0.122 0.467 0.706 setrgbcolor
fill
grestore
gsave
631.5 264.3 47.8 289.9 clipbox
505.610313 289.929 m
537.183437 289.929 l
537.183437 289.986524 l
505.610313 289.986524 l
cl
0.122 0.467 0.706 setrgbcolor
fill
grestore
gsave
631.5 264.3 47.8 289.9 clipbox
568.756562 289.929 m
600.329687 289.929 l
600.329687 290.056449 l
568.756562 290.056449 l
cl
0.122 0.467 0.706 setrgbcolor
fill
grestore
gsave
631.5 264.3 47.8 289.9 clipbox
631.902812 289.929 m
663.475937 289.929 l
663.475937 290.0233 l
631.902812 290.0233 l
cl
0.122 0.467 0.706 setrgbcolor
fill
grestore
gsave
631.5 264.3 47.8 289.9 clipbox
63.586562 289.929 m
95.159688 289.929 l
95.159688 289.929 l
63.586562 289.929 l
cl
1.000 0.498 0.055 setrgbcolor
fill
grestore
gsave
631.5 264.3 47.8 289.9 clipbox
126.732812 289.929 m
158.305937 289.929 l
158.305937 289.929 l
126.732812 289.929 l
cl
1.000 0.498 0.055 setrgbcolor
fill
grestore
gsave
631.5 264.3 47.8 289.9 clipbox
189.879063 289.929 m
221.452188 289.929 l
221.452188 289.929 l
189.879063 289.929 l
cl
1.000 0.498 0.055 setrgbcolor
fill
grestore
gsave
631.5 264.3 47.8 289.9 clipbox
253.025312 289.929 m
284.598437 289.929 l
284.598437 289.929 l
253.025312 289.929 l
cl
1.000 0.498 0.055 setrgbcolor
fill
grestore
gsave
631.5 264.3 47.8 289.9 clipbox
316.171562 289.929 m
347.744687 289.929 l
347.744687 289.929 l
316.171562 289.929 l
cl
1.000 0.498 0.055 setrgbcolor
fill
grestore
gsave
631.5 264.3 47.8 289.9 clipbox
379.317813 289.929 m
410.890938 289.929 l
410.890938 289.929 l
379.317813 289.929 l
cl
1.000 0.498 0.055 setrgbcolor
fill
grestore
gsave
631.5 264.3 47.8 289.9 clipbox
442.464063 289.929 m
474.037188 289.929 l
474.037188 289.929 l
442.464063 289.929 l
cl
1.000 0.498 0.055 setrgbcolor
fill
grestore
gsave
631.5 264.3 47.8 289.9 clipbox
505.610313 289.929 m
537.183437 289.929 l
537.183437 289.929 l
505.610313 289.929 l
cl
1.000 0.498 0.055 setrgbcolor
fill
grestore
gsave
631.5 264.3 47.8 289.9 clipbox
568.756562 290.056449 m
600.329687 290.056449 l
600.329687 361.786717 l
568.756562 361.786717 l
cl
1.000 0.498 0.055 setrgbcolor
fill
grestore
gsave
631.5 264.3 47.8 289.9 clipbox
631.902812 289.929 m
663.475937 289.929 l
663.475937 289.929 l
631.902812 289.929 l
cl
1.000 0.498 0.055 setrgbcolor
fill
grestore
gsave
631.5 264.3 47.8 289.9 clipbox
63.586562 289.929 m
95.159688 289.929 l
95.159688 289.929 l
63.586562 289.929 l
cl
0.173 0.627 0.173 setrgbcolor
fill
grestore
gsave
631.5 264.3 47.8 289.9 clipbox
126.732812 289.929 m
158.305937 289.929 l
158.305937 289.929 l
126.732812 289.929 l
cl
0.173 0.627 0.173 setrgbcolor
fill
grestore
gsave
631.5 264.3 47.8 289.9 clipbox
189.879063 289.929 m
221.452188 289.929 l
221.452188 327.590248 l
189.879063 327.590248 l
cl
0.173 0.627 0.173 setrgbcolor
fill
grestore
gsave
631.5 264.3 47.8 289.9 clipbox
253.025312 316.536453 m
284.598437 316.536453 l
284.598437 349.42034 l
253.025312 349.42034 l
cl
0.173 0.627 0.173 setrgbcolor
fill
grestore
gsave
631.5 264.3 47.8 289.9 clipbox
316.171562 315.144545 m
347.744687 315.144545 l
347.744687 318.175283 l
316.171562 318.175283 l
cl
0.173 0.627 0.173 setrgbcolor
fill
grestore
gsave
631.5 264.3 47.8 289.9 clipbox
379.317813 337.002566 m
410.890938 337.002566 l
410.890938 337.042693 l
379.317813 337.042693 l
cl
0.173 0.627 0.173 setrgbcolor
fill
grestore
gsave
631.5 264.3 47.8 289.9 clipbox
442.464063 289.929 m
474.037188 289.929 l
474.037188 289.929 l
442.464063 289.929 l
cl
0.173 0.627 0.173 setrgbcolor
fill
grestore
gsave
631.5 264.3 47.8 289.9 clipbox
505.610313 289.986524 m
537.183437 289.986524 l
537.183437 292.023526 l
505.610313 292.023526 l
cl
0.173 0.627 0.173 setrgbcolor
fill
grestore
gsave
631.5 264.3 47.8 289.9 clipbox
568.756562 361.786717 m
600.329687 361.786717 l
600.329687 361.804873 l
568.756562 361.804873 l
cl
0.173 0.627 0.173 setrgbcolor
fill
grestore
gsave
631.5 264.3 47.8 289.9 clipbox
631.902812 289.929 m
663.475937 289.929 l
663.475937 289.929 l
631.902812 289.929 l
cl
0.173 0.627 0.173 setrgbcolor
fill
grestore
gsave
631.5 264.3 47.8 289.9 clipbox
63.586562 289.929 m
95.159688 289.929 l
95.159688 289.929 l
63.586562 289.929 l
cl
0.839 0.153 0.157 setrgbcolor
fill
grestore
gsave
631.5 264.3 47.8 289.9 clipbox
126.732812 289.929 m
158.305937 289.929 l
158.305937 289.929 l
126.732812 289.929 l
cl
0.839 0.153 0.157 setrgbcolor
fill
grestore
gsave
631.5 264.3 47.8 289.9 clipbox
189.879063 289.929 m
221.452188 289.929 l
221.452188 289.929 l
189.879063 289.929 l
cl
0.839 0.153 0.157 setrgbcolor
fill
grestore
gsave
631.5 264.3 47.8 289.9 clipbox
253.025312 289.929 m
284.598437 289.929 l
284.598437 289.929 l
253.025312 289.929 l
cl
0.839 0.153 0.157 setrgbcolor
fill
grestore
gsave
631.5 264.3 47.8 289.9 clipbox
316.171562 289.929 m
347.744687 289.929 l
347.744687 289.929 l
316.171562 289.929 l
cl
0.839 0.153 0.157 setrgbcolor
fill
grestore
gsave
631.5 264.3 47.8 289.9 clipbox
379.317813 289.929 m
410.890938 289.929 l
410.890938 289.929 l
379.317813 289.929 l
cl
0.839 0.153 0.157 setrgbcolor
fill
grestore
gsave
631.5 264.3 47.8 289.9 clipbox
442.464063 299.012756 m
474.037188 299.012756 l
474.037188 314.911227 l
442.464063 314.911227 l
cl
0.839 0.153 0.157 setrgbcolor
fill
grestore
gsave
631.5 264.3 47.8 289.9 clipbox
505.610313 292.023526 m
537.183437 292.023526 l
537.183437 317.216028 l
505.610313 317.216028 l
cl
0.839 0.153 0.157 setrgbcolor
fill
grestore
gsave
631.5 264.3 47.8 289.9 clipbox
568.756562 361.804873 m
600.329687 361.804873 l
600.329687 408.470606 l
568.756562 408.470606 l
cl
0.839 0.153 0.157 setrgbcolor
fill
grestore
gsave
631.5 264.3 47.8 289.9 clipbox
631.902812 290.0233 m
663.475937 290.0233 l
663.475937 313.549469 l
631.902812 313.549469 l
cl
0.839 0.153 0.157 setrgbcolor
fill
grestore
gsave
631.5 264.3 47.8 289.9 clipbox
63.586562 289.929 m
95.159688 289.929 l
95.159688 289.929 l
63.586562 289.929 l
cl
0.580 0.404 0.741 setrgbcolor
fill
grestore
gsave
631.5 264.3 47.8 289.9 clipbox
126.732812 289.929 m
158.305937 289.929 l
158.305937 289.929 l
126.732812 289.929 l
cl
0.580 0.404 0.741 setrgbcolor
fill
grestore
gsave
631.5 264.3 47.8 289.9 clipbox
189.879063 289.929 m
221.452188 289.929 l
221.452188 289.929 l
189.879063 289.929 l
cl
0.580 0.404 0.741 setrgbcolor
fill
grestore
gsave
631.5 264.3 47.8 289.9 clipbox
253.025312 289.929 m
284.598437 289.929 l
284.598437 289.929 l
253.025312 289.929 l
cl
0.580 0.404 0.741 setrgbcolor
fill
grestore
gsave
631.5 264.3 47.8 289.9 clipbox
316.171562 289.929 m
347.744687 289.929 l
347.744687 289.929 l
316.171562 289.929 l
cl
0.580 0.404 0.741 setrgbcolor
fill
grestore
gsave
631.5 264.3 47.8 289.9 clipbox
379.317813 289.929 m
410.890938 289.929 l
410.890938 289.929 l
379.317813 289.929 l
cl
0.580 0.404 0.741 setrgbcolor
fill
grestore
gsave
631.5 264.3 47.8 289.9 clipbox
442.464063 289.929 m
474.037188 289.929 l
474.037188 289.929 l
442.464063 289.929 l
cl
0.580 0.404 0.741 setrgbcolor
fill
grestore
gsave
631.5 264.3 47.8 289.9 clipbox
505.610313 289.929 m
537.183437 289.929 l
537.183437 289.929 l
505.610313 289.929 l
cl
0.580 0.404 0.741 setrgbcolor
fill
grestore
gsave
631.5 264.3 47.8 289.9 clipbox
568.756562 408.470606 m
600.329687 408.470606 l
600.329687 479.696667 l
568.756562 479.696667 l
cl
0.580 0.404 0.741 setrgbcolor
fill
grestore
gsave
631.5 264.3 47.8 289.9 clipbox
631.902812 313.549469 m
663.475937 313.549469 l
663.475937 313.767258 l
631.902812 313.767258 l
cl
0.580 0.404 0.741 setrgbcolor
fill
grestore
gsave
631.5 264.3 47.8 289.9 clipbox
63.586562 289.929 m
95.159688 289.929 l
95.159688 292.377074 l
63.586562 292.377074 l
cl
0.549 0.337 0.294 setrgbcolor
fill
grestore
gsave
631.5 264.3 47.8 289.9 clipbox
126.732812 289.929 m
158.305937 289.929 l
158.305937 324.043124 l
126.732812 324.043124 l
cl
0.549 0.337 0.294 setrgbcolor
fill
grestore
gsave
631.5 264.3 47.8 289.9 clipbox
189.879063 327.590248 m
221.452188 327.590248 l
221.452188 390.080844 l
189.879063 390.080844 l
cl
0.549 0.337 0.294 setrgbcolor
fill
grestore
gsave
631.5 264.3 47.8 289.9 clipbox
253.025312 349.42034 m
284.598437 349.42034 l
284.598437 435.866834 l
253.025312 435.866834 l
cl
0.549 0.337 0.294 setrgbcolor
fill
grestore
gsave
631.5 264.3 47.8 289.9 clipbox
316.171562 318.175283 m
347.744687 318.175283 l
347.744687 342.26794 l
316.171562 342.26794 l
cl
0.549 0.337 0.294 setrgbcolor
fill
grestore
gsave
631.5 264.3 47.8 289.9 clipbox
379.317813 337.042693 m
410.890938 337.042693 l
410.890938 359.945997 l
379.317813 359.945997 l
cl
0.549 0.337 0.294 setrgbcolor
fill
grestore
gsave
631.5 264.3 47.8 289.9 clipbox
442.464063 314.911227 m
474.037188 314.911227 l
474.037188 426.434601 l
442.464063 426.434601 l
cl
0.549 0.337 0.294 setrgbcolor
fill
grestore
gsave
631.5 264.3 47.8 289.9 clipbox
505.610313 317.216028 m
537.183437 317.216028 l
537.183437 327.79882 l
505.610313 327.79882 l
cl
0.549 0.337 0.294 setrgbcolor
fill
grestore
gsave
631.5 264.3 47.8 289.9 clipbox
568.756562 479.696667 m
600.329687 479.696667 l
600.329687 479.696907 l
568.756562 479.696907 l
cl
0.549 0.337 0.294 setrgbcolor
fill
grestore
gsave
631.5 264.3 47.8 289.9 clipbox
631.902812 289.929 m
663.475937 289.929 l
663.475937 289.929 l
631.902812 289.929 l
cl
0.549 0.337 0.294 setrgbcolor
fill
grestore
gsave
631.5 264.3 47.8 289.9 clipbox
63.586562 289.929 m
95.159688 289.929 l
95.159688 289.929 l
63.586562 289.929 l
cl
0.890 0.467 0.761 setrgbcolor
fill
grestore
gsave
631.5 264.3 47.8 289.9 clipbox
126.732812 289.929 m
158.305937 289.929 l
158.305937 289.929 l
126.732812 289.929 l
cl
0.890 0.467 0.761 setrgbcolor
fill
grestore
gsave
631.5 264.3 47.8 289.9 clipbox
189.879063 289.929 m
221.452188 289.929 l
221.452188 289.929 l
189.879063 289.929 l
cl
0.890 0.467 0.761 setrgbcolor
fill
grestore
gsave
631.5 264.3 47.8 289.9 clipbox
253.025312 435.866834 m
284.598437 435.866834 l
284.598437 438.641767 l
253.025312 438.641767 l
cl
0.890 0.467 0.761 setrgbcolor
fill
grestore
gsave
631.5 264.3 47.8 289.9 clipbox
316.171562 342.26794 m
347.744687 342.26794 l
347.744687 365.454219 l
316.171562 365.454219 l
cl
0.890 0.467 0.761 setrgbcolor
fill
grestore
gsave
631.5 264.3 47.8 289.9 clipbox
379.317813 359.945997 m
410.890938 359.945997 l
410.890938 361.212363 l
379.317813 361.212363 l
cl
0.890 0.467 0.761 setrgbcolor
fill
grestore
gsave
631.5 264.3 47.8 289.9 clipbox
442.464063 426.434601 m
474.037188 426.434601 l
474.037188 437.440773 l
442.464063 437.440773 l
cl
0.890 0.467 0.761 setrgbcolor
fill
grestore
gsave
631.5 264.3 47.8 289.9 clipbox
505.610313 327.79882 m
537.183437 327.79882 l
537.183437 378.923143 l
505.610313 378.923143 l
cl
0.890 0.467 0.761 setrgbcolor
fill
grestore
gsave
631.5 264.3 47.8 289.9 clipbox
568.756562 479.696907 m
600.329687 479.696907 l
600.329687 517.411515 l
568.756562 517.411515 l
cl
0.890 0.467 0.761 setrgbcolor
fill
grestore
gsave
631.5 264.3 47.8 289.9 clipbox
631.902812 313.767258 m
663.475937 313.767258 l
663.475937 315.717899 l
631.902812 315.717899 l
cl
0.890 0.467 0.761 setrgbcolor
fill
grestore
gsave
631.5 264.3 47.8 289.9 clipbox
63.586562 289.929 m
95.159688 289.929 l
95.159688 289.929 l
63.586562 289.929 l
cl
0.498 setgray
fill
grestore
gsave
631.5 264.3 47.8 289.9 clipbox
126.732812 289.929 m
158.305937 289.929 l
158.305937 289.929 l
126.732812 289.929 l
cl
0.498 setgray
fill
grestore
gsave
631.5 264.3 47.8 289.9 clipbox
189.879063 289.929 m
221.452188 289.929 l
221.452188 289.929 l
189.879063 289.929 l
cl
0.498 setgray
fill
grestore
gsave
631.5 264.3 47.8 289.9 clipbox
253.025312 289.929 m
284.598437 289.929 l
284.598437 289.929 l
253.025312 289.929 l
cl
0.498 setgray
fill
grestore
gsave
631.5 264.3 47.8 289.9 clipbox
316.171562 289.929 m
347.744687 289.929 l
347.744687 289.929 l
316.171562 289.929 l
cl
0.498 setgray
fill
grestore
gsave
631.5 264.3 47.8 289.9 clipbox
379.317813 289.929 m
410.890938 289.929 l
410.890938 289.929 l
379.317813 289.929 l
cl
0.498 setgray
fill
grestore
gsave
631.5 264.3 47.8 289.9 clipbox
442.464063 437.440773 m
474.037188 437.440773 l
474.037188 541.615667 l
442.464063 541.615667 l
cl
0.498 setgray
fill
grestore
gsave
631.5 264.3 47.8 289.9 clipbox
505.610313 378.923143 m
537.183437 378.923143 l
537.183437 378.953256 l
505.610313 378.953256 l
cl
0.498 setgray
fill
grestore
gsave
631.5 264.3 47.8 289.9 clipbox
568.756562 289.929 m
600.329687 289.929 l
600.329687 289.929 l
568.756562 289.929 l
cl
0.498 setgray
fill
grestore
gsave
631.5 264.3 47.8 289.9 clipbox
631.902812 289.929 m
663.475937 289.929 l
663.475937 289.929 l
631.902812 289.929 l
cl
0.498 setgray
fill
grestore
gsave
631.5 264.3 47.8 289.9 clipbox
63.586562 289.929 m
95.159688 289.929 l
95.159688 289.929 l
63.586562 289.929 l
cl
0.737 0.741 0.133 setrgbcolor
fill
grestore
gsave
631.5 264.3 47.8 289.9 clipbox
126.732812 289.929 m
158.305937 289.929 l
158.305937 289.929 l
126.732812 289.929 l
cl
0.737 0.741 0.133 setrgbcolor
fill
grestore
gsave
631.5 264.3 47.8 289.9 clipbox
189.879063 289.929 m
221.452188 289.929 l
221.452188 289.929 l
189.879063 289.929 l
cl
0.737 0.741 0.133 setrgbcolor
fill
grestore
gsave
631.5 264.3 47.8 289.9 clipbox
253.025312 289.929 m
284.598437 289.929 l
284.598437 289.929 l
253.025312 289.929 l
cl
0.737 0.741 0.133 setrgbcolor
fill
grestore
gsave
631.5 264.3 47.8 289.9 clipbox
316.171562 289.929 m
347.744687 289.929 l
347.744687 289.929 l
316.171562 289.929 l
cl
0.737 0.741 0.133 setrgbcolor
fill
grestore
gsave
631.5 264.3 47.8 289.9 clipbox
379.317813 289.929 m
410.890938 289.929 l
410.890938 289.929 l
379.317813 289.929 l
cl
0.737 0.741 0.133 setrgbcolor
fill
grestore
gsave
631.5 264.3 47.8 289.9 clipbox
442.464063 289.929 m
474.037188 289.929 l
474.037188 289.929 l
442.464063 289.929 l
cl
0.737 0.741 0.133 setrgbcolor
fill
grestore
gsave
631.5 264.3 47.8 289.9 clipbox
505.610313 378.953256 m
537.183437 378.953256 l
537.183437 449.546014 l
505.610313 449.546014 l
cl
0.737 0.741 0.133 setrgbcolor
fill
grestore
gsave
631.5 264.3 47.8 289.9 clipbox
568.756562 517.411515 m
600.329687 517.411515 l
600.329687 517.412126 l
568.756562 517.412126 l
cl
0.737 0.741 0.133 setrgbcolor
fill
grestore
gsave
631.5 264.3 47.8 289.9 clipbox
631.902812 289.929 m
663.475937 289.929 l
663.475937 289.929 l
631.902812 289.929 l
cl
0.737 0.741 0.133 setrgbcolor
fill
grestore
gsave
631.5 264.3 47.8 289.9 clipbox
63.586562 289.929 m
95.159688 289.929 l
95.159688 289.929 l
63.586562 289.929 l
cl
0.090 0.745 0.812 setrgbcolor
fill
grestore
gsave
631.5 264.3 47.8 289.9 clipbox
126.732812 289.929 m
158.305937 289.929 l
158.305937 289.929 l
126.732812 289.929 l
cl
0.090 0.745 0.812 setrgbcolor
fill
grestore
gsave
631.5 264.3 47.8 289.9 clipbox
189.879063 289.929 m
221.452188 289.929 l
221.452188 289.929 l
189.879063 289.929 l
cl
0.090 0.745 0.812 setrgbcolor
fill
grestore
gsave
631.5 264.3 47.8 289.9 clipbox
253.025312 438.641767 m
284.598437 438.641767 l
284.598437 488.715588 l
253.025312 488.715588 l
cl
0.090 0.745 0.812 setrgbcolor
fill
grestore
gsave
631.5 264.3 47.8 289.9 clipbox
316.171562 365.454219 m
347.744687 365.454219 l
347.744687 365.454608 l
316.171562 365.454608 l
cl
0.090 0.745 0.812 setrgbcolor
fill
grestore
gsave
631.5 264.3 47.8 289.9 clipbox
379.317813 361.212363 m
410.890938 361.212363 l
410.890938 424.734397 l
379.317813 424.734397 l
cl
0.090 0.745 0.812 setrgbcolor
fill
grestore
gsave
631.5 264.3 47.8 289.9 clipbox
442.464063 289.929 m
474.037188 289.929 l
474.037188 289.929 l
442.464063 289.929 l
cl
0.090 0.745 0.812 setrgbcolor
fill
grestore
gsave
631.5 264.3 47.8 289.9 clipbox
505.610313 289.929 m
537.183437 289.929 l
537.183437 289.929 l
505.610313 289.929 l
cl
0.090 0.745 0.812 setrgbcolor
fill
grestore
gsave
631.5 264.3 47.8 289.9 clipbox
568.756562 517.412126 m
600.329687 517.412126 l
600.329687 518.883695 l
568.756562 518.883695 l
cl
0.090 0.745 0.812 setrgbcolor
fill
grestore
gsave
631.5 264.3 47.8 289.9 clipbox
631.902812 289.929 m
663.475937 289.929 l
663.475937 289.929 l
631.902812 289.929 l
cl
0.090 0.745 0.812 setrgbcolor
fill
grestore
0.800 setlinewidth
1 setlinejoin
0 setlinecap
[] 0 setdash
0.000 setgray
gsave
/o {
gsave
newpath
translate
0.8 setlinewidth
1 setlinejoin
0 setlinecap
0 0 m
0 -3.5 l

gsave
0.000 setgray
fill
grestore
stroke
grestore
} bind def
79.3731 289.929 o
grestore
/DejaVuSans findfont
10.000 scalefont
setfont
gsave
42.048975 258.633870 translate
30.000000 rotate
0.000000 0 m /A glyphshow
6.840820 0 m /u glyphshow
13.178711 0 m /g glyphshow
19.526367 0 m /space glyphshow
22.705078 0 m /three glyphshow
29.067383 0 m /one glyphshow
grestore
gsave
56.304541 253.942504 translate
30.000000 rotate
0.000000 0 m /two glyphshow
6.362305 0 m /zero glyphshow
12.724609 0 m /two glyphshow
19.086914 0 m /zero glyphshow
grestore
gsave
/o {
gsave
newpath
translate
0.8 setlinewidth
1 setlinejoin
0 setlinecap
0 0 m
0 -3.5 l

gsave
0.000 setgray
fill
grestore
stroke
grestore
} bind def
142.519 289.929 o
grestore
gsave
111.385930 258.977620 translate
30.000000 rotate
0.000000 0 m /S glyphshow
6.347656 0 m /e glyphshow
12.500000 0 m /p glyphshow
18.847656 0 m /space glyphshow
22.026367 0 m /three glyphshow
28.388672 0 m /zero glyphshow
grestore
gsave
/o {
gsave
newpath
translate
0.8 setlinewidth
1 setlinejoin
0 setlinecap
0 0 m
0 -3.5 l

gsave
0.000 setgray
fill
grestore
stroke
grestore
} bind def
205.666 289.929 o
grestore
gsave
175.871813 259.751057 translate
30.000000 rotate
0.000000 0 m /O glyphshow
7.871094 0 m /c glyphshow
13.369141 0 m /t glyphshow
17.290039 0 m /space glyphshow
20.468750 0 m /three glyphshow
26.831055 0 m /one glyphshow
grestore
gsave
/o {
gsave
newpath
translate
0.8 setlinewidth
1 setlinejoin
0 setlinecap
0 0 m
0 -3.5 l

gsave
0.000 setgray
fill
grestore
stroke
grestore
} bind def
268.812 289.929 o
grestore
gsave
237.083037 258.633870 translate
30.000000 rotate
0.000000 0 m /N glyphshow
7.480469 0 m /o glyphshow
13.598633 0 m /v glyphshow
19.516602 0 m /space glyphshow
22.695312 0 m /three glyphshow
29.057617 0 m /zero glyphshow
grestore
gsave
/o {
gsave
newpath
translate
0.8 setlinewidth
1 setlinejoin
0 setlinecap
0 0 m
0 -3.5 l

gsave
0.000 setgray
fill
grestore
stroke
grestore
} bind def
331.958 289.929 o
grestore
gsave
300.378135 258.719807 translate
30.000000 rotate
0.000000 0 m /D glyphshow
7.700195 0 m /e glyphshow
13.852539 0 m /c glyphshow
19.350586 0 m /space glyphshow
22.529297 0 m /three glyphshow
28.891602 0 m /one glyphshow
grestore
gsave
/o {
gsave
newpath
translate
0.8 setlinewidth
1 setlinejoin
0 setlinecap
0 0 m
0 -3.5 l

gsave
0.000 setgray
fill
grestore
stroke
grestore
} bind def
395.104 289.929 o
grestore
gsave
361.339048 260.688557 translate
30.000000 rotate
0.000000 0 m /J glyphshow
2.949219 0 m /a glyphshow
9.077148 0 m /n glyphshow
15.415039 0 m /space glyphshow
18.593750 0 m /three glyphshow
24.956055 0 m /one glyphshow
grestore
gsave
372.035791 253.942504 translate
30.000000 rotate
0.000000 0 m /two glyphshow
6.362305 0 m /zero glyphshow
12.724609 0 m /two glyphshow
19.086914 0 m /one glyphshow
grestore
gsave
/o {
gsave
newpath
translate
0.8 setlinewidth
1 setlinejoin
0 setlinecap
0 0 m
0 -3.5 l

gsave
0.000 setgray
fill
grestore
stroke
grestore
} bind def
458.251 289.929 o
grestore
gsave
428.064395 259.524495 translate
30.000000 rotate
0.000000 0 m /F glyphshow
5.251953 0 m /e glyphshow
11.404297 0 m /b glyphshow
17.751953 0 m /space glyphshow
20.930664 0 m /two glyphshow
27.292969 0 m /eight glyphshow
grestore
gsave
/o {
gsave
newpath
translate
0.8 setlinewidth
1 setlinejoin
0 setlinecap
0 0 m
0 -3.5 l

gsave
0.000 setgray
fill
grestore
stroke
grestore
} bind def
521.397 289.929 o
grestore
gsave
490.249898 258.969807 translate
30.000000 rotate
0.000000 0 m /M glyphshow
8.627930 0 m /a glyphshow
14.755859 0 m /r glyphshow
18.867188 0 m /space glyphshow
22.045898 0 m /three glyphshow
28.408203 0 m /one glyphshow
grestore
gsave
/o {
gsave
newpath
translate
0.8 setlinewidth
1 setlinejoin
0 setlinecap
0 0 m
0 -3.5 l

gsave
0.000 setgray
fill
grestore
stroke
grestore
} bind def
584.543 289.929 o
grestore
gsave
554.749313 259.751057 translate
30.000000 rotate
0.000000 0 m /A glyphshow
6.840820 0 m /p glyphshow
13.188477 0 m /r glyphshow
17.299805 0 m /space glyphshow
20.478516 0 m /three glyphshow
26.840820 0 m /zero glyphshow
grestore
gsave
/o {
gsave
newpath
translate
0.8 setlinewidth
1 setlinejoin
0 setlinecap
0 0 m
0 -3.5 l

gsave
0.000 setgray
fill
grestore
stroke
grestore
} bind def
647.689 289.929 o
grestore
gsave
614.972727 258.063557 translate
30.000000 rotate
0.000000 0 m /M glyphshow
8.627930 0 m /a glyphshow
14.755859 0 m /y glyphshow
20.673828 0 m /space glyphshow
23.852539 0 m /three glyphshow
30.214844 0 m /one glyphshow
grestore
gsave
336.546875 235.549045 translate
0.000000 rotate
0.000000 0 m /t glyphshow
3.920898 0 m /i glyphshow
6.699219 0 m /m glyphshow
16.440430 0 m /e glyphshow
22.592773 0 m /s glyphshow
27.802734 0 m /t glyphshow
31.723633 0 m /a glyphshow
37.851562 0 m /m glyphshow
47.592773 0 m /p glyphshow
grestore
gsave
/o {
gsave
newpath
translate
0.8 setlinewidth
1 setlinejoin
0 setlinecap
-0 0 m
-3.5 0 l

gsave
0.000 setgray
fill
grestore
stroke
grestore
} bind def
47.8 289.929 o
grestore
gsave
24.893750 286.132125 translate
0.000000 rotate
0.000000 0 m /zero glyphshow
6.362305 0 m /period glyphshow
9.541016 0 m /zero glyphshow
grestore
gsave
/o {
gsave
newpath
translate
0.8 setlinewidth
1 setlinejoin
0 setlinecap
-0 0 m
-3.5 0 l

gsave
0.000 setgray
fill
grestore
stroke
grestore
} bind def
47.8 326.946 o
grestore
gsave
24.893750 323.149002 translate
0.000000 rotate
0.000000 0 m /zero glyphshow
6.362305 0 m /period glyphshow
9.541016 0 m /two glyphshow
grestore
gsave
/o {
gsave
newpath
translate
0.8 setlinewidth
1 setlinejoin
0 setlinecap
-0 0 m
-3.5 0 l

gsave
0.000 setgray
fill
grestore
stroke
grestore
} bind def
47.8 363.963 o
grestore
gsave
24.893750 360.165879 translate
0.000000 rotate
0.000000 0 m /zero glyphshow
6.362305 0 m /period glyphshow
9.541016 0 m /four glyphshow
grestore
gsave
/o {
gsave
newpath
translate
0.8 setlinewidth
1 setlinejoin
0 setlinecap
-0 0 m
-3.5 0 l

gsave
0.000 setgray
fill
grestore
stroke
grestore
} bind def
47.8 400.98 o
grestore
gsave
24.893750 397.182756 translate
0.000000 rotate
0.000000 0 m /zero glyphshow
6.362305 0 m /period glyphshow
9.541016 0 m /six glyphshow
grestore
gsave
/o {
gsave
newpath
translate
0.8 setlinewidth
1 setlinejoin
0 setlinecap
-0 0 m
-3.5 0 l

gsave
0.000 setgray
fill
grestore
stroke
grestore
} bind def
47.8 437.997 o
grestore
gsave
24.893750 434.199632 translate
0.000000 rotate
0.000000 0 m /zero glyphshow
6.362305 0 m /period glyphshow
9.541016 0 m /eight glyphshow
grestore
gsave
/o {
gsave
newpath
translate
0.8 setlinewidth
1 setlinejoin
0 setlinecap
-0 0 m
-3.5 0 l

gsave
0.000 setgray
fill
grestore
stroke
grestore
} bind def
47.8 475.013 o
grestore
gsave
24.893750 471.216509 translate
0.000000 rotate
0.000000 0 m /one glyphshow
6.362305 0 m /period glyphshow
9.541016 0 m /zero glyphshow
grestore
gsave
/o {
gsave
newpath
translate
0.8 setlinewidth
1 setlinejoin
0 setlinecap
-0 0 m
-3.5 0 l

gsave
0.000 setgray
fill
grestore
stroke
grestore
} bind def
47.8 512.03 o
grestore
gsave
24.893750 508.233386 translate
0.000000 rotate
0.000000 0 m /one glyphshow
6.362305 0 m /period glyphshow
9.541016 0 m /two glyphshow
grestore
gsave
/o {
gsave
newpath
translate
0.8 setlinewidth
1 setlinejoin
0 setlinecap
-0 0 m
-3.5 0 l

gsave
0.000 setgray
fill
grestore
stroke
grestore
} bind def
47.8 549.047 o
grestore
gsave
24.893750 545.250263 translate
0.000000 rotate
0.000000 0 m /one glyphshow
6.362305 0 m /period glyphshow
9.541016 0 m /four glyphshow
grestore
gsave
18.815625 407.595750 translate
90.000000 rotate
0.000000 0 m /V glyphshow
6.590820 0 m /i glyphshow
9.369141 0 m /e glyphshow
15.521484 0 m /w glyphshow
23.700195 0 m /s glyphshow
grestore
gsave
47.800000 557.200000 translate
0.000000 rotate
0.000000 0 m /one glyphshow
6.362305 0 m /e glyphshow
12.514648 0 m /seven glyphshow
grestore
0 setlinejoin
2 setlinecap
gsave
47.8 289.929 m
47.8 554.2 l
stroke
grestore
gsave
679.2625 289.929 m
679.2625 554.2 l
stroke
grestore
gsave
47.8 289.929 m
679.2625 289.929 l
stroke
grestore
gsave
47.8 554.2 m
679.2625 554.2 l
stroke
grestore
1.000 setlinewidth
0 setlinecap
0.300 setgray
gsave
58.359375 52.80395 m
672.703125 52.80395 l
674.036458 52.80395 674.703125 53.470617 674.703125 54.80395 c
674.703125 201.6477 l
674.703125 202.981033 674.036458 203.6477 672.703125 203.6477 c
58.359375 203.6477 l
57.026042 203.6477 56.359375 202.981033 56.359375 201.6477 c
56.359375 54.80395 l
56.359375 53.470617 57.026042 52.80395 58.359375 52.80395 c
cl
gsave
fill
grestore
stroke
grestore
0.800 setgray
gsave
56.359375 54.80395 m
670.703125 54.80395 l
672.036458 54.80395 672.703125 55.470617 672.703125 56.80395 c
672.703125 203.6477 l
672.703125 204.981033 672.036458 205.6477 670.703125 205.6477 c
56.359375 205.6477 l
55.026042 205.6477 54.359375 204.981033 54.359375 203.6477 c
54.359375 56.80395 l
54.359375 55.470617 55.026042 54.80395 56.359375 54.80395 c
cl
gsave
1.000 setgray
fill
grestore
stroke
grestore
gsave
58.359375 194.05395 m
78.359375 194.05395 l
78.359375 201.05395 l
58.359375 201.05395 l
cl
0.122 0.467 0.706 setrgbcolor
fill
grestore
0.000 setgray
gsave
86.359375 194.053950 translate
0.000000 rotate
0.000000 0 m /h glyphshow
6.337891 0 m /t glyphshow
10.258789 0 m /t glyphshow
14.179688 0 m /p glyphshow
20.527344 0 m /colon glyphshow
23.896484 0 m /slash glyphshow
27.265625 0 m /slash glyphshow
30.634766 0 m /t glyphshow
34.555664 0 m /period glyphshow
37.734375 0 m /m glyphshow
47.475586 0 m /e glyphshow
53.627930 0 m /slash glyphshow
56.997070 0 m /R glyphshow
63.570312 0 m /A glyphshow
70.411133 0 m /underscore glyphshow
75.411133 0 m /L glyphshow
80.857422 0 m /u glyphshow
87.195312 0 m /d glyphshow
93.542969 0 m /w glyphshow
101.721680 0 m /i glyphshow
104.500000 0 m /g glyphshow
grestore
gsave
58.359375 179.100825 m
78.359375 179.100825 l
78.359375 186.100825 l
58.359375 186.100825 l
cl
1.000 0.498 0.055 setrgbcolor
fill
grestore
gsave
86.359375 179.100825 translate
0.000000 rotate
0.000000 0 m /h glyphshow
6.337891 0 m /t glyphshow
10.258789 0 m /t glyphshow
14.179688 0 m /p glyphshow
20.527344 0 m /s glyphshow
25.737305 0 m /colon glyphshow
29.106445 0 m /slash glyphshow
32.475586 0 m /slash glyphshow
35.844727 0 m /two glyphshow
42.207031 0 m /zero glyphshow
48.569336 0 m /two glyphshow
54.931641 0 m /zero glyphshow
61.293945 0 m /n glyphshow
67.631836 0 m /e glyphshow
73.784180 0 m /w glyphshow
81.962891 0 m /s glyphshow
87.172852 0 m /period glyphshow
90.351562 0 m /d glyphshow
96.699219 0 m /e glyphshow
102.851562 0 m /slash glyphshow
106.220703 0 m /h glyphshow
112.558594 0 m /a glyphshow
118.686523 0 m /u glyphshow
125.024414 0 m /s glyphshow
130.234375 0 m /d glyphshow
136.582031 0 m /u glyphshow
142.919922 0 m /r glyphshow
146.781250 0 m /c glyphshow
152.279297 0 m /h glyphshow
158.617188 0 m /s glyphshow
163.827148 0 m /u glyphshow
170.165039 0 m /c glyphshow
175.663086 0 m /h glyphshow
182.000977 0 m /u glyphshow
188.338867 0 m /n glyphshow
194.676758 0 m /g glyphshow
201.024414 0 m /hyphen glyphshow
204.632812 0 m /b glyphshow
210.980469 0 m /e glyphshow
217.132812 0 m /i glyphshow
219.911133 0 m /hyphen glyphshow
223.519531 0 m /w glyphshow
231.698242 0 m /e glyphshow
237.850586 0 m /i glyphshow
240.628906 0 m /m glyphshow
250.370117 0 m /a glyphshow
256.498047 0 m /r glyphshow
260.359375 0 m /e glyphshow
266.511719 0 m /r glyphshow
269.998047 0 m /hyphen glyphshow
273.606445 0 m /s glyphshow
278.816406 0 m /e glyphshow
284.968750 0 m /n glyphshow
291.306641 0 m /s glyphshow
296.516602 0 m /a glyphshow
302.644531 0 m /t glyphshow
306.565430 0 m /i glyphshow
309.343750 0 m /o glyphshow
315.461914 0 m /n glyphshow
321.799805 0 m /s glyphshow
327.009766 0 m /r glyphshow
331.121094 0 m /i glyphshow
333.899414 0 m /c glyphshow
339.397461 0 m /h glyphshow
345.735352 0 m /t glyphshow
349.656250 0 m /e glyphshow
355.808594 0 m /r glyphshow
359.919922 0 m /slash glyphshow
grestore
gsave
58.359375 164.42895 m
78.359375 164.42895 l
78.359375 171.42895 l
58.359375 171.42895 l
cl
0.173 0.627 0.173 setrgbcolor
fill
grestore
gsave
86.359375 164.428950 translate
0.000000 rotate
0.000000 0 m /h glyphshow
6.337891 0 m /t glyphshow
10.258789 0 m /t glyphshow
14.179688 0 m /p glyphshow
20.527344 0 m /s glyphshow
25.737305 0 m /colon glyphshow
29.106445 0 m /slash glyphshow
32.475586 0 m /slash glyphshow
35.844727 0 m /d glyphshow
42.192383 0 m /l glyphshow
44.970703 0 m /i glyphshow
47.749023 0 m /v glyphshow
53.666992 0 m /e glyphshow
59.819336 0 m /period glyphshow
62.998047 0 m /t glyphshow
66.918945 0 m /v glyphshow
72.836914 0 m /slash glyphshow
76.206055 0 m /s glyphshow
81.416016 0 m /a glyphshow
87.543945 0 m /m glyphshow
97.285156 0 m /u glyphshow
103.623047 0 m /e glyphshow
109.775391 0 m /l glyphshow
112.553711 0 m /e glyphshow
118.706055 0 m /c glyphshow
124.204102 0 m /k glyphshow
129.620117 0 m /e glyphshow
135.772461 0 m /r glyphshow
139.883789 0 m /t glyphshow
grestore
gsave
58.359375 149.757075 m
78.359375 149.757075 l
78.359375 156.757075 l
58.359375 156.757075 l
cl
0.839 0.153 0.157 setrgbcolor
fill
grestore
gsave
86.359375 149.757075 translate
0.000000 rotate
0.000000 0 m /h glyphshow
6.337891 0 m /t glyphshow
10.258789 0 m /t glyphshow
14.179688 0 m /p glyphshow
20.527344 0 m /s glyphshow
25.737305 0 m /colon glyphshow
29.106445 0 m /slash glyphshow
32.475586 0 m /slash glyphshow
35.844727 0 m /d glyphshow
42.192383 0 m /l glyphshow
44.970703 0 m /i glyphshow
47.749023 0 m /v glyphshow
53.666992 0 m /e glyphshow
59.819336 0 m /period glyphshow
62.998047 0 m /t glyphshow
66.918945 0 m /v glyphshow
72.836914 0 m /slash glyphshow
76.206055 0 m /z glyphshow
81.455078 0 m /w glyphshow
89.633789 0 m /a glyphshow
95.761719 0 m /n glyphshow
102.099609 0 m /z glyphshow
107.348633 0 m /i glyphshow
110.126953 0 m /g glyphshow
116.474609 0 m /four glyphshow
122.836914 0 m /period glyphshow
126.015625 0 m /m glyphshow
135.756836 0 m /e glyphshow
141.909180 0 m /d glyphshow
148.256836 0 m /i glyphshow
151.035156 0 m /a glyphshow
grestore
gsave
58.359375 135.0852 m
78.359375 135.0852 l
78.359375 142.0852 l
58.359375 142.0852 l
cl
0.580 0.404 0.741 setrgbcolor
fill
grestore
gsave
86.359375 135.085200 translate
0.000000 rotate
0.000000 0 m /h glyphshow
6.337891 0 m /t glyphshow
10.258789 0 m /t glyphshow
14.179688 0 m /p glyphshow
20.527344 0 m /s glyphshow
25.737305 0 m /colon glyphshow
29.106445 0 m /slash glyphshow
32.475586 0 m /slash glyphshow
35.844727 0 m /r glyphshow
39.706055 0 m /e glyphshow
45.858398 0 m /i glyphshow
48.636719 0 m /t glyphshow
52.557617 0 m /s glyphshow
57.767578 0 m /c glyphshow
63.265625 0 m /h glyphshow
69.603516 0 m /u glyphshow
75.941406 0 m /s glyphshow
81.151367 0 m /t glyphshow
85.072266 0 m /e glyphshow
91.224609 0 m /r glyphshow
94.460938 0 m /period glyphshow
97.639648 0 m /d glyphshow
103.987305 0 m /e glyphshow
110.139648 0 m /slash glyphshow
113.508789 0 m /p glyphshow
119.856445 0 m /o glyphshow
125.974609 0 m /s glyphshow
131.184570 0 m /t glyphshow
135.105469 0 m /slash glyphshow
138.474609 0 m /i glyphshow
141.252930 0 m /n glyphshow
147.590820 0 m /t glyphshow
151.511719 0 m /e glyphshow
157.664062 0 m /n glyphshow
164.001953 0 m /s glyphshow
169.211914 0 m /i glyphshow
171.990234 0 m /v glyphshow
177.908203 0 m /p glyphshow
184.255859 0 m /f glyphshow
187.776367 0 m /l glyphshow
190.554688 0 m /e glyphshow
196.707031 0 m /g glyphshow
203.054688 0 m /e glyphshow
209.207031 0 m /r glyphshow
212.693359 0 m /hyphen glyphshow
216.301758 0 m /z glyphshow
221.550781 0 m /e glyphshow
227.703125 0 m /r glyphshow
231.814453 0 m /l glyphshow
234.592773 0 m /e glyphshow
240.745117 0 m /g glyphshow
247.092773 0 m /t glyphshow
251.013672 0 m /hyphen glyphshow
254.622070 0 m /s glyphshow
259.832031 0 m /p glyphshow
266.179688 0 m /a glyphshow
272.307617 0 m /h glyphshow
278.645508 0 m /n glyphshow
284.983398 0 m /s glyphshow
290.193359 0 m /hyphen glyphshow
293.801758 0 m /c glyphshow
299.299805 0 m /o glyphshow
305.417969 0 m /r glyphshow
309.279297 0 m /o glyphshow
315.397461 0 m /n glyphshow
321.735352 0 m /a glyphshow
327.863281 0 m /hyphen glyphshow
331.471680 0 m /p glyphshow
337.819336 0 m /o glyphshow
343.937500 0 m /l glyphshow
346.715820 0 m /i glyphshow
349.494141 0 m /t glyphshow
353.415039 0 m /i glyphshow
356.193359 0 m /k glyphshow
361.984375 0 m /hyphen glyphshow
365.342773 0 m /v glyphshow
371.260742 0 m /o glyphshow
377.378906 0 m /r glyphshow
380.865234 0 m /hyphen glyphshow
384.473633 0 m /l glyphshow
387.251953 0 m /a glyphshow
393.379883 0 m /u glyphshow
399.717773 0 m /f glyphshow
403.238281 0 m /e glyphshow
409.390625 0 m /n glyphshow
415.728516 0 m /d glyphshow
422.076172 0 m /e glyphshow
428.228516 0 m /r glyphshow
431.714844 0 m /hyphen glyphshow
435.323242 0 m /k glyphshow
440.989258 0 m /a glyphshow
447.117188 0 m /m glyphshow
456.858398 0 m /e glyphshow
463.010742 0 m /r glyphshow
467.122070 0 m /a glyphshow
473.250000 0 m /hyphen glyphshow
476.858398 0 m /n glyphshow
483.196289 0 m /e glyphshow
489.348633 0 m /b glyphshow
495.696289 0 m /e glyphshow
501.848633 0 m /n glyphshow
508.186523 0 m /hyphen glyphshow
511.794922 0 m /d glyphshow
518.142578 0 m /e glyphshow
524.294922 0 m /m glyphshow
534.036133 0 m /hyphen glyphshow
537.644531 0 m /m glyphshow
547.385742 0 m /i glyphshow
550.164062 0 m /n glyphshow
556.501953 0 m /i glyphshow
559.280273 0 m /s glyphshow
564.490234 0 m /t glyphshow
568.411133 0 m /e glyphshow
574.563477 0 m /r glyphshow
578.674805 0 m /slash glyphshow
grestore
gsave
58.359375 120.413325 m
78.359375 120.413325 l
78.359375 127.413325 l
58.359375 127.413325 l
cl
0.549 0.337 0.294 setrgbcolor
fill
grestore
gsave
86.359375 120.413325 translate
0.000000 rotate
0.000000 0 m /h glyphshow
6.337891 0 m /t glyphshow
10.258789 0 m /t glyphshow
14.179688 0 m /p glyphshow
20.527344 0 m /s glyphshow
25.737305 0 m /colon glyphshow
29.106445 0 m /slash glyphshow
32.475586 0 m /slash glyphshow
35.844727 0 m /t glyphshow
39.765625 0 m /period glyphshow
42.944336 0 m /m glyphshow
52.685547 0 m /e glyphshow
58.837891 0 m /slash glyphshow
62.207031 0 m /H glyphshow
69.726562 0 m /a glyphshow
75.854492 0 m /i glyphshow
78.632812 0 m /n glyphshow
84.970703 0 m /t glyphshow
88.891602 0 m /z glyphshow
grestore
gsave
58.359375 105.74145 m
78.359375 105.74145 l
78.359375 112.74145 l
58.359375 112.74145 l
cl
0.890 0.467 0.761 setrgbcolor
fill
grestore
gsave
86.359375 105.741450 translate
0.000000 rotate
0.000000 0 m /h glyphshow
6.337891 0 m /t glyphshow
10.258789 0 m /t glyphshow
14.179688 0 m /p glyphshow
20.527344 0 m /s glyphshow
25.737305 0 m /colon glyphshow
29.106445 0 m /slash glyphshow
32.475586 0 m /slash glyphshow
35.844727 0 m /t glyphshow
39.765625 0 m /period glyphshow
42.944336 0 m /m glyphshow
52.685547 0 m /e glyphshow
58.837891 0 m /slash glyphshow
62.207031 0 m /R glyphshow
68.780273 0 m /A glyphshow
75.621094 0 m /S glyphshow
81.968750 0 m /a glyphshow
88.096680 0 m /t glyphshow
92.017578 0 m /t glyphshow
95.938477 0 m /e glyphshow
102.090820 0 m /l glyphshow
104.869141 0 m /m glyphshow
114.610352 0 m /a glyphshow
120.738281 0 m /i glyphshow
123.516602 0 m /e glyphshow
129.668945 0 m /r glyphshow
grestore
gsave
58.359375 91.069575 m
78.359375 91.069575 l
78.359375 98.069575 l
58.359375 98.069575 l
cl
0.498 setgray
fill
grestore
gsave
86.359375 91.069575 translate
0.000000 rotate
0.000000 0 m /h glyphshow
6.337891 0 m /t glyphshow
10.258789 0 m /t glyphshow
14.179688 0 m /p glyphshow
20.527344 0 m /s glyphshow
25.737305 0 m /colon glyphshow
29.106445 0 m /slash glyphshow
32.475586 0 m /slash glyphshow
35.844727 0 m /t glyphshow
39.765625 0 m /period glyphshow
42.944336 0 m /m glyphshow
52.685547 0 m /e glyphshow
58.837891 0 m /slash glyphshow
62.207031 0 m /R glyphshow
68.655273 0 m /e glyphshow
74.807617 0 m /i glyphshow
77.585938 0 m /n glyphshow
83.923828 0 m /e glyphshow
90.076172 0 m /r glyphshow
94.187500 0 m /F glyphshow
99.439453 0 m /u glyphshow
105.777344 0 m /e glyphshow
111.929688 0 m /l glyphshow
114.708008 0 m /l glyphshow
117.486328 0 m /m glyphshow
127.227539 0 m /i glyphshow
130.005859 0 m /c glyphshow
135.503906 0 m /h glyphshow
141.841797 0 m /underscore glyphshow
146.841797 0 m /M glyphshow
155.469727 0 m /u glyphshow
161.807617 0 m /l glyphshow
164.585938 0 m /t glyphshow
168.506836 0 m /i glyphshow
171.285156 0 m /m glyphshow
181.026367 0 m /e glyphshow
187.178711 0 m /d glyphshow
193.526367 0 m /i glyphshow
196.304688 0 m /a glyphshow
202.432617 0 m /slash glyphshow
205.801758 0 m /three glyphshow
212.164062 0 m /eight glyphshow
grestore
gsave
58.359375 76.11645 m
78.359375 76.11645 l
78.359375 83.11645 l
58.359375 83.11645 l
cl
0.737 0.741 0.133 setrgbcolor
fill
grestore
gsave
86.359375 76.116450 translate
0.000000 rotate
0.000000 0 m /h glyphshow
6.337891 0 m /t glyphshow
10.258789 0 m /t glyphshow
14.179688 0 m /p glyphshow
20.527344 0 m /s glyphshow
25.737305 0 m /colon glyphshow
29.106445 0 m /slash glyphshow
32.475586 0 m /slash glyphshow
35.844727 0 m /t glyphshow
39.765625 0 m /period glyphshow
42.944336 0 m /m glyphshow
52.685547 0 m /e glyphshow
58.837891 0 m /slash glyphshow
62.207031 0 m /R glyphshow
68.655273 0 m /e glyphshow
74.807617 0 m /i glyphshow
77.585938 0 m /n glyphshow
83.923828 0 m /e glyphshow
90.076172 0 m /r glyphshow
94.187500 0 m /F glyphshow
99.439453 0 m /u glyphshow
105.777344 0 m /e glyphshow
111.929688 0 m /l glyphshow
114.708008 0 m /l glyphshow
117.486328 0 m /m glyphshow
127.227539 0 m /i glyphshow
130.005859 0 m /c glyphshow
135.503906 0 m /h glyphshow
141.841797 0 m /underscore glyphshow
146.841797 0 m /M glyphshow
155.469727 0 m /u glyphshow
161.807617 0 m /l glyphshow
164.585938 0 m /t glyphshow
168.506836 0 m /i glyphshow
171.285156 0 m /m glyphshow
181.026367 0 m /e glyphshow
187.178711 0 m /d glyphshow
193.526367 0 m /i glyphshow
196.304688 0 m /a glyphshow
202.432617 0 m /slash glyphshow
205.801758 0 m /four glyphshow
212.164062 0 m /four glyphshow
grestore
gsave
58.359375 61.163325 m
78.359375 61.163325 l
78.359375 68.163325 l
58.359375 68.163325 l
cl
0.090 0.745 0.812 setrgbcolor
fill
grestore
gsave
86.359375 61.163325 translate
0.000000 rotate
0.000000 0 m /h glyphshow
6.337891 0 m /t glyphshow
10.258789 0 m /t glyphshow
14.179688 0 m /p glyphshow
20.527344 0 m /s glyphshow
25.737305 0 m /colon glyphshow
29.106445 0 m /slash glyphshow
32.475586 0 m /slash glyphshow
35.844727 0 m /w glyphshow
44.023438 0 m /w glyphshow
52.202148 0 m /w glyphshow
59.505859 0 m /period glyphshow
62.684570 0 m /c glyphshow
68.182617 0 m /k glyphshow
73.973633 0 m /b glyphshow
80.321289 0 m /hyphen glyphshow
83.929688 0 m /a glyphshow
90.057617 0 m /n glyphshow
96.395508 0 m /w glyphshow
104.574219 0 m /a glyphshow
110.702148 0 m /e glyphshow
116.854492 0 m /l glyphshow
119.632812 0 m /t glyphshow
123.553711 0 m /e glyphshow
129.706055 0 m /period glyphshow
132.884766 0 m /d glyphshow
139.232422 0 m /e glyphshow
145.384766 0 m /slash glyphshow
148.753906 0 m /d glyphshow
155.101562 0 m /o glyphshow
161.219727 0 m /w glyphshow
169.398438 0 m /n glyphshow
175.736328 0 m /l glyphshow
178.514648 0 m /o glyphshow
184.632812 0 m /a glyphshow
190.760742 0 m /d glyphshow
197.108398 0 m /slash glyphshow
200.477539 0 m /O glyphshow
208.223633 0 m /V glyphshow
215.064453 0 m /G glyphshow
222.813477 0 m /underscore glyphshow
227.813477 0 m /N glyphshow
235.293945 0 m /R glyphshow
241.867188 0 m /W glyphshow
251.754883 0 m /underscore glyphshow
256.754883 0 m /B glyphshow
263.615234 0 m /e glyphshow
269.767578 0 m /s glyphshow
274.977539 0 m /c glyphshow
280.475586 0 m /h glyphshow
286.813477 0 m /l glyphshow
289.591797 0 m /u glyphshow
295.929688 0 m /s glyphshow
301.139648 0 m /s glyphshow
306.349609 0 m /underscore glyphshow
311.349609 0 m /v glyphshow
317.267578 0 m /o glyphshow
323.385742 0 m /m glyphshow
333.126953 0 m /underscore glyphshow
338.126953 0 m /two glyphshow
344.489258 0 m /five glyphshow
350.851562 0 m /period glyphshow
354.030273 0 m /one glyphshow
360.392578 0 m /one glyphshow
366.754883 0 m /period glyphshow
369.933594 0 m /two glyphshow
376.295898 0 m /zero glyphshow
382.658203 0 m /two glyphshow
389.020508 0 m /zero glyphshow
395.382812 0 m /period glyphshow
398.561523 0 m /p glyphshow
404.909180 0 m /d glyphshow
411.256836 0 m /f glyphshow
grestore

end
showpage
